fpga/uart/uart.vcd
$date
	Sun Nov 10 13:55:29 2024
$end
$version
	Icarus Verilog
$end
$timescale
	1s
$end
$scope module test $end
$var wire 1 ! uart_tx $end
$var reg 8 " baud_division [7:0] $end
$var reg 1 # clock $end
$var reg 1 $ reset_n $end
$var reg 8 % tx_data [7:0] $end
$var reg 1 & tx_start $end
$scope module dut $end
$var wire 8 ' baud_division [7:0] $end
$var wire 1 # clock $end
$var wire 1 $ reset_n $end
$var wire 8 ( tx_data [7:0] $end
$var wire 1 & tx_start $end
$var parameter 3 ) DATA_TX $end
$var parameter 3 * IDLE $end
$var parameter 3 + PARITY $end
$var parameter 3 , PAUSE $end
$var parameter 3 - START $end
$var parameter 3 . STOP1 $end
$var parameter 3 / STOP2 $end
$var reg 8 0 baud_counter [7:0] $end
$var reg 3 1 bit_count [2:0] $end
$var reg 3 2 ns [2:0] $end
$var reg 3 3 ps [2:0] $end
$var reg 8 4 tx_shadow_reg [7:0] $end
$var reg 1 5 uart_clk $end
$var reg 1 ! uart_tx $end
$var reg 3 6 wait_count [2:0] $end
$upscope $end
$upscope $end
$enddefinitions $end
$comment Show the parameter values. $end
$dumpall
b101 /
b100 .
b1 -
b110 ,
b11 +
b0 *
b10 )
$end
#0
$dumpvars
b0 6
05
b0 4
b0 3
b0 2
b0 1
b0 0
bx (
bx '
0&
bx %
0$
0#
bx "
1!
$end
#1
1#
#2
0#
#3
1#
#4
0#
#5
1#
#6
0#
#7
1#
#8
0#
#9
1#
#10
0#
b101 "
b101 '
b10100110 %
b10100110 (
1$
#11
b1 0
1#
#12
0#
#13
b10 0
1#
#14
0#
#15
b11 0
1#
#16
0#
#17
b100 0
1#
#18
0#
#19
b101 0
1#
#20
0#
#21
b0 0
15
1#
#22
0#
#23
b1 0
1#
#24
0#
#25
b10 0
1#
#26
0#
#27
b11 0
1#
#28
0#
#29
b100 0
1#
#30
0#
#31
b101 0
1#
#32
0#
#33
b0 0
05
1#
#34
0#
#35
b1 0
1#
#36
0#
#37
b10 0
1#
#38
0#
#39
b11 0
1#
#40
0#
#41
b100 0
1#
#42
0#
#43
b101 0
1#
#44
0#
#45
b0 0
15
1#
#46
0#
#47
b1 0
1#
#48
0#
#49
b10 0
1#
#50
0#
#51
b11 0
1#
#52
0#
#53
b100 0
1#
#54
0#
#55
b101 0
1#
#56
0#
#57
b0 0
05
1#
#58
0#
#59
b1 0
1#
#60
0#
#61
b10 0
1#
#62
0#
#63
b11 0
1#
#64
0#
#65
b100 0
1#
#66
0#
#67
b101 0
1#
#68
0#
#69
b0 0
15
1#
#70
0#
#71
b1 0
1#
#72
0#
#73
b10 0
1#
#74
0#
#75
b11 0
1#
#76
0#
#77
b100 0
1#
#78
0#
#79
b101 0
1#
#80
0#
#81
b0 0
05
1#
#82
0#
#83
b1 0
1#
#84
0#
#85
b10 0
1#
#86
0#
#87
b11 0
1#
#88
0#
#89
b100 0
1#
#90
0#
#91
b101 0
1#
#92
0#
#93
b0 0
15
1#
#94
0#
#95
b1 0
1#
#96
0#
#97
b10 0
1#
#98
0#
#99
b11 0
1#
#100
0#
#101
b100 0
1#
#102
0#
#103
b101 0
1#
#104
0#
#105
b0 0
05
1#
#106
0#
#107
b1 0
1#
#108
0#
#109
b10 0
1#
#110
b1 2
0#
1&
#111
b11 0
1#
#112
0#
#113
b100 0
1#
#114
0#
#115
b101 0
1#
#116
0#
#117
b10 2
b1 3
b0 0
15
1#
#118
0#
#119
b1 0
1#
#120
0#
#121
b10 0
1#
#122
0#
#123
b11 0
1#
#124
0#
#125
b100 0
1#
#126
0#
#127
b101 0
1#
#128
0#
#129
b0 0
05
1#
#130
0#
#131
b1 0
1#
#132
0#
#133
b10 0
1#
#134
0#
#135
b11 0
1#
#136
0#
#137
b100 0
1#
#138
0#
#139
b101 0
1#
#140
0#
#141
0!
b10100110 4
b10 3
b0 0
15
1#
#142
0#
#143
b1 0
1#
#144
0#
#145
b10 0
1#
#146
0#
#147
b11 0
1#
#148
0#
#149
b100 0
1#
#150
0#
#151
b101 0
1#
#152
0#
#153
b0 0
05
1#
#154
0#
#155
b1 0
1#
#156
0#
#157
b10 0
1#
#158
0#
#159
b11 0
1#
#160
0#
#161
b100 0
1#
#162
0#
#163
b101 0
1#
#164
0#
#165
b1 1
b0 0
15
1#
#166
0#
#167
b1 0
1#
#168
0#
#169
b10 0
1#
#170
0#
#171
b11 0
1#
#172
0#
#173
b100 0
1#
#174
0#
#175
b101 0
1#
#176
0#
#177
b0 0
05
1#
#178
0#
#179
b1 0
1#
#180
0#
#181
b10 0
1#
#182
0#
#183
b11 0
1#
#184
0#
#185
b100 0
1#
#186
0#
#187
b101 0
1#
#188
0#
#189
b10 1
1!
b0 0
15
1#
#190
0#
#191
b1 0
1#
#192
0#
#193
b10 0
1#
#194
0#
#195
b11 0
1#
#196
0#
#197
b100 0
1#
#198
0#
#199
b101 0
1#
#200
0#
#201
b0 0
05
1#
#202
0#
#203
b1 0
1#
#204
0#
#205
b10 0
1#
#206
0#
#207
b11 0
1#
#208
0#
#209
b100 0
1#
#210
0#
#211
b101 0
1#
#212
0#
#213
b11 1
b0 0
15
1#
#214
0#
#215
b1 0
1#
#216
0#
#217
b10 0
1#
#218
0#
#219
b11 0
1#
#220
0#
#221
b100 0
1#
#222
0#
#223
b101 0
1#
#224
0#
#225
b0 0
05
1#
#226
0#
#227
b1 0
1#
#228
0#
#229
b10 0
1#
#230
0#
#231
b11 0
1#
#232
0#
#233
b100 0
1#
#234
0#
#235
b101 0
1#
#236
0#
#237
b100 1
0!
b0 0
15
1#
#238
0#
#239
b1 0
1#
#240
0#
#241
b10 0
1#
#242
0#
#243
b11 0
1#
#244
0#
#245
b100 0
1#
#246
0#
#247
b101 0
1#
#248
0#
#249
b0 0
05
1#
#250
0#
#251
b1 0
1#
#252
0#
#253
b10 0
1#
#254
0#
#255
b11 0
1#
#256
0#
#257
b100 0
1#
#258
0#
#259
b101 0
1#
#260
0#
#261
b101 1
b0 0
15
1#
#262
0#
#263
b1 0
1#
#264
0#
#265
b10 0
1#
#266
0#
#267
b11 0
1#
#268
0#
#269
b100 0
1#
#270
0#
#271
b101 0
1#
#272
0#
#273
b0 0
05
1#
#274
0#
#275
b1 0
1#
#276
0#
#277
b10 0
1#
#278
0#
#279
b11 0
1#
#280
0#
#281
b100 0
1#
#282
0#
#283
b101 0
1#
#284
0#
#285
b11 2
b110 1
1!
b0 0
15
1#
#286
0#
#287
b1 0
1#
#288
0#
#289
b10 0
1#
#290
0#
#291
b11 0
1#
#292
0#
#293
b100 0
1#
#294
0#
#295
b101 0
1#
#296
0#
#297
b0 0
05
1#
#298
0#
#299
b1 0
1#
#300
0#
#301
b10 0
1#
#302
0#
#303
b11 0
1#
#304
0#
#305
b100 0
1#
#306
0#
#307
b101 0
1#
#308
0#
#309
b100 2
b111 1
0!
b11 3
b0 0
15
1#
#310
0#
#311
b1 0
1#
#312
0#
#313
b10 0
1#
#314
0#
#315
b11 0
1#
#316
0#
#317
b100 0
1#
#318
0#
#319
b101 0
1#
#320
0#
#321
b0 0
05
1#
#322
0#
#323
b1 0
1#
#324
0#
#325
b10 0
1#
#326
0#
#327
b11 0
1#
#328
0#
#329
b100 0
1#
#330
0#
#331
b101 0
1#
#332
0#
#333
b101 2
1!
b100 3
b0 0
15
1#
#334
0#
#335
b1 0
1#
#336
0#
#337
b10 0
1#
#338
0#
#339
b11 0
1#
#340
0#
#341
b100 0
1#
#342
0#
#343
b101 0
1#
#344
0#
#345
b0 0
05
1#
#346
0#
#347
b1 0
1#
#348
0#
#349
b10 0
1#
#350
0#
#351
b11 0
1#
#352
0#
#353
b100 0
1#
#354
0#
#355
b101 0
1#
#356
0#
#357
b110 2
b0 1
b101 3
b0 0
15
1#
#358
0#
#359
b1 0
1#
#360
0#
#361
b10 0
1#
#362
0#
#363
b11 0
1#
#364
0#
#365
b100 0
1#
#366
0#
#367
b101 0
1#
#368
0#
#369
b0 0
05
1#
#370
0#
#371
b1 0
1#
#372
0#
#373
b10 0
1#
#374
0#
#375
b11 0
1#
#376
0#
#377
b100 0
1#
#378
0#
#379
b101 0
1#
#380
0#
#381
b110 3
b0 0
15
1#
#382
0#
#383
b1 0
1#
#384
0#
#385
b10 0
1#
#386
0#
#387
b11 0
1#
#388
0#
#389
b100 0
1#
#390
0#
#391
b101 0
1#
#392
0#
#393
b0 0
05
1#
#394
0#
#395
b1 0
1#
#396
0#
#397
b10 0
1#
#398
0#
#399
b11 0
1#
#400
0#
#401
b100 0
1#
#402
0#
#403
b101 0
1#
#404
0#
#405
b1 6
b0 0
15
1#
#406
0#
#407
b1 0
1#
#408
0#
#409
b10 0
1#
#410
0#
#411
b11 0
1#
#412
0#
#413
b100 0
1#
#414
0#
#415
b101 0
1#
#416
0#
#417
b0 0
05
1#
#418
0#
#419
b1 0
1#
#420
0#
#421
b10 0
1#
#422
0#
#423
b11 0
1#
#424
0#
#425
b100 0
1#
#426
0#
#427
b101 0
1#
#428
0#
#429
b10 6
b0 0
15
1#
#430
0#
#431
b1 0
1#
#432
0#
#433
b10 0
1#
#434
0#
#435
b11 0
1#
#436
0#
#437
b100 0
1#
#438
0#
#439
b101 0
1#
#440
0#
#441
b0 0
05
1#
#442
0#
#443
b1 0
1#
#444
0#
#445
b10 0
1#
#446
0#
#447
b11 0
1#
#448
0#
#449
b100 0
1#
#450
0#
#451
b101 0
1#
#452
0#
#453
b11 6
b0 0
15
1#
#454
0#
#455
b1 0
1#
#456
0#
#457
b10 0
1#
#458
0#
#459
b11 0
1#
#460
0#
#461
b100 0
1#
#462
0#
#463
b101 0
1#
#464
0#
#465
b0 0
05
1#
#466
0#
#467
b1 0
1#
#468
0#
#469
b10 0
1#
#470
0#
#471
b11 0
1#
#472
0#
#473
b100 0
1#
#474
0#
#475
b101 0
1#
#476
0#
#477
b100 6
b0 0
15
1#
#478
0#
#479
b1 0
1#
#480
0#
#481
b10 0
1#
#482
0#
#483
b11 0
1#
#484
0#
#485
b100 0
1#
#486
0#
#487
b101 0
1#
#488
0#
#489
b0 0
05
1#
#490
0#
#491
b1 0
1#
#492
0#
#493
b10 0
1#
#494
0#
#495
b11 0
1#
#496
0#
#497
b100 0
1#
#498
0#
#499
b101 0
1#
#500
0#
#501
b101 6
b0 0
15
1#
#502
0#
#503
b1 0
1#
#504
0#
#505
b10 0
1#
#506
0#
#507
b11 0
1#
#508
0#
#509
b100 0
1#
#510
0#
#511
b101 0
1#
#512
0#
#513
b0 0
05
1#
#514
0#
#515
b1 0
1#
#516
0#
#517
b10 0
1#
#518
0#
#519
b11 0
1#
#520
0#
#521
b100 0
1#
#522
0#
#523
b101 0
1#
#524
0#
#525
b110 6
b0 0
15
1#
#526
0#
#527
b1 0
1#
#528
0#
#529
b10 0
1#
#530
0#
#531
b11 0
1#
#532
0#
#533
b100 0
1#
#534
0#
#535
b101 0
1#
#536
0#
#537
b0 0
05
1#
#538
0#
#539
b1 0
1#
#540
0#
#541
b10 0
1#
#542
0#
#543
b11 0
1#
#544
0#
#545
b100 0
1#
#546
0#
#547
b101 0
1#
#548
0#
#549
b0 2
b111 6
b0 0
15
1#
#550
0#
#551
b1 0
1#
#552
0#
#553
b10 0
1#
#554
0#
#555
b11 0
1#
#556
0#
#557
b100 0
1#
#558
0#
#559
b101 0
1#
#560
0#
#561
b0 0
05
1#
#562
0#
#563
b1 0
1#
#564
0#
#565
b10 0
1#
#566
0#
#567
b11 0
1#
#568
0#
#569
b100 0
1#
#570
0#
#571
b101 0
1#
#572
0#
#573
b1 2
b0 6
b0 3
b0 0
15
1#
#574
0#
#575
b1 0
1#
#576
0#
#577
b10 0
1#
#578
0#
#579
b11 0
1#
#580
0#
#581
b100 0
1#
#582
0#
#583
b101 0
1#
#584
0#
#585
b0 0
05
1#
#586
0#
#587
b1 0
1#
#588
0#
#589
b10 0
1#
#590
0#
#591
b11 0
1#
#592
0#
#593
b100 0
1#
#594
0#
#595
b101 0
1#
#596
0#
#597
b10 2
b1 3
b0 0
15
1#
#598
0#
#599
b1 0
1#
#600
0#
#601
b10 0
1#
#602
0#
#603
b11 0
1#
#604
0#
#605
b100 0
1#
#606
0#
#607
b101 0
1#
#608
0#
#609
b0 0
05
1#
#610
0#
#611
b1 0
1#
#612
0#
#613
b10 0
1#
#614
0#
#615
b11 0
1#
#616
0#
#617
b100 0
1#
#618
0#
#619
b101 0
1#
#620
0#
#621
0!
b10 3
b0 0
15
1#
#622
0#
#623
b1 0
1#
#624
0#
#625
b10 0
1#
#626
0#
#627
b11 0
1#
#628
0#
#629
b100 0
1#
#630
0#
#631
b101 0
1#
#632
0#
#633
b0 0
05
1#
#634
0#
#635
b1 0
1#
#636
0#
#637
b10 0
1#
#638
0#
#639
b11 0
1#
#640
0#
#641
b100 0
1#
#642
0#
#643
b101 0
1#
#644
0#
#645
b1 1
b0 0
15
1#
#646
0#
#647
b1 0
1#
#648
0#
#649
b10 0
1#
#650
0#
#651
b11 0
1#
#652
0#
#653
b100 0
1#
#654
0#
#655
b101 0
1#
#656
0#
#657
b0 0
05
1#
#658
0#
#659
b1 0
1#
#660
0#
#661
b10 0
1#
#662
0#
#663
b11 0
1#
#664
0#
#665
b100 0
1#
#666
0#
#667
b101 0
1#
#668
0#
#669
b10 1
1!
b0 0
15
1#
#670
0#
#671
b1 0
1#
#672
0#
#673
b10 0
1#
#674
0#
#675
b11 0
1#
#676
0#
#677
b100 0
1#
#678
0#
#679
b101 0
1#
#680
0#
#681
b0 0
05
1#
#682
0#
#683
b1 0
1#
#684
0#
#685
b10 0
1#
#686
0#
#687
b11 0
1#
#688
0#
#689
b100 0
1#
#690
0#
#691
b101 0
1#
#692
0#
#693
b11 1
b0 0
15
1#
#694
0#
#695
b1 0
1#
#696
0#
#697
b10 0
1#
#698
0#
#699
b11 0
1#
#700
0#
#701
b100 0
1#
#702
0#
#703
b101 0
1#
#704
0#
#705
b0 0
05
1#
#706
0#
#707
b1 0
1#
#708
0#
#709
b10 0
1#
#710
0#
#711
b11 0
1#
#712
0#
#713
b100 0
1#
#714
0#
#715
b101 0
1#
#716
0#
#717
b100 1
0!
b0 0
15
1#
#718
0#
#719
b1 0
1#
#720
0#
#721
b10 0
1#
#722
0#
#723
b11 0
1#
#724
0#
#725
b100 0
1#
#726
0#
#727
b101 0
1#
#728
0#
#729
b0 0
05
1#
#730
0#
#731
b1 0
1#
#732
0#
#733
b10 0
1#
#734
0#
#735
b11 0
1#
#736
0#
#737
b100 0
1#
#738
0#
#739
b101 0
1#
#740
0#
#741
b101 1
b0 0
15
1#
#742
0#
#743
b1 0
1#
#744
0#
#745
b10 0
1#
#746
0#
#747
b11 0
1#
#748
0#
#749
b100 0
1#
#750
0#
#751
b101 0
1#
#752
0#
#753
b0 0
05
1#
#754
0#
#755
b1 0
1#
#756
0#
#757
b10 0
1#
#758
0#
#759
b11 0
1#
#760
0#
#761
b100 0
1#
#762
0#
#763
b101 0
1#
#764
0#
#765
b11 2
b110 1
1!
b0 0
15
1#
#766
0#
#767
b1 0
1#
#768
0#
#769
b10 0
1#
#770
0#
#771
b11 0
1#
#772
0#
#773
b100 0
1#
#774
0#
#775
b101 0
1#
#776
0#
#777
b0 0
05
1#
#778
0#
#779
b1 0
1#
#780
0#
#781
b10 0
1#
#782
0#
#783
b11 0
1#
#784
0#
#785
b100 0
1#
#786
0#
#787
b101 0
1#
#788
0#
#789
b100 2
b111 1
0!
b11 3
b0 0
15
1#
#790
0#
#791
b1 0
1#
#792
0#
#793
b10 0
1#
#794
0#
#795
b11 0
1#
#796
0#
#797
b100 0
1#
#798
0#
#799
b101 0
1#
#800
0#
#801
b0 0
05
1#
#802
0#
#803
b1 0
1#
#804
0#
#805
b10 0
1#
#806
0#
#807
b11 0
1#
#808
0#
#809
b100 0
1#
#810
0#
#811
b101 0
1#
#812
0#
#813
b101 2
1!
b100 3
b0 0
15
1#
#814
0#
#815
b1 0
1#
#816
0#
#817
b10 0
1#
#818
0#
#819
b11 0
1#
#820
0#
#821
b100 0
1#
#822
0#
#823
b101 0
1#
#824
0#
#825
b0 0
05
1#
#826
0#
#827
b1 0
1#
#828
0#
#829
b10 0
1#
#830
0#
#831
b11 0
1#
#832
0#
#833
b100 0
1#
#834
0#
#835
b101 0
1#
#836
0#
#837
b110 2
b0 1
b101 3
b0 0
15
1#
#838
0#
#839
b1 0
1#
#840
0#
#841
b10 0
1#
#842
0#
#843
b11 0
1#
#844
0#
#845
b100 0
1#
#846
0#
#847
b101 0
1#
#848
0#
#849
b0 0
05
1#
#850
0#
#851
b1 0
1#
#852
0#
#853
b10 0
1#
#854
0#
#855
b11 0
1#
#856
0#
#857
b100 0
1#
#858
0#
#859
b101 0
1#
#860
0#
#861
b110 3
b0 0
15
1#
#862
0#
#863
b1 0
1#
#864
0#
#865
b10 0
1#
#866
0#
#867
b11 0
1#
#868
0#
#869
b100 0
1#
#870
0#
#871
b101 0
1#
#872
0#
#873
b0 0
05
1#
#874
0#
#875
b1 0
1#
#876
0#
#877
b10 0
1#
#878
0#
#879
b11 0
1#
#880
0#
#881
b100 0
1#
#882
0#
#883
b101 0
1#
#884
0#
#885
b1 6
b0 0
15
1#
#886
0#
#887
b1 0
1#
#888
0#
#889
b10 0
1#
#890
0#
#891
b11 0
1#
#892
0#
#893
b100 0
1#
#894
0#
#895
b101 0
1#
#896
0#
#897
b0 0
05
1#
#898
0#
#899
b1 0
1#
#900
0#
#901
b10 0
1#
#902
0#
#903
b11 0
1#
#904
0#
#905
b100 0
1#
#906
0#
#907
b101 0
1#
#908
0#
#909
b10 6
b0 0
15
1#
#910
0#
#911
b1 0
1#
#912
0#
#913
b10 0
1#
#914
0#
#915
b11 0
1#
#916
0#
#917
b100 0
1#
#918
0#
#919
b101 0
1#
#920
0#
#921
b0 0
05
1#
#922
0#
#923
b1 0
1#
#924
0#
#925
b10 0
1#
#926
0#
#927
b11 0
1#
#928
0#
#929
b100 0
1#
#930
0#
#931
b101 0
1#
#932
0#
#933
b11 6
b0 0
15
1#
#934
0#
#935
b1 0
1#
#936
0#
#937
b10 0
1#
#938
0#
#939
b11 0
1#
#940
0#
#941
b100 0
1#
#942
0#
#943
b101 0
1#
#944
0#
#945
b0 0
05
1#
#946
0#
#947
b1 0
1#
#948
0#
#949
b10 0
1#
#950
0#
#951
b11 0
1#
#952
0#
#953
b100 0
1#
#954
0#
#955
b101 0
1#
#956
0#
#957
b100 6
b0 0
15
1#
#958
0#
#959
b1 0
1#
#960
0#
#961
b10 0
1#
#962
0#
#963
b11 0
1#
#964
0#
#965
b100 0
1#
#966
0#
#967
b101 0
1#
#968
0#
#969
b0 0
05
1#
#970
0#
#971
b1 0
1#
#972
0#
#973
b10 0
1#
#974
0#
#975
b11 0
1#
#976
0#
#977
b100 0
1#
#978
0#
#979
b101 0
1#
#980
0#
#981
b101 6
b0 0
15
1#
#982
0#
#983
b1 0
1#
#984
0#
#985
b10 0
1#
#986
0#
#987
b11 0
1#
#988
0#
#989
b100 0
1#
#990
0#
#991
b101 0
1#
#992
0#
#993
b0 0
05
1#
#994
0#
#995
b1 0
1#
#996
0#
#997
b10 0
1#
#998
0#
#999
b11 0
1#
#1000
0#
#1001
b100 0
1#
#1002
0#
#1003
b101 0
1#
#1004
0#
#1005
b110 6
b0 0
15
1#
#1006
0#
#1007
b1 0
1#
#1008
0#
#1009
b10 0
1#
#1010
0#
#1011
b11 0
1#
#1012
0#
#1013
b100 0
1#
#1014
0#
#1015
b101 0
1#
#1016
0#
#1017
b0 0
05
1#
#1018
0#
#1019
b1 0
1#
#1020
0#
#1021
b10 0
1#
#1022
0#
#1023
b11 0
1#
#1024
0#
#1025
b100 0
1#
#1026
0#
#1027
b101 0
1#
#1028
0#
#1029
b0 2
b111 6
b0 0
15
1#
#1030
0#
#1031
b1 0
1#
#1032
0#
#1033
b10 0
1#
#1034
0#
#1035
b11 0
1#
#1036
0#
#1037
b100 0
1#
#1038
0#
#1039
b101 0
1#
#1040
0#
#1041
b0 0
05
1#
#1042
0#
#1043
b1 0
1#
#1044
0#
#1045
b10 0
1#
#1046
0#
#1047
b11 0
1#
#1048
0#
#1049
b100 0
1#
#1050
0#
#1051
b101 0
1#
#1052
0#
#1053
b1 2
b0 6
b0 3
b0 0
15
1#
#1054
0#
#1055
b1 0
1#
#1056
0#
#1057
b10 0
1#
#1058
0#
#1059
b11 0
1#
#1060
0#
#1061
b100 0
1#
#1062
0#
#1063
b101 0
1#
#1064
0#
#1065
b0 0
05
1#
#1066
0#
#1067
b1 0
1#
#1068
0#
#1069
b10 0
1#
#1070
0#
#1071
b11 0
1#
#1072
0#
#1073
b100 0
1#
#1074
0#
#1075
b101 0
1#
#1076
0#
#1077
b10 2
b1 3
b0 0
15
1#
#1078
0#
#1079
b1 0
1#
#1080
0#
#1081
b10 0
1#
#1082
0#
#1083
b11 0
1#
#1084
0#
#1085
b100 0
1#
#1086
0#
#1087
b101 0
1#
#1088
0#
#1089
b0 0
05
1#
#1090
0#
#1091
b1 0
1#
#1092
0#
#1093
b10 0
1#
#1094
0#
#1095
b11 0
1#
#1096
0#
#1097
b100 0
1#
#1098
0#
#1099
b101 0
1#
#1100
0#
#1101
0!
b10 3
b0 0
15
1#
#1102
0#
#1103
b1 0
1#
#1104
0#
#1105
b10 0
1#
#1106
0#
#1107
b11 0
1#
#1108
0#
#1109
b100 0
1#
#1110
0#
#1111
b101 0
1#
#1112
0#
#1113
b0 0
05
1#
#1114
0#
#1115
b1 0
1#
#1116
0#
#1117
b10 0
1#
#1118
0#
#1119
b11 0
1#
#1120
0#
#1121
b100 0
1#
#1122
0#
#1123
b101 0
1#
#1124
0#
#1125
b1 1
b0 0
15
1#
#1126
0#
#1127
b1 0
1#
#1128
0#
#1129
b10 0
1#
#1130
0#
#1131
b11 0
1#
#1132
0#
#1133
b100 0
1#
#1134
0#
#1135
b101 0
1#
#1136
0#
#1137
b0 0
05
1#
#1138
0#
#1139
b1 0
1#
#1140
0#
#1141
b10 0
1#
#1142
0#
#1143
b11 0
1#
#1144
0#
#1145
b100 0
1#
#1146
0#
#1147
b101 0
1#
#1148
0#
#1149
b10 1
1!
b0 0
15
1#
#1150
0#
#1151
b1 0
1#
#1152
0#
#1153
b10 0
1#
#1154
0#
#1155
b11 0
1#
#1156
0#
#1157
b100 0
1#
#1158
0#
#1159
b101 0
1#
#1160
0#
#1161
b0 0
05
1#
#1162
0#
#1163
b1 0
1#
#1164
0#
#1165
b10 0
1#
#1166
0#
#1167
b11 0
1#
#1168
0#
#1169
b100 0
1#
#1170
0#
#1171
b101 0
1#
#1172
0#
#1173
b11 1
b0 0
15
1#
#1174
0#
#1175
b1 0
1#
#1176
0#
#1177
b10 0
1#
#1178
0#
#1179
b11 0
1#
#1180
0#
#1181
b100 0
1#
#1182
0#
#1183
b101 0
1#
#1184
0#
#1185
b0 0
05
1#
#1186
0#
#1187
b1 0
1#
#1188
0#
#1189
b10 0
1#
#1190
0#
#1191
b11 0
1#
#1192
0#
#1193
b100 0
1#
#1194
0#
#1195
b101 0
1#
#1196
0#
#1197
b100 1
0!
b0 0
15
1#
#1198
0#
#1199
b1 0
1#
#1200
0#
#1201
b10 0
1#
#1202
0#
#1203
b11 0
1#
#1204
0#
#1205
b100 0
1#
#1206
0#
#1207
b101 0
1#
#1208
0#
#1209
b0 0
05
1#
#1210
0#
#1211
b1 0
1#
#1212
0#
#1213
b10 0
1#
#1214
0#
#1215
b11 0
1#
#1216
0#
#1217
b100 0
1#
#1218
0#
#1219
b101 0
1#
#1220
0#
#1221
b101 1
b0 0
15
1#
#1222
0#
#1223
b1 0
1#
#1224
0#
#1225
b10 0
1#
#1226
0#
#1227
b11 0
1#
#1228
0#
#1229
b100 0
1#
#1230
0#
#1231
b101 0
1#
#1232
0#
#1233
b0 0
05
1#
#1234
0#
#1235
b1 0
1#
#1236
0#
#1237
b10 0
1#
#1238
0#
#1239
b11 0
1#
#1240
0#
#1241
b100 0
1#
#1242
0#
#1243
b101 0
1#
#1244
0#
#1245
b11 2
b110 1
1!
b0 0
15
1#
#1246
0#
#1247
b1 0
1#
#1248
0#
#1249
b10 0
1#
#1250
0#
#1251
b11 0
1#
#1252
0#
#1253
b100 0
1#
#1254
0#
#1255
b101 0
1#
#1256
0#
#1257
b0 0
05
1#
#1258
0#
#1259
b1 0
1#
#1260
0#
#1261
b10 0
1#
#1262
0#
#1263
b11 0
1#
#1264
0#
#1265
b100 0
1#
#1266
0#
#1267
b101 0
1#
#1268
0#
#1269
b100 2
b111 1
0!
b11 3
b0 0
15
1#
#1270
0#
#1271
b1 0
1#
#1272
0#
#1273
b10 0
1#
#1274
0#
#1275
b11 0
1#
#1276
0#
#1277
b100 0
1#
#1278
0#
#1279
b101 0
1#
#1280
0#
#1281
b0 0
05
1#
#1282
0#
#1283
b1 0
1#
#1284
0#
#1285
b10 0
1#
#1286
0#
#1287
b11 0
1#
#1288
0#
#1289
b100 0
1#
#1290
0#
#1291
b101 0
1#
#1292
0#
#1293
b101 2
1!
b100 3
b0 0
15
1#
#1294
0#
#1295
b1 0
1#
#1296
0#
#1297
b10 0
1#
#1298
0#
#1299
b11 0
1#
#1300
0#
#1301
b100 0
1#
#1302
0#
#1303
b101 0
1#
#1304
0#
#1305
b0 0
05
1#
#1306
0#
#1307
b1 0
1#
#1308
0#
#1309
b10 0
1#
#1310
0#
#1311
b11 0
1#
#1312
0#
#1313
b100 0
1#
#1314
0#
#1315
b101 0
1#
#1316
0#
#1317
b110 2
b0 1
b101 3
b0 0
15
1#
#1318
0#
#1319
b1 0
1#
#1320
0#
#1321
b10 0
1#
#1322
0#
#1323
b11 0
1#
#1324
0#
#1325
b100 0
1#
#1326
0#
#1327
b101 0
1#
#1328
0#
#1329
b0 0
05
1#
#1330
0#
#1331
b1 0
1#
#1332
0#
#1333
b10 0
1#
#1334
0#
#1335
b11 0
1#
#1336
0#
#1337
b100 0
1#
#1338
0#
#1339
b101 0
1#
#1340
0#
#1341
b110 3
b0 0
15
1#
#1342
0#
#1343
b1 0
1#
#1344
0#
#1345
b10 0
1#
#1346
0#
#1347
b11 0
1#
#1348
0#
#1349
b100 0
1#
#1350
0#
#1351
b101 0
1#
#1352
0#
#1353
b0 0
05
1#
#1354
0#
#1355
b1 0
1#
#1356
0#
#1357
b10 0
1#
#1358
0#
#1359
b11 0
1#
#1360
0#
#1361
b100 0
1#
#1362
0#
#1363
b101 0
1#
#1364
0#
#1365
b1 6
b0 0
15
1#
#1366
0#
#1367
b1 0
1#
#1368
0#
#1369
b10 0
1#
#1370
0#
#1371
b11 0
1#
#1372
0#
#1373
b100 0
1#
#1374
0#
#1375
b101 0
1#
#1376
0#
#1377
b0 0
05
1#
#1378
0#
#1379
b1 0
1#
#1380
0#
#1381
b10 0
1#
#1382
0#
#1383
b11 0
1#
#1384
0#
#1385
b100 0
1#
#1386
0#
#1387
b101 0
1#
#1388
0#
#1389
b10 6
b0 0
15
1#
#1390
0#
#1391
b1 0
1#
#1392
0#
#1393
b10 0
1#
#1394
0#
#1395
b11 0
1#
#1396
0#
#1397
b100 0
1#
#1398
0#
#1399
b101 0
1#
#1400
0#
#1401
b0 0
05
1#
#1402
0#
#1403
b1 0
1#
#1404
0#
#1405
b10 0
1#
#1406
0#
#1407
b11 0
1#
#1408
0#
#1409
b100 0
1#
#1410
0#
#1411
b101 0
1#
#1412
0#
#1413
b11 6
b0 0
15
1#
#1414
0#
#1415
b1 0
1#
#1416
0#
#1417
b10 0
1#
#1418
0#
#1419
b11 0
1#
#1420
0#
#1421
b100 0
1#
#1422
0#
#1423
b101 0
1#
#1424
0#
#1425
b0 0
05
1#
#1426
0#
#1427
b1 0
1#
#1428
0#
#1429
b10 0
1#
#1430
0#
#1431
b11 0
1#
#1432
0#
#1433
b100 0
1#
#1434
0#
#1435
b101 0
1#
#1436
0#
#1437
b100 6
b0 0
15
1#
#1438
0#
#1439
b1 0
1#
#1440
0#
#1441
b10 0
1#
#1442
0#
#1443
b11 0
1#
#1444
0#
#1445
b100 0
1#
#1446
0#
#1447
b101 0
1#
#1448
0#
#1449
b0 0
05
1#
#1450
0#
#1451
b1 0
1#
#1452
0#
#1453
b10 0
1#
#1454
0#
#1455
b11 0
1#
#1456
0#
#1457
b100 0
1#
#1458
0#
#1459
b101 0
1#
#1460
0#
#1461
b101 6
b0 0
15
1#
#1462
0#
#1463
b1 0
1#
#1464
0#
#1465
b10 0
1#
#1466
0#
#1467
b11 0
1#
#1468
0#
#1469
b100 0
1#
#1470
0#
#1471
b101 0
1#
#1472
0#
#1473
b0 0
05
1#
#1474
0#
#1475
b1 0
1#
#1476
0#
#1477
b10 0
1#
#1478
0#
#1479
b11 0
1#
#1480
0#
#1481
b100 0
1#
#1482
0#
#1483
b101 0
1#
#1484
0#
#1485
b110 6
b0 0
15
1#
#1486
0#
#1487
b1 0
1#
#1488
0#
#1489
b10 0
1#
#1490
0#
#1491
b11 0
1#
#1492
0#
#1493
b100 0
1#
#1494
0#
#1495
b101 0
1#
#1496
0#
#1497
b0 0
05
1#
#1498
0#
#1499
b1 0
1#
#1500
0#
#1501
b10 0
1#
#1502
0#
#1503
b11 0
1#
#1504
0#
#1505
b100 0
1#
#1506
0#
#1507
b101 0
1#
#1508
0#
#1509
b0 2
b111 6
b0 0
15
1#
#1510
0#
#1511
b1 0
1#
#1512
0#
#1513
b10 0
1#
#1514
0#
#1515
b11 0
1#
#1516
0#
#1517
b100 0
1#
#1518
0#
#1519
b101 0
1#
#1520
0#
#1521
b0 0
05
1#
#1522
0#
#1523
b1 0
1#
#1524
0#
#1525
b10 0
1#
#1526
0#
#1527
b11 0
1#
#1528
0#
#1529
b100 0
1#
#1530
0#
