fpga/addr_dec/ad.vcd
$date
	Tue Jul 30 15:10:52 2024
$end
$version
	Icarus Verilog
$end
$timescale
	1s
$end
$scope module test $end
$var wire 8 ! sr3_pwm_target [7:0] $end
$var wire 8 " sr2_pwm_target [7:0] $end
$var wire 8 # sr1_pwm_target [7:0] $end
$var wire 8 $ sr0_pwm_target [7:0] $end
$var wire 8 % servo3_pwm_target [7:0] $end
$var wire 8 & servo2_pwm_target [7:0] $end
$var wire 8 ' servo1_pwm_target [7:0] $end
$var wire 8 ( servo0_pwm_target [7:0] $end
$var wire 8 ) sd3_pwm_target [7:0] $end
$var wire 8 * sd2_pwm_target [7:0] $end
$var wire 8 + sd1_pwm_target [7:0] $end
$var wire 8 , sd0_pwm_target [7:0] $end
$var wire 12 - pwm_update [11:0] $end
$var wire 1 . crc_error $end
$var reg 1 / all_pwm_done $end
$var reg 1 0 cs_n $end
$var reg 1 1 fpga_clock $end
$var reg 12 2 pwm_done [11:0] $end
$var reg 1 3 reset_n $end
$var reg 1 4 spi_clock $end
$var reg 16 5 spi_out [15:0] $end
$var reg 4 6 timeout [3:0] $end
$scope module ad0 $end
$var wire 1 0 cs_n $end
$var wire 1 1 fpga_clock $end
$var wire 12 7 pwm_done [11:0] $end
$var wire 12 8 pwm_update [11:0] $end
$var wire 1 3 reset_n $end
$var wire 1 4 spi_clock $end
$var wire 16 9 spi_out [15:0] $end
$var wire 8 : sr3_pwm_target [7:0] $end
$var wire 8 ; sr2_pwm_target [7:0] $end
$var wire 8 < sr1_pwm_target [7:0] $end
$var wire 8 = sr0_pwm_target [7:0] $end
$var wire 8 > servo3_pwm_target [7:0] $end
$var wire 8 ? servo2_pwm_target [7:0] $end
$var wire 8 @ servo1_pwm_target [7:0] $end
$var wire 8 A servo0_pwm_target [7:0] $end
$var wire 8 B sd3_pwm_target [7:0] $end
$var wire 8 C sd2_pwm_target [7:0] $end
$var wire 8 D sd1_pwm_target [7:0] $end
$var wire 8 E sd0_pwm_target [7:0] $end
$var wire 4 F crc [3:0] $end
$var wire 4 G address [3:0] $end
$var reg 1 . crc_error $end
$var reg 1 H cs_n_ff $end
$var reg 1 I cs_n_ff2 $end
$var reg 1 J cs_n_ff3 $end
$var reg 1 K data_ready $end
$var reg 12 L update [11:0] $end
$upscope $end
$upscope $end
$enddefinitions $end
$comment Show the parameter values. $end
$dumpall
$end
#0
$dumpvars
b0 L
0K
0J
0I
0H
b0 G
b0 F
b0 E
b0 D
b0 C
b0 B
b0 A
b0 @
b0 ?
b0 >
b0 =
b0 <
b0 ;
b0 :
b0 9
b0 8
b0 7
b1111 6
b0 5
04
03
b0 2
01
10
0/
0.
b0 -
b0 ,
b0 +
b0 *
b0 )
b0 (
b0 '
b0 &
b0 %
b0 $
b0 #
b0 "
b0 !
$end
#3
11
#6
01
#7
14
#9
11
#10
13
#12
00
01
#14
b111 F
b1010111 $
b1010111 =
b1010111 #
b1010111 <
b1010111 "
b1010111 ;
b1010111 !
b1010111 :
b1010111 ,
b1010111 E
b1010111 +
b1010111 D
b1010111 *
b1010111 C
b1010111 )
b1010111 B
b1010111 (
b1010111 A
b1010111 '
b1010111 @
b1010111 &
b1010111 ?
b1010111 %
b1010111 >
b111000001010111 5
b111000001010111 9
04
#15
11
#18
01
#21
1H
10
11
14
#24
01
#27
1I
11
#28
04
#30
01
#33
1K
1J
11
#35
14
#36
01
#39
b111111111111 -
b111111111111 8
b111111111111 L
0K
11
#42
01
04
#45
11
#48
01
#49
14
#51
11
#54
01
#56
04
#57
11
#60
01
#63
b111111110000 -
b111111110000 8
b111111110000 L
b1111 2
b1111 7
11
14
#66
01
#69
11
#70
04
#72
01
#75
b0 -
b0 8
b0 L
b111111110000 2
b111111110000 7
11
