fpga/pwm_ctrl/a_to_p.vcd
$date
	Mon Aug 05 14:24:32 2024
$end
$version
	Icarus Verilog
$end
$timescale
	1s
$end
$scope module test $end
$var wire 1 ! pwm_direction $end
$var wire 1 " pwm_update $end
$var wire 1 # pwm_signal $end
$var wire 8 $ pwm_ratio [7:0] $end
$var wire 1 % pwm_enable $end
$var wire 1 & pwm_done $end
$var wire 1 ' angle_done $end
$var reg 1 ( angle_update $end
$var reg 1 ) clock $end
$var reg 8 * current_angle [7:0] $end
$var reg 1 + done $end
$var reg 1 , reset_n $end
$var reg 8 - target_angle [7:0] $end
$var reg 8 . timeout [7:0] $end
$scope module dut $end
$var wire 1 ) clock $end
$var wire 1 # pwm_signal $end
$var wire 1 , reset_n $end
$var wire 1 " pwm_update $end
$var wire 8 / pwm_ratio [7:0] $end
$var wire 1 % pwm_enable $end
$var reg 8 0 pwm_counter [7:0] $end
$var reg 1 & pwm_done $end
$var reg 8 1 pwm_target [7:0] $end
$upscope $end
$scope module dut0 $end
$var wire 1 ( angle_update $end
$var wire 1 ) clock $end
$var wire 8 2 current_angle [7:0] $end
$var wire 1 ! pwm_direction $end
$var wire 1 & pwm_done $end
$var wire 1 , reset_n $end
$var wire 8 3 target_angle [7:0] $end
$var parameter 2 4 ACCEL $end
$var parameter 4 5 BIG_DELTA $end
$var parameter 2 6 CRUISE $end
$var parameter 2 7 DECCEL $end
$var parameter 2 8 IDLE $end
$var parameter 4 9 MED_DELTA $end
$var parameter 12 : PROFILE_DELAY_TARGET $end
$var parameter 4 ; SMALL_DELTA $end
$var parameter 8 < TARGET_TOLERANCE $end
$var reg 1 ' angle_done $end
$var reg 4 = curr_step [3:0] $end
$var reg 9 > delta_angle [8:0] $end
$var reg 2 ? ns [1:0] $end
$var reg 4 @ num_steps [3:0] $end
$var reg 12 A profile_delay [11:0] $end
$var reg 2 B ps [1:0] $end
$var reg 1 % pwm_enable $end
$var reg 8 C pwm_ratio [7:0] $end
$var reg 1 " pwm_update $end
$upscope $end
$upscope $end
$enddefinitions $end
$comment Show the parameter values. $end
$dumpall
b10 <
b1000 ;
b11 :
b1011 9
b0 8
b11 7
b10 6
b1111 5
b1 4
$end
#0
$dumpvars
b10000000 C
b0 B
b0 A
b1011 @
b0 ?
b0 >
b0 =
b0 3
b0 2
b0 1
b0 0
b10000000 /
b110010 .
b0 -
0,
x+
b0 *
0)
0(
0'
0&
1%
b10000000 $
1#
0"
z!
$end
#1
0+
1)
#2
0)
#3
1)
#4
0)
#5
1)
#6
0)
#7
1)
#8
0)
#9
1)
#10
0)
b1010 *
b1010 2
b10010 -
b10010 3
1,
#11
0#
1"
b1000 >
b1 0
b1000 @
1)
#12
0)
#13
b10 0
1)
#14
0)
#15
b11 0
1)
#16
0)
#17
b100 0
1)
#18
0)
#19
b101 0
1)
#20
b1 ?
0)
1(
#21
b110 0
b1 B
1)
#22
0)
#23
b10000110 $
b10000110 /
b10000110 C
b111 0
1)
#24
0)
#25
b1000 0
1)
#26
0)
#27
b1001 0
1)
#28
0)
#29
b1010 0
1)
#30
0)
#31
b1011 0
1)
#32
0)
#33
b1100 0
1)
#34
0)
#35
b1101 0
1)
#36
0)
#37
b1110 0
1)
#38
0)
#39
b1111 0
1)
#40
0)
#41
b10000 0
1)
#42
0)
#43
b10001 0
1)
#44
0)
#45
b10010 0
1)
#46
0)
#47
b10011 0
1)
#48
0)
#49
b10100 0
1)
#50
0)
#51
b10101 0
1)
#52
0)
#53
b10110 0
1)
#54
0)
#55
b10111 0
1)
#56
0)
#57
b11000 0
1)
#58
0)
#59
b11001 0
1)
#60
0)
#61
b11010 0
1)
#62
0)
#63
b11011 0
1)
#64
0)
#65
b11100 0
1)
#66
0)
#67
b11101 0
1)
#68
0)
#69
b11110 0
1)
#70
0)
#71
b11111 0
1)
#72
0)
#73
b100000 0
1)
#74
0)
#75
b100001 0
1)
#76
0)
#77
b100010 0
1)
#78
0)
#79
b100011 0
1)
#80
0)
#81
b100100 0
1)
#82
0)
#83
b100101 0
1)
#84
0)
#85
b100110 0
1)
#86
0)
#87
b100111 0
1)
#88
0)
#89
b101000 0
1)
#90
0)
#91
b101001 0
1)
#92
0)
#93
b101010 0
1)
#94
0)
#95
b101011 0
1)
#96
0)
#97
b101100 0
1)
#98
0)
#99
b101101 0
1)
#100
0)
#101
b101110 0
1)
#102
0)
#103
b101111 0
1)
#104
0)
#105
b110000 0
1)
#106
0)
#107
b110001 0
1)
#108
0)
#109
b110010 0
1)
#110
0)
#111
b110011 0
1)
#112
0)
#113
b110100 0
1)
#114
0)
#115
b110101 0
1)
#116
0)
#117
b110110 0
1)
#118
0)
#119
b110111 0
1)
#120
0)
#121
b111000 0
1)
#122
0)
#123
b111001 0
1)
#124
0)
#125
b111010 0
1)
#126
0)
#127
b111011 0
1)
#128
0)
#129
b111100 0
1)
#130
0)
#131
b111101 0
1)
#132
0)
#133
b111110 0
1)
#134
0)
#135
b111111 0
1)
#136
0)
#137
b1000000 0
1)
#138
0)
#139
b1000001 0
1)
#140
0)
#141
b1000010 0
1)
#142
0)
#143
b1000011 0
1)
#144
0)
#145
b1000100 0
1)
#146
0)
#147
b1000101 0
1)
#148
0)
#149
b1000110 0
1)
#150
0)
#151
b1000111 0
1)
#152
0)
#153
b1001000 0
1)
#154
0)
#155
b1001001 0
1)
#156
0)
#157
b1001010 0
1)
#158
0)
#159
b1001011 0
1)
#160
0)
#161
b1001100 0
1)
#162
0)
#163
b1001101 0
1)
#164
0)
#165
b1001110 0
1)
#166
0)
#167
b1001111 0
1)
#168
0)
#169
b1010000 0
1)
#170
0)
#171
b1010001 0
1)
#172
0)
#173
b1010010 0
1)
#174
0)
#175
b1010011 0
1)
#176
0)
#177
b1010100 0
1)
#178
0)
#179
b1010101 0
1)
#180
0)
#181
b1010110 0
1)
#182
0)
#183
b1010111 0
1)
#184
0)
#185
b1011000 0
1)
#186
0)
#187
b1011001 0
1)
#188
0)
#189
b1011010 0
1)
#190
0)
#191
b1011011 0
1)
#192
0)
#193
b1011100 0
1)
#194
0)
#195
b1011101 0
1)
#196
0)
#197
b1011110 0
1)
#198
0)
#199
b1011111 0
1)
#200
0)
#201
b1100000 0
1)
#202
0)
#203
b1100001 0
1)
#204
0)
#205
b1100010 0
1)
#206
0)
#207
b1100011 0
1)
#208
0)
#209
b1100100 0
1)
#210
0)
#211
b1100101 0
1)
#212
0)
#213
b1100110 0
1)
#214
0)
#215
b1100111 0
1)
#216
0)
#217
b1101000 0
1)
#218
0)
#219
b1101001 0
1)
#220
0)
#221
b1101010 0
1)
#222
0)
#223
b1101011 0
1)
#224
0)
#225
b1101100 0
1)
#226
0)
#227
b1101101 0
1)
#228
0)
#229
b1101110 0
1)
#230
0)
#231
b1101111 0
1)
#232
0)
#233
b1110000 0
1)
#234
0)
#235
b1110001 0
1)
#236
0)
#237
b1110010 0
1)
#238
0)
#239
b1110011 0
1)
#240
0)
#241
b1110100 0
1)
#242
0)
#243
b1110101 0
1)
#244
0)
#245
b1110110 0
1)
#246
0)
#247
b1110111 0
1)
#248
0)
#249
b1111000 0
1)
#250
0)
#251
b1111001 0
1)
#252
0)
#253
b1111010 0
1)
#254
0)
#255
b1111011 0
1)
#256
0)
#257
b1111100 0
1)
#258
0)
#259
b1111101 0
1)
#260
0)
#261
b1111110 0
1)
#262
0)
#263
b1111111 0
1)
#264
0)
#265
b10000000 0
1)
#266
0)
#267
b10000001 0
1)
#268
0)
#269
b10000010 0
1)
#270
0)
#271
b10000011 0
1)
#272
0)
#273
b10000100 0
1)
#274
0)
#275
b10000101 0
1)
#276
0)
#277
b10000110 0
1)
#278
0)
#279
b10000111 0
1)
#280
0)
#281
b10001000 0
1)
#282
0)
#283
b10001001 0
1)
#284
0)
#285
b10001010 0
1)
#286
0)
#287
b10001011 0
1)
#288
0)
#289
b10001100 0
1)
#290
0)
#291
b10001101 0
1)
#292
0)
#293
b10001110 0
1)
#294
0)
#295
b10001111 0
1)
#296
0)
#297
b10010000 0
1)
#298
0)
#299
b10010001 0
1)
#300
0)
#301
b10010010 0
1)
#302
0)
#303
b10010011 0
1)
#304
0)
#305
b10010100 0
1)
#306
0)
#307
b10010101 0
1)
#308
0)
#309
b10010110 0
1)
#310
0)
#311
b10010111 0
1)
#312
0)
#313
b10011000 0
1)
#314
0)
#315
b10011001 0
1)
#316
0)
#317
b10011010 0
1)
#318
0)
#319
b10011011 0
1)
#320
0)
#321
b10011100 0
1)
#322
0)
#323
b10011101 0
1)
#324
0)
#325
b10011110 0
1)
#326
0)
#327
b10011111 0
1)
#328
0)
#329
b10100000 0
1)
#330
0)
#331
b10100001 0
1)
#332
0)
#333
b10100010 0
1)
#334
0)
#335
b10100011 0
1)
#336
0)
#337
b10100100 0
1)
#338
0)
#339
b10100101 0
1)
#340
0)
#341
b10100110 0
1)
#342
0)
#343
b10100111 0
1)
#344
0)
#345
b10101000 0
1)
#346
0)
#347
b10101001 0
1)
#348
0)
#349
b10101010 0
1)
#350
0)
#351
b10101011 0
1)
#352
0)
#353
b10101100 0
1)
#354
0)
#355
b10101101 0
1)
#356
0)
#357
b10101110 0
1)
#358
0)
#359
b10101111 0
1)
#360
0)
#361
b10110000 0
1)
#362
0)
#363
b10110001 0
1)
#364
0)
#365
b10110010 0
1)
#366
0)
#367
b10110011 0
1)
#368
0)
#369
b10110100 0
1)
#370
0)
#371
b10110101 0
1)
#372
0)
#373
b10110110 0
1)
#374
0)
#375
b10110111 0
1)
#376
0)
#377
b10111000 0
1)
#378
0)
#379
b10111001 0
1)
#380
0)
#381
b10111010 0
1)
#382
0)
#383
b10111011 0
1)
#384
0)
#385
b10111100 0
1)
#386
0)
#387
b10111101 0
1)
#388
0)
#389
b10111110 0
1)
#390
0)
#391
b10111111 0
1)
#392
0)
#393
b11000000 0
1)
#394
0)
#395
b11000001 0
1)
#396
0)
#397
b11000010 0
1)
#398
0)
#399
b11000011 0
1)
#400
0)
#401
b11000100 0
1)
#402
0)
#403
b11000101 0
1)
#404
0)
#405
b11000110 0
1)
#406
0)
#407
b11000111 0
1)
#408
0)
#409
b11001000 0
1)
#410
0)
#411
b11001001 0
1)
#412
0)
#413
b11001010 0
1)
#414
0)
#415
b11001011 0
1)
#416
0)
#417
b11001100 0
1)
#418
0)
#419
b11001101 0
1)
#420
0)
#421
b11001110 0
1)
#422
0)
#423
b11001111 0
1)
#424
0)
#425
b11010000 0
1)
#426
0)
#427
b11010001 0
1)
#428
0)
#429
b11010010 0
1)
#430
0)
#431
b11010011 0
1)
#432
0)
#433
b11010100 0
1)
#434
0)
#435
b11010101 0
1)
#436
0)
#437
b11010110 0
1)
#438
0)
#439
b11010111 0
1)
#440
0)
#441
b11011000 0
1)
#442
0)
#443
b11011001 0
1)
#444
0)
#445
b11011010 0
1)
#446
0)
#447
b11011011 0
1)
#448
0)
#449
b11011100 0
1)
#450
0)
#451
b11011101 0
1)
#452
0)
#453
b11011110 0
1)
#454
0)
#455
b11011111 0
1)
#456
0)
#457
b11100000 0
1)
#458
0)
#459
b11100001 0
1)
#460
0)
#461
b11100010 0
1)
#462
0)
#463
b11100011 0
1)
#464
0)
#465
b11100100 0
1)
#466
0)
#467
b11100101 0
1)
#468
0)
#469
b11100110 0
1)
#470
0)
#471
b11100111 0
1)
#472
0)
#473
b11101000 0
1)
#474
0)
#475
b11101001 0
1)
#476
0)
#477
b11101010 0
1)
#478
0)
#479
b11101011 0
1)
#480
0)
#481
b11101100 0
1)
#482
0)
#483
b11101101 0
1)
#484
0)
#485
b11101110 0
1)
#486
0)
#487
b11101111 0
1)
#488
0)
#489
b11110000 0
1)
#490
0)
#491
b11110001 0
1)
#492
0)
#493
b11110010 0
1)
#494
0)
#495
b11110011 0
1)
#496
0)
#497
b11110100 0
1)
#498
0)
#499
b11110101 0
1)
#500
0)
#501
b11110110 0
1)
#502
0)
#503
b11110111 0
1)
#504
0)
#505
b11111000 0
1)
#506
0)
#507
b11111001 0
1)
#508
0)
#509
b11111010 0
1)
#510
0)
#511
b11111011 0
1)
#512
0)
#513
b11111100 0
1)
#514
0)
#515
b11111101 0
1)
#516
0)
#517
b11111110 0
1)
#518
0)
#519
b11111111 0
1)
#520
0)
#521
1#
b0 0
1)
#522
0)
#523
1&
b10000110 1
b1 0
1)
#524
0)
#525
0&
b10 0
b1 A
0"
1)
#526
0)
#527
1"
b11 0
1)
#528
0)
#529
b100 0
1)
#530
0)
#531
b101 0
1)
#532
0)
#533
b110 0
1)
#534
0)
#535
b111 0
1)
#536
0)
#537
b1000 0
1)
#538
0)
#539
b1001 0
1)
#540
0)
#541
b1010 0
1)
#542
0)
#543
b1011 0
1)
#544
0)
#545
b1100 0
1)
#546
0)
#547
b1101 0
1)
#548
0)
#549
b1110 0
1)
#550
0)
#551
b1111 0
1)
#552
0)
#553
b10000 0
1)
#554
0)
#555
b10001 0
1)
#556
0)
#557
b10010 0
1)
#558
0)
#559
b10011 0
1)
#560
0)
#561
b10100 0
1)
#562
0)
#563
b10101 0
1)
#564
0)
#565
b10110 0
1)
#566
0)
#567
b10111 0
1)
#568
0)
#569
b11000 0
1)
#570
0)
#571
b11001 0
1)
#572
0)
#573
b11010 0
1)
#574
0)
#575
b11011 0
1)
#576
0)
#577
b11100 0
1)
#578
0)
#579
b11101 0
1)
#580
0)
#581
b11110 0
1)
#582
0)
#583
b11111 0
1)
#584
0)
#585
b100000 0
1)
#586
0)
#587
b100001 0
1)
#588
0)
#589
b100010 0
1)
#590
0)
#591
b100011 0
1)
#592
0)
#593
b100100 0
1)
#594
0)
#595
b100101 0
1)
#596
0)
#597
b100110 0
1)
#598
0)
#599
b100111 0
1)
#600
0)
#601
b101000 0
1)
#602
0)
#603
b101001 0
1)
#604
0)
#605
b101010 0
1)
#606
0)
#607
b101011 0
1)
#608
0)
#609
b101100 0
1)
#610
0)
#611
b101101 0
1)
#612
0)
#613
b101110 0
1)
#614
0)
#615
b101111 0
1)
#616
0)
#617
b110000 0
1)
#618
0)
#619
b110001 0
1)
#620
0)
#621
b110010 0
1)
#622
0)
#623
b110011 0
1)
#624
0)
#625
b110100 0
1)
#626
0)
#627
b110101 0
1)
#628
0)
#629
b110110 0
1)
#630
0)
#631
b110111 0
1)
#632
0)
#633
b111000 0
1)
#634
0)
#635
b111001 0
1)
#636
0)
#637
b111010 0
1)
#638
0)
#639
b111011 0
1)
#640
0)
#641
b111100 0
1)
#642
0)
#643
b111101 0
1)
#644
0)
#645
b111110 0
1)
#646
0)
#647
b111111 0
1)
#648
0)
#649
b1000000 0
1)
#650
0)
#651
b1000001 0
1)
#652
0)
#653
b1000010 0
1)
#654
0)
#655
b1000011 0
1)
#656
0)
#657
b1000100 0
1)
#658
0)
#659
b1000101 0
1)
#660
0)
#661
b1000110 0
1)
#662
0)
#663
b1000111 0
1)
#664
0)
#665
b1001000 0
1)
#666
0)
#667
b1001001 0
1)
#668
0)
#669
b1001010 0
1)
#670
0)
#671
b1001011 0
1)
#672
0)
#673
b1001100 0
1)
#674
0)
#675
b1001101 0
1)
#676
0)
#677
b1001110 0
1)
#678
0)
#679
b1001111 0
1)
#680
0)
#681
b1010000 0
1)
#682
0)
#683
b1010001 0
1)
#684
0)
#685
b1010010 0
1)
#686
0)
#687
b1010011 0
1)
#688
0)
#689
b1010100 0
1)
#690
0)
#691
b1010101 0
1)
#692
0)
#693
b1010110 0
1)
#694
0)
#695
b1010111 0
1)
#696
0)
#697
b1011000 0
1)
#698
0)
#699
b1011001 0
1)
#700
0)
#701
b1011010 0
1)
#702
0)
#703
b1011011 0
1)
#704
0)
#705
b1011100 0
1)
#706
0)
#707
b1011101 0
1)
#708
0)
#709
b1011110 0
1)
#710
0)
#711
b1011111 0
1)
#712
0)
#713
b1100000 0
1)
#714
0)
#715
b1100001 0
1)
#716
0)
#717
b1100010 0
1)
#718
0)
#719
b1100011 0
1)
#720
0)
#721
b1100100 0
1)
#722
0)
#723
b1100101 0
1)
#724
0)
#725
b1100110 0
1)
#726
0)
#727
b1100111 0
1)
#728
0)
#729
b1101000 0
1)
#730
0)
#731
b1101001 0
1)
#732
0)
#733
b1101010 0
1)
#734
0)
#735
b1101011 0
1)
#736
0)
#737
b1101100 0
1)
#738
0)
#739
b1101101 0
1)
#740
0)
#741
b1101110 0
1)
#742
0)
#743
b1101111 0
1)
#744
0)
#745
b1110000 0
1)
#746
0)
#747
b1110001 0
1)
#748
0)
#749
b1110010 0
1)
#750
0)
#751
b1110011 0
1)
#752
0)
#753
b1110100 0
1)
#754
0)
#755
b1110101 0
1)
#756
0)
#757
b1110110 0
1)
#758
0)
#759
b1110111 0
1)
#760
0)
#761
b1111000 0
1)
#762
0)
#763
b1111001 0
1)
#764
0)
#765
b1111010 0
1)
#766
0)
#767
b1111011 0
1)
#768
0)
#769
b1111100 0
1)
#770
0)
#771
b1111101 0
1)
#772
0)
#773
b1111110 0
1)
#774
0)
#775
b1111111 0
1)
#776
0)
#777
b10000000 0
1)
#778
0)
#779
b10000001 0
1)
#780
0)
#781
b10000010 0
1)
#782
0)
#783
b10000011 0
1)
#784
0)
#785
b10000100 0
1)
#786
0)
#787
b10000101 0
1)
#788
0)
#789
b10000110 0
1)
#790
0)
#791
0#
b10000111 0
1)
#792
0)
#793
b10001000 0
1)
#794
0)
#795
b10001001 0
1)
#796
0)
#797
b10001010 0
1)
#798
0)
#799
b10001011 0
1)
#800
0)
#801
b10001100 0
1)
#802
0)
#803
b10001101 0
1)
#804
0)
#805
b10001110 0
1)
#806
0)
#807
b10001111 0
1)
#808
0)
#809
b10010000 0
1)
#810
0)
#811
b10010001 0
1)
#812
0)
#813
b10010010 0
1)
#814
0)
#815
b10010011 0
1)
#816
0)
#817
b10010100 0
1)
#818
0)
#819
b10010101 0
1)
#820
0)
#821
b10010110 0
1)
#822
0)
#823
b10010111 0
1)
#824
0)
#825
b10011000 0
1)
#826
0)
#827
b10011001 0
1)
#828
0)
#829
b10011010 0
1)
#830
0)
#831
b10011011 0
1)
#832
0)
#833
b10011100 0
1)
#834
0)
#835
b10011101 0
1)
#836
0)
#837
b10011110 0
1)
#838
0)
#839
b10011111 0
1)
#840
0)
#841
b10100000 0
1)
#842
0)
#843
b10100001 0
1)
#844
0)
#845
b10100010 0
1)
#846
0)
#847
b10100011 0
1)
#848
0)
#849
b10100100 0
1)
#850
0)
#851
b10100101 0
1)
#852
0)
#853
b10100110 0
1)
#854
0)
#855
b10100111 0
1)
#856
0)
#857
b10101000 0
1)
#858
0)
#859
b10101001 0
1)
#860
0)
#861
b10101010 0
1)
#862
0)
#863
b10101011 0
1)
#864
0)
#865
b10101100 0
1)
#866
0)
#867
b10101101 0
1)
#868
0)
#869
b10101110 0
1)
#870
0)
#871
b10101111 0
1)
#872
0)
#873
b10110000 0
1)
#874
0)
#875
b10110001 0
1)
#876
0)
#877
b10110010 0
1)
#878
0)
#879
b10110011 0
1)
#880
0)
#881
b10110100 0
1)
#882
0)
#883
b10110101 0
1)
#884
0)
#885
b10110110 0
1)
#886
0)
#887
b10110111 0
1)
#888
0)
#889
b10111000 0
1)
#890
0)
#891
b10111001 0
1)
#892
0)
#893
b10111010 0
1)
#894
0)
#895
b10111011 0
1)
#896
0)
#897
b10111100 0
1)
#898
0)
#899
b10111101 0
1)
#900
0)
#901
b10111110 0
1)
#902
0)
#903
b10111111 0
1)
#904
0)
#905
b11000000 0
1)
#906
0)
#907
b11000001 0
1)
#908
0)
#909
b11000010 0
1)
#910
0)
#911
b11000011 0
1)
#912
0)
#913
b11000100 0
1)
#914
0)
#915
b11000101 0
1)
#916
0)
#917
b11000110 0
1)
#918
0)
#919
b11000111 0
1)
#920
0)
#921
b11001000 0
1)
#922
0)
#923
b11001001 0
1)
#924
0)
#925
b11001010 0
1)
#926
0)
#927
b11001011 0
1)
#928
0)
#929
b11001100 0
1)
#930
0)
#931
b11001101 0
1)
#932
0)
#933
b11001110 0
1)
#934
0)
#935
b11001111 0
1)
#936
0)
#937
b11010000 0
1)
#938
0)
#939
b11010001 0
1)
#940
0)
#941
b11010010 0
1)
#942
0)
#943
b11010011 0
1)
#944
0)
#945
b11010100 0
1)
#946
0)
#947
b11010101 0
1)
#948
0)
#949
b11010110 0
1)
#950
0)
#951
b11010111 0
1)
#952
0)
#953
b11011000 0
1)
#954
0)
#955
b11011001 0
1)
#956
0)
#957
b11011010 0
1)
#958
0)
#959
b11011011 0
1)
#960
0)
#961
b11011100 0
1)
#962
0)
#963
b11011101 0
1)
#964
0)
#965
b11011110 0
1)
#966
0)
#967
b11011111 0
1)
#968
0)
#969
b11100000 0
1)
#970
0)
#971
b11100001 0
1)
#972
0)
#973
b11100010 0
1)
#974
0)
#975
b11100011 0
1)
#976
0)
#977
b11100100 0
1)
#978
0)
#979
b11100101 0
1)
#980
0)
#981
b11100110 0
1)
#982
0)
#983
b11100111 0
1)
#984
0)
#985
b11101000 0
1)
#986
0)
#987
b11101001 0
1)
#988
0)
#989
b11101010 0
1)
#990
0)
#991
b11101011 0
1)
#992
0)
#993
b11101100 0
1)
#994
0)
#995
b11101101 0
1)
#996
0)
#997
b11101110 0
1)
#998
0)
#999
b11101111 0
1)
#1000
0)
#1001
b11110000 0
1)
#1002
0)
#1003
b11110001 0
1)
#1004
0)
#1005
b11110010 0
1)
#1006
0)
#1007
b11110011 0
1)
#1008
0)
#1009
b11110100 0
1)
#1010
0)
#1011
b11110101 0
1)
#1012
0)
#1013
b11110110 0
1)
#1014
0)
#1015
b11110111 0
1)
#1016
0)
#1017
b11111000 0
1)
#1018
0)
#1019
b11111001 0
1)
#1020
0)
#1021
b11111010 0
1)
#1022
0)
#1023
b11111011 0
1)
#1024
0)
#1025
b11111100 0
1)
#1026
0)
#1027
b11111101 0
1)
#1028
0)
#1029
b11111110 0
1)
#1030
0)
#1031
b11111111 0
1)
#1032
0)
#1033
1#
b0 0
1)
#1034
0)
#1035
1&
b1 0
1)
#1036
0)
#1037
0&
b10 0
b10 A
0"
1)
#1038
0)
#1039
1"
b11 0
1)
#1040
0)
#1041
b100 0
1)
#1042
0)
#1043
b101 0
1)
#1044
0)
#1045
b110 0
1)
#1046
0)
#1047
b111 0
1)
#1048
0)
#1049
b1000 0
1)
#1050
0)
#1051
b1001 0
1)
#1052
0)
#1053
b1010 0
1)
#1054
0)
#1055
b1011 0
1)
#1056
0)
#1057
b1100 0
1)
#1058
0)
#1059
b1101 0
1)
#1060
0)
#1061
b1110 0
1)
#1062
0)
#1063
b1111 0
1)
#1064
0)
#1065
b10000 0
1)
#1066
0)
#1067
b10001 0
1)
#1068
0)
#1069
b10010 0
1)
#1070
0)
#1071
b10011 0
1)
#1072
0)
#1073
b10100 0
1)
#1074
0)
#1075
b10101 0
1)
#1076
0)
#1077
b10110 0
1)
#1078
0)
#1079
b10111 0
1)
#1080
0)
#1081
b11000 0
1)
#1082
0)
#1083
b11001 0
1)
#1084
0)
#1085
b11010 0
1)
#1086
0)
#1087
b11011 0
1)
#1088
0)
#1089
b11100 0
1)
#1090
0)
#1091
b11101 0
1)
#1092
0)
#1093
b11110 0
1)
#1094
0)
#1095
b11111 0
1)
#1096
0)
#1097
b100000 0
1)
#1098
0)
#1099
b100001 0
1)
#1100
0)
#1101
b100010 0
1)
#1102
0)
#1103
b100011 0
1)
#1104
0)
#1105
b100100 0
1)
#1106
0)
#1107
b100101 0
1)
#1108
0)
#1109
b100110 0
1)
#1110
0)
#1111
b100111 0
1)
#1112
0)
#1113
b101000 0
1)
#1114
0)
#1115
b101001 0
1)
#1116
0)
#1117
b101010 0
1)
#1118
0)
#1119
b101011 0
1)
#1120
0)
#1121
b101100 0
1)
#1122
0)
#1123
b101101 0
1)
#1124
0)
#1125
b101110 0
1)
#1126
0)
#1127
b101111 0
1)
#1128
0)
#1129
b110000 0
1)
#1130
0)
#1131
b110001 0
1)
#1132
0)
#1133
b110010 0
1)
#1134
0)
#1135
b110011 0
1)
#1136
0)
#1137
b110100 0
1)
#1138
0)
#1139
b110101 0
1)
#1140
0)
#1141
b110110 0
1)
#1142
0)
#1143
b110111 0
1)
#1144
0)
#1145
b111000 0
1)
#1146
0)
#1147
b111001 0
1)
#1148
0)
#1149
b111010 0
1)
#1150
0)
#1151
b111011 0
1)
#1152
0)
#1153
b111100 0
1)
#1154
0)
#1155
b111101 0
1)
#1156
0)
#1157
b111110 0
1)
#1158
0)
#1159
b111111 0
1)
#1160
0)
#1161
b1000000 0
1)
#1162
0)
#1163
b1000001 0
1)
#1164
0)
#1165
b1000010 0
1)
#1166
0)
#1167
b1000011 0
1)
#1168
0)
#1169
b1000100 0
1)
#1170
0)
#1171
b1000101 0
1)
#1172
0)
#1173
b1000110 0
1)
#1174
0)
#1175
b1000111 0
1)
#1176
0)
#1177
b1001000 0
1)
#1178
0)
#1179
b1001001 0
1)
#1180
0)
#1181
b1001010 0
1)
#1182
0)
#1183
b1001011 0
1)
#1184
0)
#1185
b1001100 0
1)
#1186
0)
#1187
b1001101 0
1)
#1188
0)
#1189
b1001110 0
1)
#1190
0)
#1191
b1001111 0
1)
#1192
0)
#1193
b1010000 0
1)
#1194
0)
#1195
b1010001 0
1)
#1196
0)
#1197
b1010010 0
1)
#1198
0)
#1199
b1010011 0
1)
#1200
0)
#1201
b1010100 0
1)
#1202
0)
#1203
b1010101 0
1)
#1204
0)
#1205
b1010110 0
1)
#1206
0)
#1207
b1010111 0
1)
#1208
0)
#1209
b1011000 0
1)
#1210
0)
#1211
b1011001 0
1)
#1212
0)
#1213
b1011010 0
1)
#1214
0)
#1215
b1011011 0
1)
#1216
0)
#1217
b1011100 0
1)
#1218
0)
#1219
b1011101 0
1)
#1220
0)
#1221
b1011110 0
1)
#1222
0)
#1223
b1011111 0
1)
#1224
0)
#1225
b1100000 0
1)
#1226
0)
#1227
b1100001 0
1)
#1228
0)
#1229
b1100010 0
1)
#1230
0)
#1231
b1100011 0
1)
#1232
0)
#1233
b1100100 0
1)
#1234
0)
#1235
b1100101 0
1)
#1236
0)
#1237
b1100110 0
1)
#1238
0)
#1239
b1100111 0
1)
#1240
0)
#1241
b1101000 0
1)
#1242
0)
#1243
b1101001 0
1)
#1244
0)
#1245
b1101010 0
1)
#1246
0)
#1247
b1101011 0
1)
#1248
0)
#1249
b1101100 0
1)
#1250
0)
#1251
b1101101 0
1)
#1252
0)
#1253
b1101110 0
1)
#1254
0)
#1255
b1101111 0
1)
#1256
0)
#1257
b1110000 0
1)
#1258
0)
#1259
b1110001 0
1)
#1260
0)
#1261
b1110010 0
1)
#1262
0)
#1263
b1110011 0
1)
#1264
0)
#1265
b1110100 0
1)
#1266
0)
#1267
b1110101 0
1)
#1268
0)
#1269
b1110110 0
1)
#1270
0)
#1271
b1110111 0
1)
#1272
0)
#1273
b1111000 0
1)
#1274
0)
#1275
b1111001 0
1)
#1276
0)
#1277
b1111010 0
1)
#1278
0)
#1279
b1111011 0
1)
#1280
0)
#1281
b1111100 0
1)
#1282
0)
#1283
b1111101 0
1)
#1284
0)
#1285
b1111110 0
1)
#1286
0)
#1287
b1111111 0
1)
#1288
0)
#1289
b10000000 0
1)
#1290
0)
#1291
b10000001 0
1)
#1292
0)
#1293
b10000010 0
1)
#1294
0)
#1295
b10000011 0
1)
#1296
0)
#1297
b10000100 0
1)
#1298
0)
#1299
b10000101 0
1)
#1300
0)
#1301
b10000110 0
1)
#1302
0)
#1303
0#
b10000111 0
1)
#1304
0)
#1305
b10001000 0
1)
#1306
0)
#1307
b10001001 0
1)
#1308
0)
#1309
b10001010 0
1)
#1310
0)
#1311
b10001011 0
1)
#1312
0)
#1313
b10001100 0
1)
#1314
0)
#1315
b10001101 0
1)
#1316
0)
#1317
b10001110 0
1)
#1318
0)
#1319
b10001111 0
1)
#1320
0)
#1321
b10010000 0
1)
#1322
0)
#1323
b10010001 0
1)
#1324
0)
#1325
b10010010 0
1)
#1326
0)
#1327
b10010011 0
1)
#1328
0)
#1329
b10010100 0
1)
#1330
0)
#1331
b10010101 0
1)
#1332
0)
#1333
b10010110 0
1)
#1334
0)
#1335
b10010111 0
1)
#1336
0)
#1337
b10011000 0
1)
#1338
0)
#1339
b10011001 0
1)
#1340
0)
#1341
b10011010 0
1)
#1342
0)
#1343
b10011011 0
1)
#1344
0)
#1345
b10011100 0
1)
#1346
0)
#1347
b10011101 0
1)
#1348
0)
#1349
b10011110 0
1)
#1350
0)
#1351
b10011111 0
1)
#1352
0)
#1353
b10100000 0
1)
#1354
0)
#1355
b10100001 0
1)
#1356
0)
#1357
b10100010 0
1)
#1358
0)
#1359
b10100011 0
1)
#1360
0)
#1361
b10100100 0
1)
#1362
0)
#1363
b10100101 0
1)
#1364
0)
#1365
b10100110 0
1)
#1366
0)
#1367
b10100111 0
1)
#1368
0)
#1369
b10101000 0
1)
#1370
0)
#1371
b10101001 0
1)
#1372
0)
#1373
b10101010 0
1)
#1374
0)
#1375
b10101011 0
1)
#1376
0)
#1377
b10101100 0
1)
#1378
0)
#1379
b10101101 0
1)
#1380
0)
#1381
b10101110 0
1)
#1382
0)
#1383
b10101111 0
1)
#1384
0)
#1385
b10110000 0
1)
#1386
0)
#1387
b10110001 0
1)
#1388
0)
#1389
b10110010 0
1)
#1390
0)
#1391
b10110011 0
1)
#1392
0)
#1393
b10110100 0
1)
#1394
0)
#1395
b10110101 0
1)
#1396
0)
#1397
b10110110 0
1)
#1398
0)
#1399
b10110111 0
1)
#1400
0)
#1401
b10111000 0
1)
#1402
0)
#1403
b10111001 0
1)
#1404
0)
#1405
b10111010 0
1)
#1406
0)
#1407
b10111011 0
1)
#1408
0)
#1409
b10111100 0
1)
#1410
0)
#1411
b10111101 0
1)
#1412
0)
#1413
b10111110 0
1)
#1414
0)
#1415
b10111111 0
1)
#1416
0)
