fpga/pwm_ctrl/pwm_ctrl.vcd
$date
	Mon Sep 30 21:45:47 2024
$end
$version
	Icarus Verilog
$end
$timescale
	1s
$end
$scope module test $end
$var wire 1 ! sda $end
$var wire 1 " sck $end
$var wire 1 # pwm_update $end
$var wire 8 $ pwm_ratio [7:0] $end
$var wire 1 % pwm_enable $end
$var wire 1 & angle_done $end
$var reg 1 ' angle_update $end
$var reg 1 ( clock $end
$var reg 8 ) current_angle [7:0] $end
$var reg 1 * done $end
$var reg 1 + pwm_done $end
$var reg 1 , reset_n $end
$var reg 8 - target_angle [7:0] $end
$var reg 8 . timeout [7:0] $end
$scope module dut $end
$var wire 1 ' angle_update $end
$var wire 1 ( clock $end
$var wire 1 + pwm_done $end
$var wire 1 , reset_n $end
$var wire 8 / target_angle [7:0] $end
$var wire 1 0 sdaOutReg $end
$var wire 1 ! sda $end
$var wire 1 " sck $end
$var wire 8 1 rd_data [7:0] $end
$var wire 1 # pwm_update $end
$var wire 8 2 pwm_ratio [7:0] $end
$var wire 1 % pwm_enable $end
$var wire 1 3 isSending $end
$var wire 1 4 i2c_done $end
$var wire 1 & angle_done $end
$var parameter 4 5 DEV_ADDR0 $end
$var parameter 4 6 DEV_ADDR1 $end
$var parameter 4 7 ERROR $end
$var parameter 4 8 IDLE $end
$var parameter 4 9 NACK $end
$var parameter 4 : PAUSE $end
$var parameter 4 ; RD_DATA0 $end
$var parameter 4 < RD_DATA1 $end
$var parameter 4 = START $end
$var parameter 4 > STOP $end
$var parameter 4 ? WORD_ADDR $end
$var reg 16 @ counter [15:0] $end
$var reg 1 A enable $end
$var reg 2 B instruction [1:0] $end
$var reg 4 C ns [3:0] $end
$var reg 4 D ps [3:0] $end
$var reg 1 E send_nack $end
$var reg 8 F wr_data [7:0] $end
$scope module a_to_pwm $end
$var wire 1 ' angle_update $end
$var wire 1 ( clock $end
$var wire 1 G pwm_direction $end
$var wire 1 + pwm_done $end
$var wire 1 , reset_n $end
$var wire 8 H target_angle [7:0] $end
$var wire 8 I current_angle [7:0] $end
$var parameter 2 J ACCEL $end
$var parameter 4 K BIG_DELTA $end
$var parameter 2 L CRUISE $end
$var parameter 2 M DECCEL $end
$var parameter 2 N IDLE $end
$var parameter 4 O MED_DELTA $end
$var parameter 12 P PROFILE_DELAY_TARGET $end
$var parameter 4 Q SMALL_DELTA $end
$var parameter 8 R TARGET_TOLERANCE $end
$var reg 1 & angle_done $end
$var reg 4 S curr_step [3:0] $end
$var reg 9 T delta_angle [8:0] $end
$var reg 2 U ns [1:0] $end
$var reg 4 V num_steps [3:0] $end
$var reg 12 W profile_delay [11:0] $end
$var reg 2 X ps [1:0] $end
$var reg 1 % pwm_enable $end
$var reg 8 Y pwm_ratio [7:0] $end
$var reg 1 # pwm_update $end
$upscope $end
$scope module i2c $end
$var wire 8 Z byteToSend [7:0] $end
$var wire 1 ( clk $end
$var wire 1 A enable $end
$var wire 2 [ instruction [1:0] $end
$var wire 1 , reset_n $end
$var wire 1 ! sdaIn $end
$var wire 1 E send_nack $end
$var parameter 32 \ INST_READ_BYTE $end
$var parameter 32 ] INST_START_TX $end
$var parameter 32 ^ INST_STOP_TX $end
$var parameter 32 _ INST_WRITE_BYTE $end
$var parameter 32 ` STATE_DONE $end
$var parameter 32 a STATE_IDLE $end
$var parameter 32 b STATE_RCV_ACK $end
$var parameter 32 c STATE_SEND_ACK $end
$var parameter 32 d STATE_SEND_NACK $end
$var reg 3 e bitToSend [2:0] $end
$var reg 8 f byteReceived [7:0] $end
$var reg 7 g clockDivider [6:0] $end
$var reg 1 4 complete $end
$var reg 1 3 isSending $end
$var reg 1 " scl $end
$var reg 1 0 sdaOutReg $end
$var reg 3 h state [2:0] $end
$upscope $end
$upscope $end
$upscope $end
$enddefinitions $end
$comment Show the parameter values. $end
$dumpall
b1000 d
b110 c
b111 b
b100 a
b101 `
b11 _
b1 ^
b0 ]
b10 \
b10 R
b1000 Q
b11 P
b1011 O
b0 N
b11 M
b10 L
b1111 K
b1 J
b11 ?
b1000 >
b1 =
b110 <
b101 ;
b1001 :
b111 9
b0 8
b1111 7
b100 6
b10 5
$end
#0
$dumpvars
b100 h
b0 g
b0 f
b0 e
b0 [
b0 Z
b10000000 Y
b0 X
b0 W
b1011 V
b0 U
b0 T
b0 S
b0 I
b0 H
zG
b0 F
0E
b0 D
b0 C
b0 B
0A
b0 @
x4
03
b10000000 2
b0 1
10
b0 /
b110010 .
b0 -
0,
0+
x*
b0 )
0(
0'
0&
1%
b10000000 $
0#
1"
z!
$end
#1
0*
1(
#2
0(
#3
1(
#4
0(
#5
1(
#6
0(
#7
1(
#8
0(
#9
1(
#10
0(
b1010 )
b10111 -
b10111 /
b10111 H
1,
#11
0A
1#
b10111 T
04
b1000 V
1(
#12
0(
#13
b1011 V
1(
#14
0(
#15
1(
#16
0(
#17
1(
#18
0(
#19
1(
#20
b1 U
b1 C
0A
0(
1'
#21
1A
b1 D
b1 X
1(
#22
0(
#23
b10000110 $
b10000110 2
b10000110 Y
b0 h
1(
#24
0(
#25
1!
b1 g
13
1(
#26
0(
#27
b10 g
1(
#28
0(
#29
b11 g
1(
#30
0(
#31
b100 g
1(
#32
0(
#33
b101 g
1(
#34
0(
#35
b110 g
1(
#36
0(
#37
b111 g
1(
#38
0(
#39
b1000 g
1(
#40
0(
#41
b1001 g
1(
#42
0(
#43
b1010 g
1(
#44
0(
#45
b1011 g
1(
#46
0(
#47
b1100 g
1(
#48
0(
#49
b1101 g
1(
#50
0(
#51
b1110 g
1(
#52
0(
#53
b1111 g
1(
#54
0(
#55
b10000 g
1(
#56
0(
#57
b10001 g
1(
#58
0(
#59
b10010 g
1(
#60
0(
#61
b10011 g
1(
#62
0(
#63
b10100 g
1(
#64
0(
#65
b10101 g
1(
#66
0(
#67
b10110 g
1(
#68
0(
#69
b10111 g
1(
#70
0(
#71
b11000 g
1(
#72
0(
#73
b11001 g
1(
#74
0(
#75
b11010 g
1(
#76
0(
#77
b11011 g
1(
#78
0(
#79
b11100 g
1(
#80
0(
#81
b11101 g
1(
#82
0(
#83
b11110 g
1(
#84
0(
#85
b11111 g
1(
#86
0(
#87
b100000 g
1(
#88
0(
#89
0!
00
b100001 g
1(
#90
0(
#91
b100010 g
1(
#92
0(
#93
b100011 g
1(
#94
0(
#95
b100100 g
1(
#96
0(
#97
b100101 g
1(
#98
0(
#99
b100110 g
1(
#100
0(
#101
b100111 g
1(
#102
0(
#103
b101000 g
1(
#104
0(
#105
b101001 g
1(
#106
0(
#107
b101010 g
1(
#108
0(
#109
b101011 g
1(
#110
0(
#111
b101100 g
1(
#112
0(
#113
b101101 g
1(
#114
0(
#115
b101110 g
1(
#116
0(
#117
b101111 g
1(
#118
0(
#119
b110000 g
1(
#120
0(
#121
b110001 g
1(
#122
0(
#123
b110010 g
1(
#124
0(
#125
b110011 g
1(
#126
0(
#127
b110100 g
1(
#128
0(
#129
b110101 g
1(
#130
0(
#131
b110110 g
1(
#132
0(
#133
b110111 g
1(
#134
0(
#135
b111000 g
1(
#136
0(
#137
b111001 g
1(
#138
0(
#139
b111010 g
1(
#140
0(
#141
b111011 g
1(
#142
0(
#143
b111100 g
1(
#144
0(
#145
b111101 g
1(
#146
0(
#147
b111110 g
1(
#148
0(
#149
b111111 g
1(
#150
0(
#151
b1000000 g
1(
#152
0(
#153
0"
b1000001 g
1(
#154
0(
#155
b1000010 g
1(
#156
0(
#157
b1000011 g
1(
#158
0(
#159
b1000100 g
1(
#160
0(
#161
b1000101 g
1(
#162
0(
#163
b1000110 g
1(
#164
0(
#165
b1000111 g
1(
#166
0(
#167
b1001000 g
1(
#168
0(
#169
b1001001 g
1(
#170
0(
#171
b1001010 g
1(
#172
0(
#173
b1001011 g
1(
#174
0(
#175
b1001100 g
1(
#176
0(
#177
b1001101 g
1(
#178
0(
#179
b1001110 g
1(
#180
0(
#181
b1001111 g
1(
#182
0(
#183
b1010000 g
1(
#184
0(
#185
b1010001 g
1(
#186
0(
#187
b1010010 g
1(
#188
0(
#189
b1010011 g
1(
#190
0(
#191
b1010100 g
1(
#192
0(
#193
b1010101 g
1(
#194
0(
#195
b1010110 g
1(
#196
0(
#197
b1010111 g
1(
#198
0(
#199
b1011000 g
1(
#200
0(
#201
b1011001 g
1(
#202
0(
#203
b1011010 g
1(
#204
0(
#205
b1011011 g
1(
#206
0(
#207
b1011100 g
1(
#208
0(
#209
b1011101 g
1(
#210
0(
#211
b1011110 g
1(
#212
0(
#213
b1011111 g
1(
#214
0(
#215
b1100000 g
1(
#216
0(
#217
b101 h
b1100001 g
1(
#218
0(
#219
b10 C
b100 h
14
1(
#220
0(
#221
b1101100 F
b1101100 Z
b11 B
b11 [
b10 D
b0 h
b0 g
04
1(
#222
0(
#223
1!
10
1"
b1 g
1(
#224
0(
#225
b10 g
1(
#226
0(
#227
b11 g
1(
#228
0(
#229
b100 g
1(
#230
0(
#231
b101 g
1(
#232
0(
#233
b110 g
1(
#234
0(
#235
b111 g
1(
#236
0(
#237
b1000 g
1(
#238
0(
#239
b1001 g
1(
#240
0(
#241
b1010 g
1(
#242
0(
#243
b1011 g
1(
#244
0(
#245
b1100 g
1(
#246
0(
#247
b1101 g
1(
#248
0(
#249
b1110 g
1(
#250
0(
#251
b1111 g
1(
#252
0(
#253
b10000 g
1(
#254
0(
#255
b10001 g
1(
#256
0(
#257
b10010 g
1(
#258
0(
#259
b10011 g
1(
#260
0(
#261
b10100 g
1(
#262
0(
#263
b10101 g
1(
#264
0(
#265
b10110 g
1(
#266
0(
#267
b10111 g
1(
#268
0(
#269
b11000 g
1(
#270
0(
#271
b11001 g
1(
#272
0(
#273
b11010 g
1(
#274
0(
#275
b11011 g
1(
#276
0(
#277
b11100 g
1(
#278
0(
#279
b11101 g
1(
#280
0(
#281
b11110 g
1(
#282
0(
#283
b11111 g
1(
#284
0(
#285
b100000 g
1(
#286
0(
#287
0!
00
b100001 g
1(
#288
0(
#289
b100010 g
1(
#290
0(
#291
b100011 g
1(
#292
0(
#293
b100100 g
1(
#294
0(
#295
b100101 g
1(
#296
0(
#297
b100110 g
1(
#298
0(
#299
b100111 g
1(
#300
0(
#301
b101000 g
1(
#302
0(
#303
b101001 g
1(
#304
0(
#305
b101010 g
1(
#306
0(
#307
b101011 g
1(
#308
0(
#309
b101100 g
1(
#310
0(
#311
b101101 g
1(
#312
0(
#313
b101110 g
1(
#314
0(
#315
b101111 g
1(
#316
0(
#317
b110000 g
1(
#318
0(
#319
b110001 g
1(
#320
0(
#321
b110010 g
1(
#322
0(
#323
b110011 g
1(
#324
0(
#325
b110100 g
1(
#326
0(
#327
b110101 g
1(
#328
0(
#329
b110110 g
1(
#330
0(
#331
b110111 g
1(
#332
0(
#333
b111000 g
1(
#334
0(
#335
b111001 g
1(
#336
0(
#337
b111010 g
1(
#338
0(
#339
b111011 g
1(
#340
0(
#341
b111100 g
1(
#342
0(
#343
b111101 g
1(
#344
0(
#345
b111110 g
1(
#346
0(
#347
b111111 g
1(
#348
0(
#349
b1000000 g
1(
#350
0(
#351
0"
b1000001 g
1(
#352
0(
#353
b1000010 g
1(
#354
0(
#355
b1000011 g
1(
#356
0(
#357
b1000100 g
1(
#358
0(
#359
b1000101 g
1(
#360
0(
#361
b1000110 g
1(
#362
0(
#363
b1000111 g
1(
#364
0(
#365
b1001000 g
1(
#366
0(
#367
b1001001 g
1(
#368
0(
#369
b1001010 g
1(
#370
0(
#371
b1001011 g
1(
#372
0(
#373
b1001100 g
1(
#374
0(
#375
b1001101 g
1(
#376
0(
#377
b1001110 g
1(
#378
0(
#379
b1001111 g
1(
#380
0(
#381
b1010000 g
1(
#382
0(
#383
b1010001 g
1(
#384
0(
#385
b1010010 g
1(
#386
0(
#387
b1010011 g
1(
#388
0(
#389
b1010100 g
1(
#390
0(
#391
b1010101 g
1(
#392
0(
#393
b1010110 g
1(
#394
0(
#395
b1010111 g
1(
#396
0(
#397
b1011000 g
1(
#398
0(
#399
b1011001 g
1(
#400
0(
#401
b1011010 g
1(
#402
0(
#403
b1011011 g
1(
#404
0(
#405
b1011100 g
1(
#406
0(
#407
b1011101 g
1(
#408
0(
#409
b1011110 g
1(
#410
0(
#411
b1011111 g
1(
#412
0(
#413
b1100000 g
1(
#414
0(
#415
b101 h
b1100001 g
1(
#416
0(
#417
b11 C
b1101100 F
b1101100 Z
b11 B
b11 [
b100 h
14
1(
#418
0(
#419
b1100 F
b1100 Z
b11 B
b11 [
b11 h
b0 g
04
b11 D
1(
#420
0(
#421
b1 g
1(
#422
0(
#423
b10 g
1(
#424
0(
#425
b11 g
1(
#426
0(
#427
b100 g
1(
#428
0(
#429
b101 g
1(
#430
0(
#431
b110 g
1(
#432
0(
#433
b111 g
1(
#434
0(
#435
b1000 g
1(
#436
0(
#437
b1001 g
1(
#438
0(
#439
b1010 g
1(
#440
0(
#441
b1011 g
1(
#442
0(
#443
b1100 g
1(
#444
0(
#445
b1101 g
1(
#446
0(
#447
b1110 g
1(
#448
0(
#449
b1111 g
1(
#450
0(
#451
b10000 g
1(
#452
0(
#453
b10001 g
1(
#454
0(
#455
b10010 g
1(
#456
0(
#457
b10011 g
1(
#458
0(
#459
b10100 g
1(
#460
0(
#461
b10101 g
1(
#462
0(
#463
b10110 g
1(
#464
0(
#465
b10111 g
1(
#466
0(
#467
b11000 g
1(
#468
0(
#469
b11001 g
1(
#470
0(
#471
b11010 g
1(
#472
0(
#473
b11011 g
1(
#474
0(
#475
b11100 g
1(
#476
0(
#477
b11101 g
1(
#478
0(
#479
b11110 g
1(
#480
0(
#481
b11111 g
1(
#482
0(
#483
b100000 g
1(
#484
0(
#485
1"
b100001 g
1(
#486
0(
#487
b100010 g
1(
#488
0(
#489
b100011 g
1(
#490
0(
#491
b100100 g
1(
#492
0(
#493
b100101 g
1(
#494
0(
#495
b100110 g
1(
#496
0(
#497
b100111 g
1(
#498
0(
#499
b101000 g
1(
#500
0(
#501
b101001 g
1(
#502
0(
#503
b101010 g
1(
#504
0(
#505
b101011 g
1(
#506
0(
#507
b101100 g
1(
#508
0(
#509
b101101 g
1(
#510
0(
#511
b101110 g
1(
#512
0(
#513
b101111 g
1(
#514
0(
#515
b110000 g
1(
#516
0(
#517
b110001 g
1(
#518
0(
#519
b110010 g
1(
#520
0(
#521
b110011 g
1(
#522
0(
#523
b110100 g
1(
#524
0(
#525
b110101 g
1(
#526
0(
#527
b110110 g
1(
#528
0(
#529
b110111 g
1(
#530
0(
#531
b111000 g
1(
#532
0(
#533
b111001 g
1(
#534
0(
#535
b111010 g
1(
#536
0(
#537
b111011 g
1(
#538
0(
#539
b111100 g
1(
#540
0(
#541
b111101 g
1(
#542
0(
#543
b111110 g
1(
#544
0(
#545
b111111 g
1(
#546
0(
#547
b1000000 g
1(
#548
0(
#549
b1000001 g
1(
#550
0(
#551
b1000010 g
1(
#552
0(
#553
b1000011 g
1(
#554
0(
#555
b1000100 g
1(
#556
0(
#557
b1000101 g
1(
#558
0(
#559
b1000110 g
1(
#560
0(
#561
b1000111 g
1(
#562
0(
#563
b1001000 g
1(
#564
0(
#565
b1001001 g
1(
#566
0(
#567
b1001010 g
1(
#568
0(
#569
b1001011 g
1(
#570
0(
#571
b1001100 g
1(
#572
0(
#573
b1001101 g
1(
#574
0(
#575
b1001110 g
1(
#576
0(
#577
b1001111 g
1(
#578
0(
#579
b1010000 g
1(
#580
0(
#581
b1010001 g
1(
#582
0(
#583
b1010010 g
1(
#584
0(
#585
b1010011 g
1(
#586
0(
#587
b1010100 g
1(
#588
0(
#589
b1010101 g
1(
#590
0(
#591
b1010110 g
1(
#592
0(
#593
b1010111 g
1(
#594
0(
#595
b1011000 g
1(
#596
0(
#597
b1011001 g
1(
#598
0(
#599
b1011010 g
1(
#600
0(
#601
b1011011 g
1(
#602
0(
#603
b1011100 g
1(
#604
0(
#605
b1011101 g
1(
#606
0(
#607
b1011110 g
1(
#608
0(
#609
b1011111 g
1(
#610
0(
#611
b1100000 g
1(
#612
0(
#613
0"
b1100001 g
1(
#614
0(
#615
b1100010 g
1(
#616
0(
#617
b1100011 g
1(
#618
0(
#619
b1100100 g
1(
#620
0(
#621
b1100101 g
1(
#622
0(
#623
b1100110 g
1(
#624
0(
#625
b1100111 g
1(
#626
0(
#627
b1101000 g
1(
#628
0(
#629
b1101001 g
1(
#630
0(
#631
b1101010 g
1(
#632
0(
#633
b1101011 g
1(
#634
0(
#635
b1101100 g
1(
#636
0(
#637
b1101101 g
1(
#638
0(
#639
b1101110 g
1(
#640
0(
#641
b1101111 g
1(
#642
0(
#643
b1110000 g
1(
#644
0(
#645
b1110001 g
1(
#646
0(
#647
b1110010 g
1(
#648
0(
#649
b1110011 g
1(
#650
0(
#651
b1110100 g
1(
#652
0(
#653
b1110101 g
1(
#654
0(
#655
b1110110 g
1(
#656
0(
#657
b1110111 g
1(
#658
0(
#659
b1111000 g
1(
#660
0(
#661
b1111001 g
1(
#662
0(
#663
b1111010 g
1(
#664
0(
#665
b1111011 g
1(
#666
0(
#667
b1111100 g
1(
#668
0(
#669
b1111101 g
1(
#670
0(
#671
b1111110 g
1(
#672
0(
#673
b1111111 g
1(
#674
0(
#675
b1 e
b0 g
1(
#676
0(
#677
b1 g
1(
#678
0(
#679
b10 g
1(
#680
0(
#681
b11 g
1(
#682
0(
#683
b100 g
1(
#684
0(
#685
b101 g
1(
#686
0(
#687
b110 g
1(
#688
0(
#689
b111 g
1(
#690
0(
#691
b1000 g
1(
#692
0(
#693
b1001 g
1(
#694
0(
#695
b1010 g
1(
#696
0(
#697
b1011 g
1(
#698
0(
#699
b1100 g
1(
#700
0(
#701
b1101 g
1(
#702
0(
#703
b1110 g
1(
#704
0(
#705
b1111 g
1(
#706
0(
#707
b10000 g
1(
#708
0(
#709
b10001 g
1(
#710
0(
#711
b10010 g
1(
#712
0(
#713
b10011 g
1(
#714
0(
#715
b10100 g
1(
#716
0(
#717
b10101 g
1(
#718
0(
#719
b10110 g
1(
#720
0(
#721
b10111 g
1(
#722
0(
#723
b11000 g
1(
#724
0(
#725
b11001 g
1(
#726
0(
#727
b11010 g
1(
#728
0(
#729
b11011 g
1(
#730
0(
#731
b11100 g
1(
#732
0(
#733
b11101 g
1(
#734
0(
#735
b11110 g
1(
#736
0(
#737
b11111 g
1(
#738
0(
#739
b100000 g
1(
#740
0(
#741
1"
b100001 g
1(
#742
0(
#743
b100010 g
1(
#744
0(
#745
b100011 g
1(
#746
0(
#747
b100100 g
1(
#748
0(
#749
b100101 g
1(
#750
0(
#751
b100110 g
1(
#752
0(
#753
b100111 g
1(
#754
0(
#755
b101000 g
1(
#756
0(
#757
b101001 g
1(
#758
0(
#759
b101010 g
1(
#760
0(
#761
b101011 g
1(
#762
0(
#763
b101100 g
1(
#764
0(
#765
b101101 g
1(
#766
0(
#767
b101110 g
1(
#768
0(
#769
b101111 g
1(
#770
0(
#771
b110000 g
1(
#772
0(
#773
b110001 g
1(
#774
0(
#775
b110010 g
1(
#776
0(
#777
b110011 g
1(
#778
0(
#779
b110100 g
1(
#780
0(
#781
b110101 g
1(
#782
0(
#783
b110110 g
1(
#784
0(
#785
b110111 g
1(
#786
0(
#787
b111000 g
1(
#788
0(
#789
b111001 g
1(
#790
0(
#791
b111010 g
1(
#792
0(
#793
b111011 g
1(
#794
0(
#795
b111100 g
1(
#796
0(
#797
b111101 g
1(
#798
0(
#799
b111110 g
1(
#800
0(
#801
b111111 g
1(
#802
0(
#803
b1000000 g
1(
#804
0(
#805
b1000001 g
1(
#806
0(
#807
b1000010 g
1(
#808
0(
#809
b1000011 g
1(
#810
0(
#811
b1000100 g
1(
#812
0(
#813
b1000101 g
1(
#814
0(
#815
b1000110 g
1(
#816
0(
#817
b1000111 g
1(
#818
0(
#819
b1001000 g
1(
#820
0(
#821
b1001001 g
1(
#822
0(
#823
b1001010 g
1(
#824
0(
#825
b1001011 g
1(
#826
0(
#827
b1001100 g
1(
#828
0(
#829
b1001101 g
1(
#830
0(
#831
b1001110 g
1(
#832
0(
#833
b1001111 g
1(
#834
0(
#835
b1010000 g
1(
#836
0(
#837
b1010001 g
1(
#838
0(
#839
b1010010 g
1(
#840
0(
#841
b1010011 g
1(
#842
0(
#843
b1010100 g
1(
#844
0(
#845
b1010101 g
1(
#846
0(
#847
b1010110 g
1(
#848
0(
#849
b1010111 g
1(
#850
0(
#851
b1011000 g
1(
#852
0(
#853
b1011001 g
1(
#854
0(
#855
b1011010 g
1(
#856
0(
#857
b1011011 g
1(
#858
0(
#859
b1011100 g
1(
#860
0(
#861
b1011101 g
1(
#862
0(
#863
b1011110 g
1(
#864
0(
#865
b1011111 g
1(
#866
0(
#867
b1100000 g
1(
#868
0(
#869
0"
b1100001 g
1(
#870
0(
#871
b1100010 g
1(
#872
0(
#873
b1100011 g
1(
#874
0(
#875
b1100100 g
1(
#876
0(
#877
b1100101 g
1(
#878
0(
#879
b1100110 g
1(
#880
0(
#881
b1100111 g
1(
#882
0(
#883
b1101000 g
1(
#884
0(
#885
b1101001 g
1(
#886
0(
#887
b1101010 g
1(
#888
0(
#889
b1101011 g
1(
#890
0(
#891
b1101100 g
1(
#892
0(
#893
b1101101 g
1(
#894
0(
#895
b1101110 g
1(
#896
0(
#897
b1101111 g
1(
#898
0(
#899
b1110000 g
1(
#900
0(
#901
b1110001 g
1(
#902
0(
#903
b1110010 g
1(
#904
0(
#905
b1110011 g
1(
#906
0(
#907
b1110100 g
1(
#908
0(
#909
b1110101 g
1(
#910
0(
#911
b1110110 g
1(
#912
0(
#913
b1110111 g
1(
#914
0(
#915
b1111000 g
1(
#916
0(
#917
b1111001 g
1(
#918
0(
#919
b1111010 g
1(
#920
0(
#921
b1111011 g
1(
#922
0(
#923
b1111100 g
1(
#924
0(
#925
b1111101 g
1(
#926
0(
#927
b1111110 g
1(
#928
0(
#929
b1111111 g
1(
#930
0(
#931
b10 e
b0 g
1(
#932
0(
#933
b1 g
1(
#934
0(
#935
b10 g
1(
#936
0(
#937
b11 g
1(
#938
0(
#939
b100 g
1(
#940
0(
#941
b101 g
1(
#942
0(
#943
b110 g
1(
#944
0(
#945
b111 g
1(
#946
0(
#947
b1000 g
1(
#948
0(
#949
b1001 g
1(
#950
0(
#951
b1010 g
1(
#952
0(
#953
b1011 g
1(
#954
0(
#955
b1100 g
1(
#956
0(
#957
b1101 g
1(
#958
0(
#959
b1110 g
1(
#960
0(
#961
b1111 g
1(
#962
0(
#963
b10000 g
1(
#964
0(
#965
b10001 g
1(
#966
0(
#967
b10010 g
1(
#968
0(
#969
b10011 g
1(
#970
0(
#971
b10100 g
1(
#972
0(
#973
b10101 g
1(
#974
0(
#975
b10110 g
1(
#976
0(
#977
b10111 g
1(
#978
0(
#979
b11000 g
1(
#980
0(
#981
b11001 g
1(
#982
0(
#983
b11010 g
1(
#984
0(
#985
b11011 g
1(
#986
0(
#987
b11100 g
1(
#988
0(
#989
b11101 g
1(
#990
0(
#991
b11110 g
1(
#992
0(
#993
b11111 g
1(
#994
0(
#995
b100000 g
1(
#996
0(
#997
1"
b100001 g
1(
#998
0(
#999
b100010 g
1(
#1000
0(
#1001
b100011 g
1(
#1002
0(
#1003
b100100 g
1(
#1004
0(
#1005
b100101 g
1(
#1006
0(
#1007
b100110 g
1(
#1008
0(
#1009
b100111 g
1(
#1010
0(
#1011
b101000 g
1(
#1012
0(
#1013
b101001 g
1(
#1014
0(
#1015
b101010 g
1(
#1016
0(
#1017
b101011 g
1(
#1018
0(
#1019
b101100 g
1(
#1020
0(
#1021
b101101 g
1(
#1022
0(
#1023
b101110 g
1(
#1024
0(
#1025
b101111 g
1(
#1026
0(
#1027
b110000 g
1(
#1028
0(
#1029
b110001 g
1(
#1030
0(
#1031
b110010 g
1(
#1032
0(
#1033
b110011 g
1(
#1034
0(
#1035
b110100 g
1(
#1036
0(
#1037
b110101 g
1(
#1038
0(
#1039
b110110 g
1(
#1040
0(
#1041
b110111 g
1(
#1042
0(
#1043
b111000 g
1(
#1044
0(
#1045
b111001 g
1(
#1046
0(
#1047
b111010 g
1(
#1048
0(
#1049
b111011 g
1(
#1050
0(
#1051
b111100 g
1(
#1052
0(
#1053
b111101 g
1(
#1054
0(
#1055
b111110 g
1(
#1056
0(
#1057
b111111 g
1(
#1058
0(
#1059
b1000000 g
1(
#1060
0(
#1061
b1000001 g
1(
#1062
0(
#1063
b1000010 g
1(
#1064
0(
#1065
b1000011 g
1(
#1066
0(
#1067
b1000100 g
1(
#1068
0(
#1069
b1000101 g
1(
#1070
0(
#1071
b1000110 g
1(
#1072
0(
#1073
b1000111 g
1(
#1074
0(
#1075
b1001000 g
1(
#1076
0(
#1077
b1001001 g
1(
#1078
0(
#1079
b1001010 g
1(
#1080
0(
#1081
b1001011 g
1(
#1082
0(
#1083
b1001100 g
1(
#1084
0(
#1085
b1001101 g
1(
#1086
0(
#1087
b1001110 g
1(
#1088
0(
#1089
b1001111 g
1(
#1090
0(
#1091
b1010000 g
1(
#1092
0(
#1093
b1010001 g
1(
#1094
0(
#1095
b1010010 g
1(
#1096
0(
#1097
b1010011 g
1(
#1098
0(
#1099
b1010100 g
1(
#1100
0(
#1101
b1010101 g
1(
#1102
0(
#1103
b1010110 g
1(
#1104
0(
#1105
b1010111 g
1(
#1106
0(
#1107
b1011000 g
1(
#1108
0(
#1109
b1011001 g
1(
#1110
0(
#1111
b1011010 g
1(
#1112
0(
#1113
b1011011 g
1(
#1114
0(
#1115
b1011100 g
1(
#1116
0(
#1117
b1011101 g
1(
#1118
0(
#1119
b1011110 g
1(
#1120
0(
#1121
b1011111 g
1(
#1122
0(
#1123
b1100000 g
1(
#1124
0(
#1125
0"
b1100001 g
1(
#1126
0(
#1127
b1100010 g
1(
#1128
0(
#1129
b1100011 g
1(
#1130
0(
#1131
b1100100 g
1(
#1132
0(
#1133
b1100101 g
1(
#1134
0(
#1135
b1100110 g
1(
#1136
0(
#1137
b1100111 g
1(
#1138
0(
#1139
b1101000 g
1(
#1140
0(
#1141
b1101001 g
1(
#1142
0(
#1143
b1101010 g
1(
#1144
0(
#1145
b1101011 g
1(
#1146
0(
#1147
b1101100 g
1(
#1148
0(
#1149
b1101101 g
1(
#1150
0(
#1151
b1101110 g
1(
#1152
0(
#1153
b1101111 g
1(
#1154
0(
#1155
b1110000 g
1(
#1156
0(
#1157
b1110001 g
1(
#1158
0(
#1159
b1110010 g
1(
#1160
0(
#1161
b1110011 g
1(
#1162
0(
#1163
b1110100 g
1(
#1164
0(
#1165
b1110101 g
1(
#1166
0(
#1167
b1110110 g
1(
#1168
0(
#1169
b1110111 g
1(
#1170
0(
#1171
b1111000 g
1(
#1172
0(
#1173
b1111001 g
1(
#1174
0(
#1175
b1111010 g
1(
#1176
0(
#1177
b1111011 g
1(
#1178
0(
#1179
b1111100 g
1(
#1180
0(
#1181
b1111101 g
1(
#1182
0(
#1183
b1111110 g
1(
#1184
0(
#1185
b1111111 g
1(
#1186
0(
#1187
b11 e
b0 g
1(
#1188
0(
#1189
b1 g
1(
#1190
0(
#1191
b10 g
1(
#1192
0(
#1193
b11 g
1(
#1194
0(
#1195
b100 g
1(
#1196
0(
#1197
b101 g
1(
#1198
0(
#1199
b110 g
1(
#1200
0(
#1201
b111 g
1(
#1202
0(
#1203
b1000 g
1(
#1204
0(
#1205
b1001 g
1(
#1206
0(
#1207
b1010 g
1(
#1208
0(
#1209
b1011 g
1(
#1210
0(
#1211
b1100 g
1(
#1212
0(
#1213
b1101 g
1(
#1214
0(
#1215
b1110 g
1(
#1216
0(
#1217
b1111 g
1(
#1218
0(
#1219
b10000 g
1(
#1220
0(
#1221
b10001 g
1(
#1222
0(
#1223
b10010 g
1(
#1224
0(
#1225
b10011 g
1(
#1226
0(
#1227
b10100 g
1(
#1228
0(
#1229
b10101 g
1(
#1230
0(
#1231
b10110 g
1(
#1232
0(
#1233
b10111 g
1(
#1234
0(
#1235
b11000 g
1(
#1236
0(
#1237
b11001 g
1(
#1238
0(
#1239
b11010 g
1(
#1240
0(
#1241
b11011 g
1(
#1242
0(
#1243
b11100 g
1(
#1244
0(
#1245
b11101 g
1(
#1246
0(
#1247
b11110 g
1(
#1248
0(
#1249
b11111 g
1(
#1250
0(
#1251
b100000 g
1(
#1252
0(
#1253
1"
b100001 g
1(
#1254
0(
#1255
b100010 g
1(
#1256
0(
#1257
b100011 g
1(
#1258
0(
#1259
b100100 g
1(
#1260
0(
#1261
b100101 g
1(
#1262
0(
#1263
b100110 g
1(
#1264
0(
#1265
b100111 g
1(
#1266
0(
#1267
b101000 g
1(
#1268
0(
#1269
b101001 g
1(
#1270
0(
#1271
b101010 g
1(
#1272
0(
#1273
b101011 g
1(
#1274
0(
#1275
b101100 g
1(
#1276
0(
#1277
b101101 g
1(
#1278
0(
#1279
b101110 g
1(
#1280
0(
#1281
b101111 g
1(
#1282
0(
#1283
b110000 g
1(
#1284
0(
#1285
b110001 g
1(
#1286
0(
#1287
b110010 g
1(
#1288
0(
#1289
b110011 g
1(
#1290
0(
#1291
b110100 g
1(
#1292
0(
#1293
b110101 g
1(
#1294
0(
#1295
b110110 g
1(
#1296
0(
#1297
b110111 g
1(
#1298
0(
#1299
b111000 g
1(
#1300
0(
#1301
b111001 g
1(
#1302
0(
#1303
b111010 g
1(
#1304
0(
#1305
b111011 g
1(
#1306
0(
#1307
b111100 g
1(
#1308
0(
#1309
b111101 g
1(
#1310
0(
#1311
b111110 g
1(
#1312
0(
#1313
b111111 g
1(
#1314
0(
#1315
b1000000 g
1(
#1316
0(
#1317
b1000001 g
1(
#1318
0(
#1319
b1000010 g
1(
#1320
0(
#1321
b1000011 g
1(
#1322
0(
#1323
b1000100 g
1(
#1324
0(
#1325
b1000101 g
1(
#1326
0(
