fpga/pwm_ctrl/pwm_ctrl.vcd
$date
	Mon Aug 05 14:18:12 2024
$end
$version
	Icarus Verilog
$end
$timescale
	1s
$end
$scope module test $end
$var wire 1 ! sda $end
$var wire 1 " sck $end
$var wire 1 # pwm_update $end
$var wire 8 $ pwm_ratio [7:0] $end
$var wire 1 % pwm_enable $end
$var wire 1 & angle_done $end
$var reg 1 ' angle_update $end
$var reg 1 ( clock $end
$var reg 8 ) current_angle [7:0] $end
$var reg 1 * done $end
$var reg 1 + pwm_done $end
$var reg 1 , reset_n $end
$var reg 8 - target_angle [7:0] $end
$var reg 8 . timeout [7:0] $end
$scope module dut $end
$var wire 1 ' angle_update $end
$var wire 1 ( clock $end
$var wire 1 + pwm_done $end
$var wire 1 , reset_n $end
$var wire 8 / target_angle [7:0] $end
$var wire 1 0 sdaOutReg $end
$var wire 1 ! sda $end
$var wire 1 " sck $end
$var wire 8 1 rd_data [7:0] $end
$var wire 1 # pwm_update $end
$var wire 8 2 pwm_ratio [7:0] $end
$var wire 1 % pwm_enable $end
$var wire 1 3 isSending $end
$var wire 1 4 i2c_done $end
$var wire 1 & angle_done $end
$var parameter 4 5 DEV_ADDR0 $end
$var parameter 4 6 DEV_ADDR1 $end
$var parameter 4 7 ERROR $end
$var parameter 4 8 IDLE $end
$var parameter 4 9 NACK $end
$var parameter 4 : PAUSE $end
$var parameter 4 ; RD_DATA0 $end
$var parameter 4 < RD_DATA1 $end
$var parameter 4 = START $end
$var parameter 4 > STOP $end
$var parameter 4 ? WORD_ADDR $end
$var reg 2 @ instruction [1:0] $end
$var reg 4 A ns [3:0] $end
$var reg 4 B ps [3:0] $end
$var reg 1 C send_nack $end
$var reg 8 D wr_data [7:0] $end
$scope module a_to_pwm $end
$var wire 1 ' angle_update $end
$var wire 1 ( clock $end
$var wire 1 E pwm_direction $end
$var wire 1 + pwm_done $end
$var wire 1 , reset_n $end
$var wire 8 F target_angle [7:0] $end
$var wire 8 G current_angle [7:0] $end
$var parameter 2 H ACCEL $end
$var parameter 4 I BIG_DELTA $end
$var parameter 2 J CRUISE $end
$var parameter 2 K DECCEL $end
$var parameter 2 L IDLE $end
$var parameter 4 M MED_DELTA $end
$var parameter 12 N PROFILE_DELAY_TARGET $end
$var parameter 4 O SMALL_DELTA $end
$var parameter 8 P TARGET_TOLERANCE $end
$var reg 1 & angle_done $end
$var reg 4 Q curr_step [3:0] $end
$var reg 9 R delta_angle [8:0] $end
$var reg 2 S ns [1:0] $end
$var reg 4 T num_steps [3:0] $end
$var reg 12 U profile_delay [11:0] $end
$var reg 2 V ps [1:0] $end
$var reg 1 % pwm_enable $end
$var reg 8 W pwm_ratio [7:0] $end
$var reg 1 # pwm_update $end
$upscope $end
$scope module i2c $end
$var wire 8 X byteToSend [7:0] $end
$var wire 1 ( clk $end
$var wire 1 , enable $end
$var wire 2 Y instruction [1:0] $end
$var wire 1 ! sdaIn $end
$var wire 1 C send_nack $end
$var parameter 32 Z INST_READ_BYTE $end
$var parameter 32 [ INST_START_TX $end
$var parameter 32 \ INST_STOP_TX $end
$var parameter 32 ] INST_WRITE_BYTE $end
$var parameter 32 ^ STATE_DONE $end
$var parameter 32 _ STATE_IDLE $end
$var parameter 32 ` STATE_RCV_ACK $end
$var parameter 32 a STATE_SEND_ACK $end
$var parameter 32 b STATE_SEND_NACK $end
$var reg 3 c bitToSend [2:0] $end
$var reg 8 d byteReceived [7:0] $end
$var reg 7 e clockDivider [6:0] $end
$var reg 1 4 complete $end
$var reg 1 3 isSending $end
$var reg 1 " scl $end
$var reg 1 0 sdaOutReg $end
$var reg 3 f state [2:0] $end
$upscope $end
$upscope $end
$upscope $end
$enddefinitions $end
$comment Show the parameter values. $end
$dumpall
b1000 b
b110 a
b111 `
b100 _
b101 ^
b11 ]
b1 \
b0 [
b10 Z
b10 P
b1000 O
b11 N
b1011 M
b0 L
b11 K
b10 J
b1111 I
b1 H
b11 ?
b1000 >
b1 =
b110 <
b101 ;
b1001 :
b111 9
b0 8
b1111 7
b100 6
b10 5
$end
#0
$dumpvars
b100 f
b0 e
b0 d
b0 c
b0 Y
b0 X
b10000000 W
b0 V
b0 U
b1011 T
b0 S
b0 R
b0 Q
b0 G
b0 F
zE
b0 D
0C
b0 B
b0 A
b0 @
x4
03
b10000000 2
b0 1
10
b0 /
b110010 .
b0 -
0,
0+
x*
b0 )
0(
0'
0&
1%
b10000000 $
0#
1"
z!
$end
#1
0*
1(
#2
0(
#3
1(
#4
0(
#5
1(
#6
0(
#7
1(
#8
0(
#9
1(
#10
0(
b1010 )
b10111 -
b10111 /
b10111 F
1,
#11
1#
b10111 R
b0 f
04
b1000 T
1(
#12
0(
#13
1!
b1 e
13
b1011 T
1(
#14
0(
#15
b10 e
1(
#16
0(
#17
b11 e
1(
#18
0(
#19
b100 e
1(
#20
b1 S
b1 A
0(
1'
#21
b1 B
b1 V
b101 e
1(
#22
0(
#23
b10000110 $
b10000110 2
b10000110 W
b110 e
1(
#24
0(
#25
b111 e
1(
#26
0(
#27
b1000 e
1(
#28
0(
#29
b1001 e
1(
#30
0(
#31
b1010 e
1(
#32
0(
#33
b1011 e
1(
#34
0(
#35
b1100 e
1(
#36
0(
#37
b1101 e
1(
#38
0(
#39
b1110 e
1(
#40
0(
#41
b1111 e
1(
#42
0(
#43
b10000 e
1(
#44
0(
#45
b10001 e
1(
#46
0(
#47
b10010 e
1(
#48
0(
#49
b10011 e
1(
#50
0(
#51
b10100 e
1(
#52
0(
#53
b10101 e
1(
#54
0(
#55
b10110 e
1(
#56
0(
#57
b10111 e
1(
#58
0(
#59
b11000 e
1(
#60
0(
#61
b11001 e
1(
#62
0(
#63
b11010 e
1(
#64
0(
#65
b11011 e
1(
#66
0(
#67
b11100 e
1(
#68
0(
#69
b11101 e
1(
#70
0(
#71
b11110 e
1(
#72
0(
#73
b11111 e
1(
#74
0(
#75
b100000 e
1(
#76
0(
#77
0!
00
b100001 e
1(
#78
0(
#79
b100010 e
1(
#80
0(
#81
b100011 e
1(
#82
0(
#83
b100100 e
1(
#84
0(
#85
b100101 e
1(
#86
0(
#87
b100110 e
1(
#88
0(
#89
b100111 e
1(
#90
0(
#91
b101000 e
1(
#92
0(
#93
b101001 e
1(
#94
0(
#95
b101010 e
1(
#96
0(
#97
b101011 e
1(
#98
0(
#99
b101100 e
1(
#100
0(
#101
b101101 e
1(
#102
0(
#103
b101110 e
1(
#104
0(
#105
b101111 e
1(
#106
0(
#107
b110000 e
1(
#108
0(
#109
b110001 e
1(
#110
0(
#111
b110010 e
1(
#112
0(
#113
b110011 e
1(
#114
0(
#115
b110100 e
1(
#116
0(
#117
b110101 e
1(
#118
0(
#119
b110110 e
1(
#120
0(
#121
b110111 e
1(
#122
0(
#123
b111000 e
1(
#124
0(
#125
b111001 e
1(
#126
0(
#127
b111010 e
1(
#128
0(
#129
b111011 e
1(
#130
0(
#131
b111100 e
1(
#132
0(
#133
b111101 e
1(
#134
0(
#135
b111110 e
1(
#136
0(
#137
b111111 e
1(
#138
0(
#139
b1000000 e
1(
#140
0(
#141
0"
b1000001 e
1(
#142
0(
#143
b1000010 e
1(
#144
0(
#145
b1000011 e
1(
#146
0(
#147
b1000100 e
1(
#148
0(
#149
b1000101 e
1(
#150
0(
#151
b1000110 e
1(
#152
0(
#153
b1000111 e
1(
#154
0(
#155
b1001000 e
1(
#156
0(
#157
b1001001 e
1(
#158
0(
#159
b1001010 e
1(
#160
0(
#161
b1001011 e
1(
#162
0(
#163
b1001100 e
1(
#164
0(
#165
b1001101 e
1(
#166
0(
#167
b1001110 e
1(
#168
0(
#169
b1001111 e
1(
#170
0(
#171
b1010000 e
1(
#172
0(
#173
b1010001 e
1(
#174
0(
#175
b1010010 e
1(
#176
0(
#177
b1010011 e
1(
#178
0(
#179
b1010100 e
1(
#180
0(
#181
b1010101 e
1(
#182
0(
#183
b1010110 e
1(
#184
0(
#185
b1010111 e
1(
#186
0(
#187
b1011000 e
1(
#188
0(
#189
b1011001 e
1(
#190
0(
#191
b1011010 e
1(
#192
0(
#193
b1011011 e
1(
#194
0(
#195
b1011100 e
1(
#196
0(
#197
b1011101 e
1(
#198
0(
#199
b1011110 e
1(
#200
0(
#201
b1011111 e
1(
#202
0(
#203
b1100000 e
1(
#204
0(
#205
b101 f
b1100001 e
1(
#206
0(
#207
b10 A
b100 f
14
1(
#208
0(
#209
b1101100 D
b1101100 X
b11 @
b11 Y
b10 B
b0 f
b0 e
04
1(
#210
0(
#211
1!
10
1"
b1 e
1(
#212
0(
#213
b10 e
1(
#214
0(
#215
b11 e
1(
#216
0(
#217
b100 e
1(
#218
0(
#219
b101 e
1(
#220
0(
#221
b110 e
1(
#222
0(
#223
b111 e
1(
#224
0(
#225
b1000 e
1(
#226
0(
#227
b1001 e
1(
#228
0(
#229
b1010 e
1(
#230
0(
#231
b1011 e
1(
#232
0(
#233
b1100 e
1(
#234
0(
#235
b1101 e
1(
#236
0(
#237
b1110 e
1(
#238
0(
#239
b1111 e
1(
#240
0(
#241
b10000 e
1(
#242
0(
#243
b10001 e
1(
#244
0(
#245
b10010 e
1(
#246
0(
#247
b10011 e
1(
#248
0(
#249
b10100 e
1(
#250
0(
#251
b10101 e
1(
#252
0(
#253
b10110 e
1(
#254
0(
#255
b10111 e
1(
#256
0(
#257
b11000 e
1(
#258
0(
#259
b11001 e
1(
#260
0(
#261
b11010 e
1(
#262
0(
#263
b11011 e
1(
#264
0(
#265
b11100 e
1(
#266
0(
#267
b11101 e
1(
#268
0(
#269
b11110 e
1(
#270
0(
#271
b11111 e
1(
#272
0(
#273
b100000 e
1(
#274
0(
#275
0!
00
b100001 e
1(
#276
0(
#277
b100010 e
1(
#278
0(
#279
b100011 e
1(
#280
0(
#281
b100100 e
1(
#282
0(
#283
b100101 e
1(
#284
0(
#285
b100110 e
1(
#286
0(
#287
b100111 e
1(
#288
0(
#289
b101000 e
1(
#290
0(
#291
b101001 e
1(
#292
0(
#293
b101010 e
1(
#294
0(
#295
b101011 e
1(
#296
0(
#297
b101100 e
1(
#298
0(
#299
b101101 e
1(
#300
0(
#301
b101110 e
1(
#302
0(
#303
b101111 e
1(
#304
0(
#305
b110000 e
1(
#306
0(
#307
b110001 e
1(
#308
0(
#309
b110010 e
1(
#310
0(
#311
b110011 e
1(
#312
0(
#313
b110100 e
1(
#314
0(
#315
b110101 e
1(
#316
0(
#317
b110110 e
1(
#318
0(
#319
b110111 e
1(
#320
0(
#321
b111000 e
1(
#322
0(
#323
b111001 e
1(
#324
0(
#325
b111010 e
1(
#326
0(
#327
b111011 e
1(
#328
0(
#329
b111100 e
1(
#330
0(
#331
b111101 e
1(
#332
0(
#333
b111110 e
1(
#334
0(
#335
b111111 e
1(
#336
0(
#337
b1000000 e
1(
#338
0(
#339
0"
b1000001 e
1(
#340
0(
#341
b1000010 e
1(
#342
0(
#343
b1000011 e
1(
#344
0(
#345
b1000100 e
1(
#346
0(
#347
b1000101 e
1(
#348
0(
#349
b1000110 e
1(
#350
0(
#351
b1000111 e
1(
#352
0(
#353
b1001000 e
1(
#354
0(
#355
b1001001 e
1(
#356
0(
#357
b1001010 e
1(
#358
0(
#359
b1001011 e
1(
#360
0(
#361
b1001100 e
1(
#362
0(
#363
b1001101 e
1(
#364
0(
#365
b1001110 e
1(
#366
0(
#367
b1001111 e
1(
#368
0(
#369
b1010000 e
1(
#370
0(
#371
b1010001 e
1(
#372
0(
#373
b1010010 e
1(
#374
0(
#375
b1010011 e
1(
#376
0(
#377
b1010100 e
1(
#378
0(
#379
b1010101 e
1(
#380
0(
#381
b1010110 e
1(
#382
0(
#383
b1010111 e
1(
#384
0(
#385
b1011000 e
1(
#386
0(
#387
b1011001 e
1(
#388
0(
#389
b1011010 e
1(
#390
0(
#391
b1011011 e
1(
#392
0(
#393
b1011100 e
1(
#394
0(
#395
b1011101 e
1(
#396
0(
#397
b1011110 e
1(
#398
0(
#399
b1011111 e
1(
#400
0(
#401
b1100000 e
1(
#402
0(
#403
b101 f
b1100001 e
1(
#404
0(
#405
b11 A
b1101100 D
b1101100 X
b11 @
b11 Y
b100 f
14
1(
#406
0(
#407
b1100 D
b1100 X
b11 @
b11 Y
b11 B
b11 f
b0 e
04
1(
#408
0(
#409
b1 e
1(
#410
0(
#411
b10 e
1(
#412
0(
#413
b11 e
1(
#414
0(
#415
b100 e
1(
#416
0(
#417
b101 e
1(
#418
0(
#419
b110 e
1(
#420
0(
#421
b111 e
1(
#422
0(
#423
b1000 e
1(
#424
0(
#425
b1001 e
1(
#426
0(
#427
b1010 e
1(
#428
0(
#429
b1011 e
1(
#430
0(
#431
b1100 e
1(
#432
0(
#433
b1101 e
1(
#434
0(
#435
b1110 e
1(
#436
0(
#437
b1111 e
1(
#438
0(
#439
b10000 e
1(
#440
0(
#441
b10001 e
1(
#442
0(
#443
b10010 e
1(
#444
0(
#445
b10011 e
1(
#446
0(
#447
b10100 e
1(
#448
0(
#449
b10101 e
1(
#450
0(
#451
b10110 e
1(
#452
0(
#453
b10111 e
1(
#454
0(
#455
b11000 e
1(
#456
0(
#457
b11001 e
1(
#458
0(
#459
b11010 e
1(
#460
0(
#461
b11011 e
1(
#462
0(
#463
b11100 e
1(
#464
0(
#465
b11101 e
1(
#466
0(
#467
b11110 e
1(
#468
0(
#469
b11111 e
1(
#470
0(
#471
b100000 e
1(
#472
0(
#473
1"
b100001 e
1(
#474
0(
#475
b100010 e
1(
#476
0(
#477
b100011 e
1(
#478
0(
#479
b100100 e
1(
#480
0(
#481
b100101 e
1(
#482
0(
#483
b100110 e
1(
#484
0(
#485
b100111 e
1(
#486
0(
#487
b101000 e
1(
#488
0(
#489
b101001 e
1(
#490
0(
#491
b101010 e
1(
#492
0(
#493
b101011 e
1(
#494
0(
#495
b101100 e
1(
#496
0(
#497
b101101 e
1(
#498
0(
#499
b101110 e
1(
#500
0(
#501
b101111 e
1(
#502
0(
#503
b110000 e
1(
#504
0(
#505
b110001 e
1(
#506
0(
#507
b110010 e
1(
#508
0(
#509
b110011 e
1(
#510
0(
#511
b110100 e
1(
#512
0(
#513
b110101 e
1(
#514
0(
#515
b110110 e
1(
#516
0(
#517
b110111 e
1(
#518
0(
#519
b111000 e
1(
#520
0(
#521
b111001 e
1(
#522
0(
#523
b111010 e
1(
#524
0(
#525
b111011 e
1(
#526
0(
#527
b111100 e
1(
#528
0(
#529
b111101 e
1(
#530
0(
#531
b111110 e
1(
#532
0(
#533
b111111 e
1(
#534
0(
#535
b1000000 e
1(
#536
0(
#537
b1000001 e
1(
#538
0(
#539
b1000010 e
1(
#540
0(
#541
b1000011 e
1(
#542
0(
#543
b1000100 e
1(
#544
0(
#545
b1000101 e
1(
#546
0(
#547
b1000110 e
1(
#548
0(
#549
b1000111 e
1(
#550
0(
#551
b1001000 e
1(
#552
0(
#553
b1001001 e
1(
#554
0(
#555
b1001010 e
1(
#556
0(
#557
b1001011 e
1(
#558
0(
#559
b1001100 e
1(
#560
0(
#561
b1001101 e
1(
#562
0(
#563
b1001110 e
1(
#564
0(
#565
b1001111 e
1(
#566
0(
#567
b1010000 e
1(
#568
0(
#569
b1010001 e
1(
#570
0(
#571
b1010010 e
1(
#572
0(
#573
b1010011 e
1(
#574
0(
#575
b1010100 e
1(
#576
0(
#577
b1010101 e
1(
#578
0(
#579
b1010110 e
1(
#580
0(
#581
b1010111 e
1(
#582
0(
#583
b1011000 e
1(
#584
0(
#585
b1011001 e
1(
#586
0(
#587
b1011010 e
1(
#588
0(
#589
b1011011 e
1(
#590
0(
#591
b1011100 e
1(
#592
0(
#593
b1011101 e
1(
#594
0(
#595
b1011110 e
1(
#596
0(
#597
b1011111 e
1(
#598
0(
#599
b1100000 e
1(
#600
0(
#601
0"
b1100001 e
1(
#602
0(
#603
b1100010 e
1(
#604
0(
#605
b1100011 e
1(
#606
0(
#607
b1100100 e
1(
#608
0(
#609
b1100101 e
1(
#610
0(
#611
b1100110 e
1(
#612
0(
#613
b1100111 e
1(
#614
0(
#615
b1101000 e
1(
#616
0(
#617
b1101001 e
1(
#618
0(
#619
b1101010 e
1(
#620
0(
#621
b1101011 e
1(
#622
0(
#623
b1101100 e
1(
#624
0(
#625
b1101101 e
1(
#626
0(
#627
b1101110 e
1(
#628
0(
#629
b1101111 e
1(
#630
0(
#631
b1110000 e
1(
#632
0(
#633
b1110001 e
1(
#634
0(
#635
b1110010 e
1(
#636
0(
#637
b1110011 e
1(
#638
0(
#639
b1110100 e
1(
#640
0(
#641
b1110101 e
1(
#642
0(
#643
b1110110 e
1(
#644
0(
#645
b1110111 e
1(
#646
0(
#647
b1111000 e
1(
#648
0(
#649
b1111001 e
1(
#650
0(
#651
b1111010 e
1(
#652
0(
#653
b1111011 e
1(
#654
0(
#655
b1111100 e
1(
#656
0(
#657
b1111101 e
1(
#658
0(
#659
b1111110 e
1(
#660
0(
#661
b1111111 e
1(
#662
0(
#663
b1 c
b0 e
1(
#664
0(
#665
b1 e
1(
#666
0(
#667
b10 e
1(
#668
0(
#669
b11 e
1(
#670
0(
#671
b100 e
1(
#672
0(
#673
b101 e
1(
#674
0(
#675
b110 e
1(
#676
0(
#677
b111 e
1(
#678
0(
#679
b1000 e
1(
#680
0(
#681
b1001 e
1(
#682
0(
#683
b1010 e
1(
#684
0(
#685
b1011 e
1(
#686
0(
#687
b1100 e
1(
#688
0(
#689
b1101 e
1(
#690
0(
#691
b1110 e
1(
#692
0(
#693
b1111 e
1(
#694
0(
#695
b10000 e
1(
#696
0(
#697
b10001 e
1(
#698
0(
#699
b10010 e
1(
#700
0(
#701
b10011 e
1(
#702
0(
#703
b10100 e
1(
#704
0(
#705
b10101 e
1(
#706
0(
#707
b10110 e
1(
#708
0(
#709
b10111 e
1(
#710
0(
#711
b11000 e
1(
#712
0(
#713
b11001 e
1(
#714
0(
#715
b11010 e
1(
#716
0(
#717
b11011 e
1(
#718
0(
#719
b11100 e
1(
#720
0(
#721
b11101 e
1(
#722
0(
#723
b11110 e
1(
#724
0(
#725
b11111 e
1(
#726
0(
#727
b100000 e
1(
#728
0(
#729
1"
b100001 e
1(
#730
0(
#731
b100010 e
1(
#732
0(
#733
b100011 e
1(
#734
0(
#735
b100100 e
1(
#736
0(
#737
b100101 e
1(
#738
0(
#739
b100110 e
1(
#740
0(
#741
b100111 e
1(
#742
0(
#743
b101000 e
1(
#744
0(
#745
b101001 e
1(
#746
0(
#747
b101010 e
1(
#748
0(
#749
b101011 e
1(
#750
0(
#751
b101100 e
1(
#752
0(
#753
b101101 e
1(
#754
0(
#755
b101110 e
1(
#756
0(
#757
b101111 e
1(
#758
0(
#759
b110000 e
1(
#760
0(
#761
b110001 e
1(
#762
0(
#763
b110010 e
1(
#764
0(
#765
b110011 e
1(
#766
0(
#767
b110100 e
1(
#768
0(
#769
b110101 e
1(
#770
0(
#771
b110110 e
1(
#772
0(
#773
b110111 e
1(
#774
0(
#775
b111000 e
1(
#776
0(
#777
b111001 e
1(
#778
0(
#779
b111010 e
1(
#780
0(
#781
b111011 e
1(
#782
0(
#783
b111100 e
1(
#784
0(
#785
b111101 e
1(
#786
0(
#787
b111110 e
1(
#788
0(
#789
b111111 e
1(
#790
0(
#791
b1000000 e
1(
#792
0(
#793
b1000001 e
1(
#794
0(
#795
b1000010 e
1(
#796
0(
#797
b1000011 e
1(
#798
0(
#799
b1000100 e
1(
#800
0(
#801
b1000101 e
1(
#802
0(
#803
b1000110 e
1(
#804
0(
#805
b1000111 e
1(
#806
0(
#807
b1001000 e
1(
#808
0(
#809
b1001001 e
1(
#810
0(
#811
b1001010 e
1(
#812
0(
#813
b1001011 e
1(
#814
0(
#815
b1001100 e
1(
#816
0(
#817
b1001101 e
1(
#818
0(
#819
b1001110 e
1(
#820
0(
#821
b1001111 e
1(
#822
0(
#823
b1010000 e
1(
#824
0(
#825
b1010001 e
1(
#826
0(
#827
b1010010 e
1(
#828
0(
#829
b1010011 e
1(
#830
0(
#831
b1010100 e
1(
#832
0(
#833
b1010101 e
1(
#834
0(
#835
b1010110 e
1(
#836
0(
#837
b1010111 e
1(
#838
0(
#839
b1011000 e
1(
#840
0(
#841
b1011001 e
1(
#842
0(
#843
b1011010 e
1(
#844
0(
#845
b1011011 e
1(
#846
0(
#847
b1011100 e
1(
#848
0(
#849
b1011101 e
1(
#850
0(
#851
b1011110 e
1(
#852
0(
#853
b1011111 e
1(
#854
0(
#855
b1100000 e
1(
#856
0(
#857
0"
b1100001 e
1(
#858
0(
#859
b1100010 e
1(
#860
0(
#861
b1100011 e
1(
#862
0(
#863
b1100100 e
1(
#864
0(
#865
b1100101 e
1(
#866
0(
#867
b1100110 e
1(
#868
0(
#869
b1100111 e
1(
#870
0(
#871
b1101000 e
1(
#872
0(
#873
b1101001 e
1(
#874
0(
#875
b1101010 e
1(
#876
0(
#877
b1101011 e
1(
#878
0(
#879
b1101100 e
1(
#880
0(
#881
b1101101 e
1(
#882
0(
#883
b1101110 e
1(
#884
0(
#885
b1101111 e
1(
#886
0(
#887
b1110000 e
1(
#888
0(
#889
b1110001 e
1(
#890
0(
#891
b1110010 e
1(
#892
0(
#893
b1110011 e
1(
#894
0(
#895
b1110100 e
1(
#896
0(
#897
b1110101 e
1(
#898
0(
#899
b1110110 e
1(
#900
0(
#901
b1110111 e
1(
#902
0(
#903
b1111000 e
1(
#904
0(
#905
b1111001 e
1(
#906
0(
#907
b1111010 e
1(
#908
0(
#909
b1111011 e
1(
#910
0(
#911
b1111100 e
1(
#912
0(
#913
b1111101 e
1(
#914
0(
#915
b1111110 e
1(
#916
0(
#917
b1111111 e
1(
#918
0(
#919
b10 c
b0 e
1(
#920
0(
#921
b1 e
1(
#922
0(
#923
b10 e
1(
#924
0(
#925
b11 e
1(
#926
0(
#927
b100 e
1(
#928
0(
#929
b101 e
1(
#930
0(
#931
b110 e
1(
#932
0(
#933
b111 e
1(
#934
0(
#935
b1000 e
1(
#936
0(
#937
b1001 e
1(
#938
0(
#939
b1010 e
1(
#940
0(
#941
b1011 e
1(
#942
0(
#943
b1100 e
1(
#944
0(
#945
b1101 e
1(
#946
0(
#947
b1110 e
1(
#948
0(
#949
b1111 e
1(
#950
0(
#951
b10000 e
1(
#952
0(
#953
b10001 e
1(
#954
0(
#955
b10010 e
1(
#956
0(
#957
b10011 e
1(
#958
0(
#959
b10100 e
1(
#960
0(
#961
b10101 e
1(
#962
0(
#963
b10110 e
1(
#964
0(
#965
b10111 e
1(
#966
0(
#967
b11000 e
1(
#968
0(
#969
b11001 e
1(
#970
0(
#971
b11010 e
1(
#972
0(
#973
b11011 e
1(
#974
0(
#975
b11100 e
1(
#976
0(
#977
b11101 e
1(
#978
0(
#979
b11110 e
1(
#980
0(
#981
b11111 e
1(
#982
0(
#983
b100000 e
1(
#984
0(
#985
1"
b100001 e
1(
#986
0(
#987
b100010 e
1(
#988
0(
#989
b100011 e
1(
#990
0(
#991
b100100 e
1(
#992
0(
#993
b100101 e
1(
#994
0(
#995
b100110 e
1(
#996
0(
#997
b100111 e
1(
#998
0(
#999
b101000 e
1(
#1000
0(
#1001
b101001 e
1(
#1002
0(
#1003
b101010 e
1(
#1004
0(
#1005
b101011 e
1(
#1006
0(
#1007
b101100 e
1(
#1008
0(
#1009
b101101 e
1(
#1010
0(
#1011
b101110 e
1(
#1012
0(
#1013
b101111 e
1(
#1014
0(
#1015
b110000 e
1(
#1016
0(
#1017
b110001 e
1(
#1018
0(
#1019
b110010 e
1(
#1020
0(
#1021
b110011 e
1(
#1022
0(
#1023
b110100 e
1(
#1024
0(
#1025
b110101 e
1(
#1026
0(
#1027
b110110 e
1(
#1028
0(
#1029
b110111 e
1(
#1030
0(
#1031
b111000 e
1(
#1032
0(
#1033
b111001 e
1(
#1034
0(
#1035
b111010 e
1(
#1036
0(
#1037
b111011 e
1(
#1038
0(
#1039
b111100 e
1(
#1040
0(
#1041
b111101 e
1(
#1042
0(
#1043
b111110 e
1(
#1044
0(
#1045
b111111 e
1(
#1046
0(
#1047
b1000000 e
1(
#1048
0(
#1049
b1000001 e
1(
#1050
0(
#1051
b1000010 e
1(
#1052
0(
#1053
b1000011 e
1(
#1054
0(
#1055
b1000100 e
1(
#1056
0(
#1057
b1000101 e
1(
#1058
0(
#1059
b1000110 e
1(
#1060
0(
#1061
b1000111 e
1(
#1062
0(
#1063
b1001000 e
1(
#1064
0(
#1065
b1001001 e
1(
#1066
0(
#1067
b1001010 e
1(
#1068
0(
#1069
b1001011 e
1(
#1070
0(
#1071
b1001100 e
1(
#1072
0(
#1073
b1001101 e
1(
#1074
0(
#1075
b1001110 e
1(
#1076
0(
#1077
b1001111 e
1(
#1078
0(
#1079
b1010000 e
1(
#1080
0(
#1081
b1010001 e
1(
#1082
0(
#1083
b1010010 e
1(
#1084
0(
#1085
b1010011 e
1(
#1086
0(
#1087
b1010100 e
1(
#1088
0(
#1089
b1010101 e
1(
#1090
0(
#1091
b1010110 e
1(
#1092
0(
#1093
b1010111 e
1(
#1094
0(
#1095
b1011000 e
1(
#1096
0(
#1097
b1011001 e
1(
#1098
0(
#1099
b1011010 e
1(
#1100
0(
#1101
b1011011 e
1(
#1102
0(
#1103
b1011100 e
1(
#1104
0(
#1105
b1011101 e
1(
#1106
0(
#1107
b1011110 e
1(
#1108
0(
#1109
b1011111 e
1(
#1110
0(
#1111
b1100000 e
1(
#1112
0(
#1113
0"
b1100001 e
1(
#1114
0(
#1115
b1100010 e
1(
#1116
0(
#1117
b1100011 e
1(
#1118
0(
#1119
b1100100 e
1(
#1120
0(
#1121
b1100101 e
1(
#1122
0(
#1123
b1100110 e
1(
#1124
0(
#1125
b1100111 e
1(
#1126
0(
#1127
b1101000 e
1(
#1128
0(
#1129
b1101001 e
1(
#1130
0(
#1131
b1101010 e
1(
#1132
0(
#1133
b1101011 e
1(
#1134
0(
#1135
b1101100 e
1(
#1136
0(
#1137
b1101101 e
1(
#1138
0(
#1139
b1101110 e
1(
#1140
0(
#1141
b1101111 e
1(
#1142
0(
#1143
b1110000 e
1(
#1144
0(
#1145
b1110001 e
1(
#1146
0(
#1147
b1110010 e
1(
#1148
0(
#1149
b1110011 e
1(
#1150
0(
#1151
b1110100 e
1(
#1152
0(
#1153
b1110101 e
1(
#1154
0(
#1155
b1110110 e
1(
#1156
0(
#1157
b1110111 e
1(
#1158
0(
#1159
b1111000 e
1(
#1160
0(
#1161
b1111001 e
1(
#1162
0(
#1163
b1111010 e
1(
#1164
0(
#1165
b1111011 e
1(
#1166
0(
#1167
b1111100 e
1(
#1168
0(
#1169
b1111101 e
1(
#1170
0(
#1171
b1111110 e
1(
#1172
0(
#1173
b1111111 e
1(
#1174
0(
#1175
b11 c
b0 e
1(
#1176
0(
#1177
b1 e
1(
#1178
0(
#1179
b10 e
1(
#1180
0(
#1181
b11 e
1(
#1182
0(
#1183
b100 e
1(
#1184
0(
#1185
b101 e
1(
#1186
0(
#1187
b110 e
1(
#1188
0(
#1189
b111 e
1(
#1190
0(
#1191
b1000 e
1(
#1192
0(
#1193
b1001 e
1(
#1194
0(
#1195
b1010 e
1(
#1196
0(
#1197
b1011 e
1(
#1198
0(
#1199
b1100 e
1(
#1200
0(
#1201
b1101 e
1(
#1202
0(
#1203
b1110 e
1(
#1204
0(
#1205
b1111 e
1(
#1206
0(
#1207
b10000 e
1(
#1208
0(
#1209
b10001 e
1(
#1210
0(
#1211
b10010 e
1(
#1212
0(
#1213
b10011 e
1(
#1214
0(
#1215
b10100 e
1(
#1216
0(
#1217
b10101 e
1(
#1218
0(
#1219
b10110 e
1(
#1220
0(
#1221
b10111 e
1(
#1222
0(
#1223
b11000 e
1(
#1224
0(
#1225
b11001 e
1(
#1226
0(
#1227
b11010 e
1(
#1228
0(
#1229
b11011 e
1(
#1230
0(
#1231
b11100 e
1(
#1232
0(
#1233
b11101 e
1(
#1234
0(
#1235
b11110 e
1(
#1236
0(
#1237
b11111 e
1(
#1238
0(
#1239
b100000 e
1(
#1240
0(
#1241
1"
b100001 e
1(
#1242
0(
#1243
b100010 e
1(
#1244
0(
#1245
b100011 e
1(
#1246
0(
#1247
b100100 e
1(
#1248
0(
#1249
b100101 e
1(
#1250
0(
#1251
b100110 e
1(
#1252
0(
#1253
b100111 e
1(
#1254
0(
#1255
b101000 e
1(
#1256
0(
#1257
b101001 e
1(
#1258
0(
#1259
b101010 e
1(
#1260
0(
#1261
b101011 e
1(
#1262
0(
#1263
b101100 e
1(
#1264
0(
#1265
b101101 e
1(
#1266
0(
#1267
b101110 e
1(
#1268
0(
#1269
b101111 e
1(
#1270
0(
#1271
b110000 e
1(
#1272
0(
#1273
b110001 e
1(
#1274
0(
#1275
b110010 e
1(
#1276
0(
#1277
b110011 e
1(
#1278
0(
#1279
b110100 e
1(
#1280
0(
#1281
b110101 e
1(
#1282
0(
#1283
b110110 e
1(
#1284
0(
#1285
b110111 e
1(
#1286
0(
#1287
b111000 e
1(
#1288
0(
#1289
b111001 e
1(
#1290
0(
#1291
b111010 e
1(
#1292
0(
#1293
b111011 e
1(
#1294
0(
#1295
b111100 e
1(
#1296
0(
#1297
b111101 e
1(
#1298
0(
#1299
b111110 e
1(
#1300
0(
#1301
b111111 e
1(
#1302
0(
#1303
b1000000 e
1(
#1304
0(
#1305
b1000001 e
1(
#1306
0(
#1307
b1000010 e
1(
#1308
0(
#1309
b1000011 e
1(
#1310
0(
#1311
b1000100 e
1(
#1312
0(
#1313
b1000101 e
1(
#1314
0(
#1315
b1000110 e
1(
#1316
0(
#1317
b1000111 e
1(
#1318
0(
#1319
b1001000 e
1(
#1320
0(
#1321
b1001001 e
1(
#1322
0(
#1323
b1001010 e
1(
#1324
0(
#1325
b1001011 e
1(
#1326
0(
#1327
b1001100 e
1(
#1328
0(
