fpga/pwm_ctrl/pwm_ctrl.vcd
$date
	Wed Nov 27 17:28:56 2024
$end
$version
	Icarus Verilog
$end
$timescale
	1s
$end
$scope module test $end
$var wire 1 ! sda $end
$var wire 1 " sck $end
$var wire 1 # pwm_update $end
$var wire 8 $ pwm_ratio [7:0] $end
$var wire 1 % pwm_enable $end
$var wire 1 & angle_done $end
$var reg 1 ' angle_update $end
$var reg 1 ( clock $end
$var reg 12 ) current_angle [11:0] $end
$var reg 1 * done $end
$var reg 1 + pwm_done $end
$var reg 1 , reset_n $end
$var reg 12 - target_angle [11:0] $end
$var reg 8 . timeout [7:0] $end
$scope module dut $end
$var wire 1 ' angle_update $end
$var wire 1 ( clock $end
$var wire 1 + pwm_done $end
$var wire 1 , reset_n $end
$var wire 12 / target_angle [11:0] $end
$var wire 1 ! sda $end
$var wire 1 " sck $end
$var wire 1 0 rd_done $end
$var wire 1 # pwm_update $end
$var wire 8 1 pwm_ratio [7:0] $end
$var wire 1 % pwm_enable $end
$var wire 12 2 curr_ang [11:0] $end
$var wire 1 & angle_done $end
$var reg 6 3 clk_counter [5:0] $end
$var reg 12 4 current_angle [11:0] $end
$var reg 1 5 rd_done_ff $end
$var reg 1 6 rd_done_ff2 $end
$scope module a_to_pwm $end
$var wire 1 ' angle_update $end
$var wire 1 ( clock $end
$var wire 12 7 current_angle [11:0] $end
$var wire 1 + pwm_done $end
$var wire 1 , reset_n $end
$var wire 12 8 target_angle [11:0] $end
$var wire 1 9 pwm_direction $end
$var parameter 2 : ACCEL $end
$var parameter 8 ; BIG_DELTA $end
$var parameter 2 < CRUISE $end
$var parameter 2 = DECCEL $end
$var parameter 2 > IDLE $end
$var parameter 8 ? MED_DELTA $end
$var parameter 12 @ PROFILE_DELAY_TARGET $end
$var parameter 8 A SMALL_DELTA $end
$var parameter 13 B TARGET_TOLERANCE $end
$var reg 1 & angle_done $end
$var reg 8 C curr_step [7:0] $end
$var reg 13 D delta_angle [12:0] $end
$var reg 2 E ns [1:0] $end
$var reg 8 F num_steps [7:0] $end
$var reg 12 G profile_delay [11:0] $end
$var reg 2 H ps [1:0] $end
$var reg 1 % pwm_enable $end
$var reg 8 I pwm_ratio [7:0] $end
$var reg 1 # pwm_update $end
$upscope $end
$scope module i2c $end
$var wire 1 & angle_done $end
$var wire 1 J clock $end
$var wire 1 , reset_n $end
$var wire 1 " scl $end
$var wire 1 ! sda $end
$var wire 12 K raw_angle [11:0] $end
$var wire 1 L PHASE4 $end
$var wire 1 M PHASE3 $end
$var wire 1 N PHASE2 $end
$var wire 1 O PHASE1 $end
$var parameter 4 P ACK0 $end
$var parameter 4 Q ACK1 $end
$var parameter 4 R ACK2 $end
$var parameter 4 S ACK3 $end
$var parameter 4 T DATA0 $end
$var parameter 4 U DATA1 $end
$var parameter 4 V DEV_RD $end
$var parameter 4 W DEV_WR $end
$var parameter 4 X IDLE $end
$var parameter 4 Y NACK $end
$var parameter 4 Z PAUSE $end
$var parameter 4 [ READ_ADDR $end
$var parameter 8 \ READ_DEVICE $end
$var parameter 8 ] READ_RAW_ANGLE $end
$var parameter 4 ^ REP_START $end
$var parameter 4 _ START $end
$var parameter 4 ` STOP $end
$var parameter 8 a WRITE_DEVICE $end
$var reg 3 b bit_counter [2:0] $end
$var reg 4 c ns [3:0] $end
$var reg 4 d ps [3:0] $end
$var reg 1 0 rd_done $end
$var reg 8 e read_data0 [7:0] $end
$var reg 8 f read_data1 [7:0] $end
$var reg 1 g scl_int $end
$var reg 1 h sda_int $end
$var reg 2 i substate [1:0] $end
$var reg 1 j tri_mode $end
$var reg 1 k wr_bit $end
$upscope $end
$upscope $end
$upscope $end
$enddefinitions $end
$comment Show the parameter values. $end
$dumpall
b1101100 a
b1101 `
b1 _
b110 ^
b1100 ]
b1101101 \
b100 [
b1110 Z
b1100 Y
b0 X
b10 W
b111 V
b1011 U
b1001 T
b1010 S
b1000 R
b101 Q
b11 P
b10 B
b110010 A
b11 @
b1111000 ?
b0 >
b11 =
b10 <
b11111111 ;
b1 :
$end
#0
$dumpvars
0k
0j
b0 i
1h
1g
b0 f
b0 e
b0 d
b1 c
b0 b
1O
0N
0M
0L
b0 K
0J
b10000000 I
b0 H
b0 G
b1111000 F
b0 E
b0 D
b0 C
09
b0 8
b0 7
06
05
b0 4
b0 3
b0 2
b10000000 1
00
b0 /
b110010 .
b0 -
0,
0+
x*
b0 )
0(
0'
0&
1%
b10000000 $
0#
1"
1!
$end
#1
0*
1(
#2
0(
#3
1(
#4
0(
#5
1(
#6
0(
#7
1(
#8
0(
#9
1(
#10
0(
#11
1(
#12
0(
#13
1(
#14
0(
#15
1(
#16
0(
#17
1(
#18
0(
#19
1(
#20
0(
#21
1(
#22
0(
#23
1(
#24
0(
#25
1(
#26
0(
#27
1(
#28
0(
#29
1(
#30
0(
#31
1(
#32
0(
#33
1(
#34
0(
#35
1(
#36
0(
#37
1(
#38
0(
#39
1(
#40
0(
#41
1(
#42
0(
#43
1(
#44
0(
#45
1(
#46
0(
#47
1(
#48
0(
#49
1(
#50
0(
#51
1(
#52
0(
#53
1(
#54
0(
#55
1(
#56
0(
#57
1(
#58
0(
#59
1(
#60
0(
#61
1(
#62
0(
#63
1(
#64
0(
#65
1(
#66
0(
#67
1(
#68
0(
#69
1(
#70
0(
#71
1(
#72
0(
#73
1(
#74
0(
#75
1(
#76
0(
#77
1(
#78
0(
#79
1(
#80
0(
#81
1(
#82
0(
#83
1(
#84
0(
#85
1(
#86
0(
#87
1(
#88
0(
#89
1(
#90
0(
b1010 )
b10111 -
b10111 /
b10111 8
1,
#91
b110010 F
1#
b10111 D
b1 3
1(
#92
0(
#93
b10 3
b1111000 F
1(
#94
0(
#95
b11 3
1(
#96
0(
#97
b100 3
1(
#98
0(
#99
b101 3
1(
#100
b1 E
0(
1'
#101
b110 3
b1 H
1(
#102
0(
#103
b10000110 $
b10000110 1
b10000110 I
b111 3
1(
#104
0(
#105
b1000 3
1(
#106
0(
#107
b1001 3
1(
#108
0(
#109
b1010 3
1(
#110
0(
#111
b1011 3
1(
#112
0(
#113
b1100 3
1(
#114
0(
#115
b1101 3
1(
#116
0(
#117
b1110 3
1(
#118
0(
#119
b1111 3
1(
#120
0(
#121
b10000 3
1(
#122
0(
#123
b10001 3
1(
#124
0(
#125
b10010 3
1(
#126
0(
#127
b10011 3
1(
#128
0(
#129
b10100 3
1(
#130
0(
#131
b10101 3
1(
#132
0(
#133
b10110 3
1(
#134
0(
#135
b10111 3
1(
#136
0(
#137
b11000 3
1(
#138
0(
#139
b11001 3
1(
#140
0(
#141
b11010 3
1(
#142
0(
#143
b11011 3
1(
#144
0(
#145
b11100 3
1(
#146
0(
#147
b11101 3
1(
#148
0(
#149
b11110 3
1(
#150
0(
#151
b11111 3
1(
#152
0(
#153
xk
0O
1N
b1 i
1J
b100000 3
1(
#154
0(
#155
b100001 3
1(
#156
0(
#157
b100010 3
1(
#158
0(
#159
b100011 3
1(
#160
0(
#161
b100100 3
1(
#162
0(
#163
b100101 3
1(
#164
0(
#165
b100110 3
1(
#166
0(
#167
b100111 3
1(
#168
0(
#169
b101000 3
1(
#170
0(
#171
b101001 3
1(
#172
0(
#173
b101010 3
1(
#174
0(
#175
b101011 3
1(
#176
0(
#177
b101100 3
1(
#178
0(
#179
b101101 3
1(
#180
0(
#181
b101110 3
1(
#182
0(
#183
b101111 3
1(
#184
0(
#185
b110000 3
1(
#186
0(
#187
b110001 3
1(
#188
0(
#189
b110010 3
1(
#190
0(
#191
b110011 3
1(
#192
0(
#193
b110100 3
1(
#194
0(
#195
b110101 3
1(
#196
0(
#197
b110110 3
1(
#198
0(
#199
b110111 3
1(
#200
0(
#201
b111000 3
1(
#202
0(
#203
b111001 3
1(
#204
0(
#205
b111010 3
1(
#206
0(
#207
b111011 3
1(
#208
0(
#209
b111100 3
1(
#210
0(
#211
b111101 3
1(
#212
0(
#213
b111110 3
1(
#214
0(
#215
b111111 3
1(
#216
0(
#217
0J
b0 3
1(
#218
0(
#219
b1 3
1(
#220
0(
#221
b10 3
1(
#222
0(
#223
b11 3
1(
#224
0(
#225
b100 3
1(
#226
0(
#227
b101 3
1(
#228
0(
#229
b110 3
1(
#230
0(
#231
b111 3
1(
#232
0(
#233
b1000 3
1(
#234
0(
#235
b1001 3
1(
#236
0(
#237
b1010 3
1(
#238
0(
#239
b1011 3
1(
#240
0(
#241
b1100 3
1(
#242
0(
#243
b1101 3
1(
#244
0(
#245
b1110 3
1(
#246
0(
#247
b1111 3
1(
#248
0(
#249
b10000 3
1(
#250
0(
#251
b10001 3
1(
#252
0(
#253
b10010 3
1(
#254
0(
#255
b10011 3
1(
#256
0(
#257
b10100 3
1(
#258
0(
#259
b10101 3
1(
#260
0(
#261
b10110 3
1(
#262
0(
#263
b10111 3
1(
#264
0(
#265
b11000 3
1(
#266
0(
#267
b11001 3
1(
#268
0(
#269
b11010 3
1(
#270
0(
#271
b11011 3
1(
#272
0(
#273
b11100 3
1(
#274
0(
#275
b11101 3
1(
#276
0(
#277
b11110 3
1(
#278
0(
#279
b11111 3
1(
#280
0(
#281
0N
1M
b10 i
1J
b100000 3
1(
#282
0(
#283
b100001 3
1(
#284
0(
#285
b100010 3
1(
#286
0(
#287
b100011 3
1(
#288
0(
#289
b100100 3
1(
#290
0(
#291
b100101 3
1(
#292
0(
#293
b100110 3
1(
#294
0(
#295
b100111 3
1(
#296
0(
#297
b101000 3
1(
#298
0(
#299
b101001 3
1(
#300
0(
#301
b101010 3
1(
#302
0(
#303
b101011 3
1(
#304
0(
#305
b101100 3
1(
#306
0(
#307
b101101 3
1(
#308
0(
#309
b101110 3
1(
#310
0(
#311
b101111 3
1(
#312
0(
#313
b110000 3
1(
#314
0(
#315
b110001 3
1(
#316
0(
#317
b110010 3
1(
#318
0(
#319
b110011 3
1(
#320
0(
#321
b110100 3
1(
#322
0(
#323
b110101 3
1(
#324
0(
#325
b110110 3
1(
#326
0(
#327
b110111 3
1(
#328
0(
#329
b111000 3
1(
#330
0(
#331
b111001 3
1(
#332
0(
#333
b111010 3
1(
#334
0(
#335
b111011 3
1(
#336
0(
#337
b111100 3
1(
#338
0(
#339
b111101 3
1(
#340
0(
#341
b111110 3
1(
#342
0(
#343
b111111 3
1(
#344
0(
#345
0J
b0 3
1(
#346
0(
#347
b1 3
1(
#348
0(
#349
b10 3
1(
#350
0(
#351
b11 3
1(
#352
0(
#353
b100 3
1(
#354
0(
#355
b101 3
1(
#356
0(
#357
b110 3
1(
#358
0(
#359
b111 3
1(
#360
0(
#361
b1000 3
1(
#362
0(
#363
b1001 3
1(
#364
0(
#365
b1010 3
1(
#366
0(
#367
b1011 3
1(
#368
0(
#369
b1100 3
1(
#370
0(
#371
b1101 3
1(
#372
0(
#373
b1110 3
1(
#374
0(
#375
b1111 3
1(
#376
0(
#377
b10000 3
1(
#378
0(
#379
b10001 3
1(
#380
0(
#381
b10010 3
1(
#382
0(
#383
b10011 3
1(
#384
0(
#385
b10100 3
1(
#386
0(
#387
b10101 3
1(
#388
0(
#389
b10110 3
1(
#390
0(
#391
b10111 3
1(
#392
0(
#393
b11000 3
1(
#394
0(
#395
b11001 3
1(
#396
0(
#397
b11010 3
1(
#398
0(
#399
b11011 3
1(
#400
0(
#401
b11100 3
1(
#402
0(
#403
b11101 3
1(
#404
0(
#405
b11110 3
1(
#406
0(
#407
b11111 3
1(
#408
0(
#409
0M
1L
b11 i
1J
b100000 3
1(
#410
0(
#411
b100001 3
1(
#412
0(
#413
b100010 3
1(
#414
0(
#415
b100011 3
1(
#416
0(
#417
b100100 3
1(
#418
0(
#419
b100101 3
1(
#420
0(
#421
b100110 3
1(
#422
0(
#423
b100111 3
1(
#424
0(
#425
b101000 3
1(
#426
0(
#427
b101001 3
1(
#428
0(
#429
b101010 3
1(
#430
0(
#431
b101011 3
1(
#432
0(
#433
b101100 3
1(
#434
0(
#435
b101101 3
1(
#436
0(
#437
b101110 3
1(
#438
0(
#439
b101111 3
1(
#440
0(
#441
b110000 3
1(
#442
0(
#443
b110001 3
1(
#444
0(
#445
b110010 3
1(
#446
0(
#447
b110011 3
1(
#448
0(
#449
b110100 3
1(
#450
0(
#451
b110101 3
1(
#452
0(
#453
b110110 3
1(
#454
0(
#455
b110111 3
1(
#456
0(
#457
b111000 3
1(
#458
0(
#459
b111001 3
1(
#460
0(
#461
b111010 3
1(
#462
0(
#463
b111011 3
1(
#464
0(
#465
b111100 3
1(
#466
0(
#467
b111101 3
1(
#468
0(
#469
b111110 3
1(
#470
0(
#471
b111111 3
1(
#472
0(
#473
0J
b0 3
1(
#474
0(
#475
b1 3
1(
#476
0(
#477
b10 3
1(
#478
0(
#479
b11 3
1(
#480
0(
#481
b100 3
1(
#482
0(
#483
b101 3
1(
#484
0(
#485
b110 3
1(
#486
0(
#487
b111 3
1(
#488
0(
#489
b1000 3
1(
#490
0(
#491
b1001 3
1(
#492
0(
#493
b1010 3
1(
#494
0(
#495
b1011 3
1(
#496
0(
#497
b1100 3
1(
#498
0(
#499
b1101 3
1(
#500
0(
#501
b1110 3
1(
#502
0(
#503
b1111 3
1(
#504
0(
#505
b10000 3
1(
#506
0(
#507
b10001 3
1(
#508
0(
#509
b10010 3
1(
#510
0(
#511
b10011 3
1(
#512
0(
#513
b10100 3
1(
#514
0(
#515
b10101 3
1(
#516
0(
#517
b10110 3
1(
#518
0(
#519
b10111 3
1(
#520
0(
#521
b11000 3
1(
#522
0(
#523
b11001 3
1(
#524
0(
#525
b11010 3
1(
#526
0(
#527
b11011 3
1(
#528
0(
#529
b11100 3
1(
#530
0(
#531
b11101 3
1(
#532
0(
#533
b11110 3
1(
#534
0(
#535
b11111 3
1(
#536
0(
#537
b10 c
b1 d
1O
0L
b0 i
1J
b100000 3
1(
#538
0(
#539
b100001 3
1(
#540
0(
#541
b100010 3
1(
#542
0(
#543
b100011 3
1(
#544
0(
#545
b100100 3
1(
#546
0(
#547
b100101 3
1(
#548
0(
#549
b100110 3
1(
#550
0(
#551
b100111 3
1(
#552
0(
#553
b101000 3
1(
#554
0(
#555
b101001 3
1(
#556
0(
#557
b101010 3
1(
#558
0(
#559
b101011 3
1(
#560
0(
#561
b101100 3
1(
#562
0(
#563
b101101 3
1(
#564
0(
#565
b101110 3
1(
#566
0(
#567
b101111 3
1(
#568
0(
#569
b110000 3
1(
#570
0(
#571
b110001 3
1(
#572
0(
#573
b110010 3
1(
#574
0(
#575
b110011 3
1(
#576
0(
#577
b110100 3
1(
#578
0(
#579
b110101 3
1(
#580
0(
#581
b110110 3
1(
#582
0(
#583
b110111 3
1(
#584
0(
#585
b111000 3
1(
#586
0(
#587
b111001 3
1(
#588
0(
#589
b111010 3
1(
#590
0(
#591
b111011 3
1(
#592
0(
#593
b111100 3
1(
#594
0(
#595
b111101 3
1(
#596
0(
#597
b111110 3
1(
#598
0(
#599
b111111 3
1(
#600
0(
#601
0J
b0 3
1(
#602
0(
#603
b1 3
1(
#604
0(
#605
b10 3
1(
#606
0(
#607
b11 3
1(
#608
0(
#609
b100 3
1(
#610
0(
#611
b101 3
1(
#612
0(
#613
b110 3
1(
#614
0(
#615
b111 3
1(
#616
0(
#617
b1000 3
1(
#618
0(
#619
b1001 3
1(
#620
0(
#621
b1010 3
1(
#622
0(
#623
b1011 3
1(
#624
0(
#625
b1100 3
1(
#626
0(
#627
b1101 3
1(
#628
0(
#629
b1110 3
1(
#630
0(
#631
b1111 3
1(
#632
0(
#633
b10000 3
1(
#634
0(
#635
b10001 3
1(
#636
0(
#637
b10010 3
1(
#638
0(
#639
b10011 3
1(
#640
0(
#641
b10100 3
1(
#642
0(
#643
b10101 3
1(
#644
0(
#645
b10110 3
1(
#646
0(
#647
b10111 3
1(
#648
0(
#649
b11000 3
1(
#650
0(
#651
b11001 3
1(
#652
0(
#653
b11010 3
1(
#654
0(
#655
b11011 3
1(
#656
0(
#657
b11100 3
1(
#658
0(
#659
b11101 3
1(
#660
0(
#661
b11110 3
1(
#662
0(
#663
b11111 3
1(
#664
0(
#665
0!
0h
0O
1N
b1 i
1J
b100000 3
1(
#666
0(
#667
b100001 3
1(
#668
0(
#669
b100010 3
1(
#670
0(
#671
b100011 3
1(
#672
0(
#673
b100100 3
1(
#674
0(
#675
b100101 3
1(
#676
0(
#677
b100110 3
1(
#678
0(
#679
b100111 3
1(
#680
0(
#681
b101000 3
1(
#682
0(
#683
b101001 3
1(
#684
0(
#685
b101010 3
1(
#686
0(
#687
b101011 3
1(
#688
0(
#689
b101100 3
1(
#690
0(
#691
b101101 3
1(
#692
0(
#693
b101110 3
1(
#694
0(
#695
b101111 3
1(
#696
0(
#697
b110000 3
1(
#698
0(
#699
b110001 3
1(
#700
0(
#701
b110010 3
1(
#702
0(
#703
b110011 3
1(
#704
0(
#705
b110100 3
1(
#706
0(
#707
b110101 3
1(
#708
0(
#709
b110110 3
1(
#710
0(
#711
b110111 3
1(
#712
0(
#713
b111000 3
1(
#714
0(
#715
b111001 3
1(
#716
0(
#717
b111010 3
1(
#718
0(
#719
b111011 3
1(
#720
0(
#721
b111100 3
1(
#722
0(
#723
b111101 3
1(
#724
0(
#725
b111110 3
1(
#726
0(
#727
b111111 3
1(
#728
0(
#729
0J
b0 3
1(
#730
0(
#731
b1 3
1(
#732
0(
#733
b10 3
1(
#734
0(
#735
b11 3
1(
#736
0(
#737
b100 3
1(
#738
0(
#739
b101 3
1(
#740
0(
#741
b110 3
1(
#742
0(
#743
b111 3
1(
#744
0(
#745
b1000 3
1(
#746
0(
#747
b1001 3
1(
#748
0(
#749
b1010 3
1(
#750
0(
#751
b1011 3
1(
#752
0(
#753
b1100 3
1(
#754
0(
#755
b1101 3
1(
#756
0(
#757
b1110 3
1(
#758
0(
#759
b1111 3
1(
#760
0(
#761
b10000 3
1(
#762
0(
#763
b10001 3
1(
#764
0(
#765
b10010 3
1(
#766
0(
#767
b10011 3
1(
#768
0(
#769
b10100 3
1(
#770
0(
#771
b10101 3
1(
#772
0(
#773
b10110 3
1(
#774
0(
#775
b10111 3
1(
#776
0(
#777
b11000 3
1(
#778
0(
#779
b11001 3
1(
#780
0(
#781
b11010 3
1(
#782
0(
#783
b11011 3
1(
#784
0(
#785
b11100 3
1(
#786
0(
#787
b11101 3
1(
#788
0(
#789
b11110 3
1(
#790
0(
#791
b11111 3
1(
#792
0(
#793
0h
0N
1M
b10 i
1J
b100000 3
1(
#794
0(
#795
b100001 3
1(
#796
0(
#797
b100010 3
1(
#798
0(
#799
b100011 3
1(
#800
0(
#801
b100100 3
1(
#802
0(
#803
b100101 3
1(
#804
0(
#805
b100110 3
1(
#806
0(
#807
b100111 3
1(
#808
0(
#809
b101000 3
1(
#810
0(
#811
b101001 3
1(
#812
0(
#813
b101010 3
1(
#814
0(
#815
b101011 3
1(
#816
0(
#817
b101100 3
1(
#818
0(
#819
b101101 3
1(
#820
0(
#821
b101110 3
1(
#822
0(
#823
b101111 3
1(
#824
0(
#825
b110000 3
1(
#826
0(
#827
b110001 3
1(
#828
0(
#829
b110010 3
1(
#830
0(
#831
b110011 3
1(
#832
0(
#833
b110100 3
1(
#834
0(
#835
b110101 3
1(
#836
0(
#837
b110110 3
1(
#838
0(
#839
b110111 3
1(
#840
0(
#841
b111000 3
1(
#842
0(
#843
b111001 3
1(
#844
0(
#845
b111010 3
1(
#846
0(
#847
b111011 3
1(
#848
0(
#849
b111100 3
1(
#850
0(
#851
b111101 3
1(
#852
0(
#853
b111110 3
1(
#854
0(
#855
b111111 3
1(
#856
0(
#857
0J
b0 3
1(
#858
0(
#859
b1 3
1(
#860
0(
#861
b10 3
1(
#862
0(
#863
b11 3
1(
#864
0(
#865
b100 3
1(
#866
0(
#867
b101 3
1(
#868
0(
#869
b110 3
1(
#870
0(
#871
b111 3
1(
#872
0(
#873
b1000 3
1(
#874
0(
#875
b1001 3
1(
#876
0(
#877
b1010 3
1(
#878
0(
#879
b1011 3
1(
#880
0(
#881
b1100 3
1(
#882
0(
#883
b1101 3
1(
#884
0(
#885
b1110 3
1(
#886
0(
#887
b1111 3
1(
#888
0(
#889
b10000 3
1(
#890
0(
#891
b10001 3
1(
#892
0(
#893
b10010 3
1(
#894
0(
#895
b10011 3
1(
#896
0(
#897
b10100 3
1(
#898
0(
#899
b10101 3
1(
#900
0(
#901
b10110 3
1(
#902
0(
#903
b10111 3
1(
#904
0(
#905
b11000 3
1(
#906
0(
#907
b11001 3
1(
#908
0(
#909
b11010 3
1(
#910
0(
#911
b11011 3
1(
#912
0(
#913
b11100 3
1(
#914
0(
#915
b11101 3
1(
#916
0(
#917
b11110 3
1(
#918
0(
#919
b11111 3
1(
#920
0(
#921
0"
0g
0h
0M
1L
b11 i
1J
b100000 3
1(
#922
0(
#923
b100001 3
1(
#924
0(
#925
b100010 3
1(
#926
0(
#927
b100011 3
1(
#928
0(
#929
b100100 3
1(
#930
0(
#931
b100101 3
1(
#932
0(
#933
b100110 3
1(
#934
0(
#935
b100111 3
1(
#936
0(
#937
b101000 3
1(
#938
0(
#939
b101001 3
1(
#940
0(
#941
b101010 3
1(
#942
0(
#943
b101011 3
1(
#944
0(
#945
b101100 3
1(
#946
0(
#947
b101101 3
1(
#948
0(
#949
b101110 3
1(
#950
0(
#951
b101111 3
1(
#952
0(
#953
b110000 3
1(
#954
0(
#955
b110001 3
1(
#956
0(
#957
b110010 3
1(
#958
0(
#959
b110011 3
1(
#960
0(
#961
b110100 3
1(
#962
0(
#963
b110101 3
1(
#964
0(
#965
b110110 3
1(
#966
0(
#967
b110111 3
1(
#968
0(
#969
b111000 3
1(
#970
0(
#971
b111001 3
1(
#972
0(
#973
b111010 3
1(
#974
0(
#975
b111011 3
1(
#976
0(
#977
b111100 3
1(
#978
0(
#979
b111101 3
1(
#980
0(
#981
b111110 3
1(
#982
0(
#983
b111111 3
1(
#984
0(
#985
0J
b0 3
1(
#986
0(
#987
b1 3
1(
#988
0(
#989
b10 3
1(
#990
0(
#991
b11 3
1(
#992
0(
#993
b100 3
1(
#994
0(
#995
b101 3
1(
#996
0(
#997
b110 3
1(
#998
0(
#999
b111 3
1(
#1000
0(
#1001
b1000 3
1(
#1002
0(
#1003
b1001 3
1(
#1004
0(
#1005
b1010 3
1(
#1006
0(
#1007
b1011 3
1(
#1008
0(
#1009
b1100 3
1(
#1010
0(
#1011
b1101 3
1(
#1012
0(
#1013
b1110 3
1(
#1014
0(
#1015
b1111 3
1(
#1016
0(
#1017
b10000 3
1(
#1018
0(
#1019
b10001 3
1(
#1020
0(
#1021
b10010 3
1(
#1022
0(
#1023
b10011 3
1(
#1024
0(
#1025
b10100 3
1(
#1026
0(
#1027
b10101 3
1(
#1028
0(
#1029
b10110 3
1(
#1030
0(
#1031
b10111 3
1(
#1032
0(
#1033
b11000 3
1(
#1034
0(
#1035
b11001 3
1(
#1036
0(
#1037
b11010 3
1(
#1038
0(
#1039
b11011 3
1(
#1040
0(
#1041
b11100 3
1(
#1042
0(
#1043
b11101 3
1(
#1044
0(
#1045
b11110 3
1(
#1046
0(
#1047
b11111 3
1(
#1048
0(
#1049
b10 d
x!
xh
0"
0g
1O
0L
b0 i
1J
b100000 3
1(
#1050
0(
#1051
b100001 3
1(
#1052
0(
#1053
b100010 3
1(
#1054
0(
#1055
b100011 3
1(
#1056
0(
#1057
b100100 3
1(
#1058
0(
#1059
b100101 3
1(
#1060
0(
#1061
b100110 3
1(
#1062
0(
#1063
b100111 3
1(
#1064
0(
#1065
b101000 3
1(
#1066
0(
#1067
b101001 3
1(
#1068
0(
#1069
b101010 3
1(
#1070
0(
#1071
b101011 3
1(
#1072
0(
#1073
b101100 3
1(
#1074
0(
#1075
b101101 3
1(
#1076
0(
#1077
b101110 3
1(
#1078
0(
#1079
b101111 3
1(
#1080
0(
#1081
b110000 3
1(
#1082
0(
#1083
b110001 3
1(
#1084
0(
#1085
b110010 3
1(
#1086
0(
#1087
b110011 3
1(
#1088
0(
#1089
b110100 3
1(
#1090
0(
#1091
b110101 3
1(
#1092
0(
#1093
b110110 3
1(
#1094
0(
#1095
b110111 3
1(
#1096
0(
#1097
b111000 3
1(
#1098
0(
#1099
b111001 3
1(
#1100
0(
#1101
b111010 3
1(
#1102
0(
#1103
b111011 3
1(
#1104
0(
#1105
b111100 3
1(
#1106
0(
#1107
b111101 3
1(
#1108
0(
#1109
b111110 3
1(
#1110
0(
#1111
b111111 3
1(
#1112
0(
#1113
0J
b0 3
1(
#1114
0(
#1115
b1 3
1(
#1116
0(
#1117
b10 3
1(
#1118
0(
#1119
b11 3
1(
#1120
0(
#1121
b100 3
1(
#1122
0(
#1123
b101 3
1(
#1124
0(
#1125
b110 3
1(
#1126
0(
#1127
b111 3
1(
#1128
0(
#1129
b1000 3
1(
#1130
0(
#1131
b1001 3
1(
#1132
0(
#1133
b1010 3
1(
#1134
0(
#1135
b1011 3
1(
#1136
0(
#1137
b1100 3
1(
#1138
0(
#1139
b1101 3
1(
#1140
0(
#1141
b1110 3
1(
#1142
0(
#1143
b1111 3
1(
#1144
0(
#1145
b10000 3
1(
#1146
0(
#1147
b10001 3
1(
#1148
0(
#1149
b10010 3
1(
#1150
0(
#1151
b10011 3
1(
#1152
0(
#1153
b10100 3
1(
#1154
0(
#1155
b10101 3
1(
#1156
0(
#1157
b10110 3
1(
#1158
0(
#1159
b10111 3
1(
#1160
0(
#1161
b11000 3
1(
#1162
0(
#1163
b11001 3
1(
#1164
0(
#1165
b11010 3
1(
#1166
0(
#1167
b11011 3
1(
#1168
0(
#1169
b11100 3
1(
#1170
0(
#1171
b11101 3
1(
#1172
0(
#1173
b11110 3
1(
#1174
0(
#1175
b11111 3
1(
#1176
0(
#1177
0!
0h
0"
0g
0k
0O
1N
b1 i
1J
b100000 3
1(
#1178
0(
#1179
b100001 3
1(
#1180
0(
#1181
b100010 3
1(
#1182
0(
#1183
b100011 3
1(
#1184
0(
#1185
b100100 3
1(
#1186
0(
#1187
b100101 3
1(
#1188
0(
#1189
b100110 3
1(
#1190
0(
#1191
b100111 3
1(
#1192
0(
#1193
b101000 3
1(
#1194
0(
#1195
b101001 3
1(
#1196
0(
#1197
b101010 3
1(
#1198
0(
#1199
b101011 3
1(
#1200
0(
#1201
b101100 3
1(
#1202
0(
#1203
b101101 3
1(
#1204
0(
#1205
b101110 3
1(
#1206
0(
#1207
b101111 3
1(
#1208
0(
#1209
b110000 3
1(
#1210
0(
#1211
b110001 3
1(
#1212
0(
#1213
b110010 3
1(
#1214
0(
#1215
b110011 3
1(
#1216
0(
#1217
b110100 3
1(
#1218
0(
#1219
b110101 3
1(
#1220
0(
#1221
b110110 3
1(
#1222
0(
#1223
b110111 3
1(
#1224
0(
#1225
b111000 3
1(
#1226
0(
#1227
b111001 3
1(
#1228
0(
#1229
b111010 3
1(
#1230
0(
#1231
b111011 3
1(
#1232
0(
#1233
b111100 3
1(
#1234
0(
#1235
b111101 3
1(
#1236
0(
#1237
b111110 3
1(
#1238
0(
#1239
b111111 3
1(
#1240
0(
#1241
0J
b0 3
1(
#1242
0(
#1243
b1 3
1(
#1244
0(
#1245
b10 3
1(
#1246
0(
#1247
b11 3
1(
#1248
0(
#1249
b100 3
1(
#1250
0(
#1251
b101 3
1(
#1252
0(
#1253
b110 3
1(
#1254
0(
#1255
b111 3
1(
#1256
0(
#1257
b1000 3
1(
#1258
0(
#1259
b1001 3
1(
#1260
0(
#1261
b1010 3
1(
#1262
0(
#1263
b1011 3
1(
#1264
0(
#1265
b1100 3
1(
#1266
0(
#1267
b1101 3
1(
#1268
0(
#1269
b1110 3
1(
#1270
0(
#1271
b1111 3
1(
#1272
0(
#1273
b10000 3
1(
#1274
0(
#1275
b10001 3
1(
#1276
0(
#1277
b10010 3
1(
#1278
0(
#1279
b10011 3
1(
#1280
0(
#1281
b10100 3
1(
#1282
0(
#1283
b10101 3
1(
#1284
0(
#1285
b10110 3
1(
#1286
0(
#1287
b10111 3
1(
#1288
0(
#1289
b11000 3
1(
#1290
0(
#1291
b11001 3
1(
#1292
0(
#1293
b11010 3
1(
#1294
0(
#1295
b11011 3
1(
#1296
0(
#1297
b11100 3
1(
#1298
0(
#1299
b11101 3
1(
#1300
0(
#1301
b11110 3
1(
#1302
0(
#1303
b11111 3
1(
#1304
0(
#1305
0h
1"
1g
0N
1M
b10 i
1J
b100000 3
1(
#1306
0(
#1307
b100001 3
1(
#1308
0(
#1309
b100010 3
1(
#1310
0(
#1311
b100011 3
1(
#1312
0(
#1313
b100100 3
1(
#1314
0(
#1315
b100101 3
1(
#1316
0(
#1317
b100110 3
1(
#1318
0(
#1319
b100111 3
1(
#1320
0(
#1321
b101000 3
1(
#1322
0(
#1323
b101001 3
1(
#1324
0(
#1325
b101010 3
1(
#1326
0(
#1327
b101011 3
1(
#1328
0(
#1329
b101100 3
1(
#1330
0(
#1331
b101101 3
1(
#1332
0(
#1333
b101110 3
1(
#1334
0(
#1335
b101111 3
1(
#1336
0(
#1337
b110000 3
1(
#1338
0(
#1339
b110001 3
1(
#1340
0(
#1341
b110010 3
1(
#1342
0(
#1343
b110011 3
1(
#1344
0(
#1345
b110100 3
1(
#1346
0(
#1347
b110101 3
1(
#1348
0(
#1349
b110110 3
1(
#1350
0(
#1351
b110111 3
1(
#1352
0(
#1353
b111000 3
1(
#1354
0(
#1355
b111001 3
1(
#1356
0(
#1357
b111010 3
1(
#1358
0(
#1359
b111011 3
1(
#1360
0(
#1361
b111100 3
1(
#1362
0(
#1363
b111101 3
1(
#1364
0(
#1365
b111110 3
1(
#1366
0(
#1367
b111111 3
1(
#1368
0(
#1369
0J
b0 3
1(
#1370
0(
#1371
b1 3
1(
#1372
0(
#1373
b10 3
1(
#1374
0(
#1375
b11 3
1(
#1376
0(
