fpga/pwm_ctrl/pwm_ctrl.vcd
$date
	Wed Nov 27 12:07:58 2024
$end
$version
	Icarus Verilog
$end
$timescale
	1s
$end
$scope module test $end
$var wire 1 ! sda $end
$var wire 1 " sck $end
$var wire 1 # pwm_update $end
$var wire 8 $ pwm_ratio [7:0] $end
$var wire 1 % pwm_enable $end
$var wire 1 & angle_done $end
$var reg 1 ' angle_update $end
$var reg 1 ( clock $end
$var reg 8 ) current_angle [7:0] $end
$var reg 1 * done $end
$var reg 1 + pwm_done $end
$var reg 1 , reset_n $end
$var reg 8 - target_angle [7:0] $end
$var reg 8 . timeout [7:0] $end
$scope module dut $end
$var wire 1 ' angle_update $end
$var wire 1 ( clock $end
$var wire 1 + pwm_done $end
$var wire 1 , reset_n $end
$var wire 12 / target_angle [11:0] $end
$var wire 1 ! sda $end
$var wire 1 " sck $end
$var wire 1 0 rd_done $end
$var wire 1 # pwm_update $end
$var wire 8 1 pwm_ratio [7:0] $end
$var wire 1 % pwm_enable $end
$var wire 12 2 curr_ang [11:0] $end
$var wire 1 & angle_done $end
$var reg 6 3 clk_counter [5:0] $end
$var reg 12 4 current_angle [11:0] $end
$var reg 1 5 rd_done_ff $end
$var reg 1 6 rd_done_ff2 $end
$scope module a_to_pwm $end
$var wire 1 ' angle_update $end
$var wire 1 ( clock $end
$var wire 12 7 current_angle [11:0] $end
$var wire 1 + pwm_done $end
$var wire 1 , reset_n $end
$var wire 12 8 target_angle [11:0] $end
$var wire 1 9 pwm_direction $end
$var parameter 2 : ACCEL $end
$var parameter 8 ; BIG_DELTA $end
$var parameter 2 < CRUISE $end
$var parameter 2 = DECCEL $end
$var parameter 2 > IDLE $end
$var parameter 8 ? MED_DELTA $end
$var parameter 12 @ PROFILE_DELAY_TARGET $end
$var parameter 8 A SMALL_DELTA $end
$var parameter 13 B TARGET_TOLERANCE $end
$var reg 1 & angle_done $end
$var reg 8 C curr_step [7:0] $end
$var reg 13 D delta_angle [12:0] $end
$var reg 2 E ns [1:0] $end
$var reg 8 F num_steps [7:0] $end
$var reg 12 G profile_delay [11:0] $end
$var reg 2 H ps [1:0] $end
$var reg 1 % pwm_enable $end
$var reg 8 I pwm_ratio [7:0] $end
$var reg 1 # pwm_update $end
$upscope $end
$scope module i2c $end
$var wire 1 & angle_done $end
$var wire 1 J clock $end
$var wire 1 , reset_n $end
$var wire 1 " scl $end
$var wire 1 ! sda $end
$var wire 12 K raw_angle [11:0] $end
$var wire 1 L PHASE4 $end
$var wire 1 M PHASE3 $end
$var wire 1 N PHASE2 $end
$var wire 1 O PHASE1 $end
$var parameter 4 P ACK0 $end
$var parameter 4 Q ACK1 $end
$var parameter 4 R ACK2 $end
$var parameter 4 S ACK3 $end
$var parameter 6 T CLOCK_DIV_RATIO $end
$var parameter 4 U DATA0 $end
$var parameter 4 V DATA1 $end
$var parameter 4 W DEV_RD $end
$var parameter 4 X DEV_WR $end
$var parameter 7 Y ENCODER_ADDRESS $end
$var parameter 4 Z IDLE $end
$var parameter 4 [ NACK $end
$var parameter 4 \ PAUSE $end
$var parameter 4 ] READ_ADDR $end
$var parameter 8 ^ READ_DEVICE $end
$var parameter 8 _ READ_RAW_ANGLE $end
$var parameter 4 ` REP_START $end
$var parameter 4 a START $end
$var parameter 4 b STOP $end
$var parameter 8 c WRITE_DEVICE $end
$var reg 3 d bit_counter [2:0] $end
$var reg 4 e ns [3:0] $end
$var reg 4 f ps [3:0] $end
$var reg 1 0 rd_done $end
$var reg 8 g read_data0 [7:0] $end
$var reg 8 h read_data1 [7:0] $end
$var reg 1 i scl_int $end
$var reg 1 j sda_int $end
$var reg 2 k substate [1:0] $end
$var reg 1 l tri_mode $end
$var reg 1 m wr_bit $end
$upscope $end
$upscope $end
$upscope $end
$enddefinitions $end
$comment Show the parameter values. $end
$dumpall
b1101100 c
b1101 b
b1 a
b110 `
b1100 _
b1101101 ^
b100 ]
b1110 \
b1100 [
b0 Z
b110110 Y
b10 X
b111 W
b1011 V
b1001 U
b110010 T
b1010 S
b1000 R
b101 Q
b11 P
b10 B
b110010 A
b11 @
b1111000 ?
b0 >
b11 =
b10 <
b11111111 ;
b1 :
$end
#0
$dumpvars
0m
0l
b0 k
1j
1i
b0 h
b0 g
b0 f
b1 e
b0 d
1O
0N
0M
0L
b0 K
0J
b10000000 I
b0 H
b0 G
b1111000 F
b0 E
b0 D
b0 C
09
b0 8
b0 7
06
05
b0 4
b0 3
b0 2
b10000000 1
00
b0 /
b110010 .
b0 -
0,
0+
x*
b0 )
0(
0'
0&
1%
b10000000 $
0#
1"
1!
$end
#1
0*
1(
#2
0(
#3
1(
#4
0(
#5
1(
#6
0(
#7
1(
#8
0(
#9
1(
#10
b10111 /
b10111 8
0(
b1010 )
b10111 -
1,
#11
b110010 F
1#
b10111 D
b1 3
1(
#12
0(
#13
b10 3
b1111000 F
1(
#14
0(
#15
b11 3
1(
#16
0(
#17
b100 3
1(
#18
0(
#19
b101 3
1(
#20
b1 E
0(
1'
#21
b110 3
b1 H
1(
#22
0(
#23
b10000110 $
b10000110 1
b10000110 I
b111 3
1(
#24
0(
#25
b1000 3
1(
#26
0(
#27
b1001 3
1(
#28
0(
#29
b1010 3
1(
#30
0(
#31
b1011 3
1(
#32
0(
#33
b1100 3
1(
#34
0(
#35
b1101 3
1(
#36
0(
#37
b1110 3
1(
#38
0(
#39
b1111 3
1(
#40
0(
#41
b10000 3
1(
#42
0(
#43
b10001 3
1(
#44
0(
#45
b10010 3
1(
#46
0(
#47
b10011 3
1(
#48
0(
#49
b10100 3
1(
#50
0(
#51
b10101 3
1(
#52
0(
#53
b10110 3
1(
#54
0(
#55
b10111 3
1(
#56
0(
#57
b11000 3
1(
#58
0(
#59
b11001 3
1(
#60
0(
#61
b11010 3
1(
#62
0(
#63
b11011 3
1(
#64
0(
#65
b11100 3
1(
#66
0(
#67
b11101 3
1(
#68
0(
#69
b11110 3
1(
#70
0(
#71
b11111 3
1(
#72
0(
#73
xm
0O
1N
b1 k
1J
b100000 3
1(
#74
0(
#75
b100001 3
1(
#76
0(
#77
b100010 3
1(
#78
0(
#79
b100011 3
1(
#80
0(
#81
b100100 3
1(
#82
0(
#83
b100101 3
1(
#84
0(
#85
b100110 3
1(
#86
0(
#87
b100111 3
1(
#88
0(
#89
b101000 3
1(
#90
0(
#91
b101001 3
1(
#92
0(
#93
b101010 3
1(
#94
0(
#95
b101011 3
1(
#96
0(
#97
b101100 3
1(
#98
0(
#99
b101101 3
1(
#100
0(
#101
b101110 3
1(
#102
0(
#103
b101111 3
1(
#104
0(
#105
b110000 3
1(
#106
0(
#107
b110001 3
1(
#108
0(
#109
b110010 3
1(
#110
0(
#111
b110011 3
1(
#112
0(
#113
b110100 3
1(
#114
0(
#115
b110101 3
1(
#116
0(
#117
b110110 3
1(
#118
0(
#119
b110111 3
1(
#120
0(
#121
b111000 3
1(
#122
0(
#123
b111001 3
1(
#124
0(
#125
b111010 3
1(
#126
0(
#127
b111011 3
1(
#128
0(
#129
b111100 3
1(
#130
0(
#131
b111101 3
1(
#132
0(
#133
b111110 3
1(
#134
0(
#135
b111111 3
1(
#136
0(
#137
0J
b0 3
1(
#138
0(
#139
b1 3
1(
#140
0(
#141
b10 3
1(
#142
0(
#143
b11 3
1(
#144
0(
#145
b100 3
1(
#146
0(
#147
b101 3
1(
#148
0(
#149
b110 3
1(
#150
0(
#151
b111 3
1(
#152
0(
#153
b1000 3
1(
#154
0(
#155
b1001 3
1(
#156
0(
#157
b1010 3
1(
#158
0(
#159
b1011 3
1(
#160
0(
#161
b1100 3
1(
#162
0(
#163
b1101 3
1(
#164
0(
#165
b1110 3
1(
#166
0(
#167
b1111 3
1(
#168
0(
#169
b10000 3
1(
#170
0(
#171
b10001 3
1(
#172
0(
#173
b10010 3
1(
#174
0(
#175
b10011 3
1(
#176
0(
#177
b10100 3
1(
#178
0(
#179
b10101 3
1(
#180
0(
#181
b10110 3
1(
#182
0(
#183
b10111 3
1(
#184
0(
#185
b11000 3
1(
#186
0(
#187
b11001 3
1(
#188
0(
#189
b11010 3
1(
#190
0(
#191
b11011 3
1(
#192
0(
#193
b11100 3
1(
#194
0(
#195
b11101 3
1(
#196
0(
#197
b11110 3
1(
#198
0(
#199
b11111 3
1(
#200
0(
#201
0N
1M
b10 k
1J
b100000 3
1(
#202
0(
#203
b100001 3
1(
#204
0(
#205
b100010 3
1(
#206
0(
#207
b100011 3
1(
#208
0(
#209
b100100 3
1(
#210
0(
#211
b100101 3
1(
#212
0(
#213
b100110 3
1(
#214
0(
#215
b100111 3
1(
#216
0(
#217
b101000 3
1(
#218
0(
#219
b101001 3
1(
#220
0(
#221
b101010 3
1(
#222
0(
#223
b101011 3
1(
#224
0(
#225
b101100 3
1(
#226
0(
#227
b101101 3
1(
#228
0(
#229
b101110 3
1(
#230
0(
#231
b101111 3
1(
#232
0(
#233
b110000 3
1(
#234
0(
#235
b110001 3
1(
#236
0(
#237
b110010 3
1(
#238
0(
#239
b110011 3
1(
#240
0(
#241
b110100 3
1(
#242
0(
#243
b110101 3
1(
#244
0(
#245
b110110 3
1(
#246
0(
#247
b110111 3
1(
#248
0(
#249
b111000 3
1(
#250
0(
#251
b111001 3
1(
#252
0(
#253
b111010 3
1(
#254
0(
#255
b111011 3
1(
#256
0(
#257
b111100 3
1(
#258
0(
#259
b111101 3
1(
#260
0(
#261
b111110 3
1(
#262
0(
#263
b111111 3
1(
#264
0(
#265
0J
b0 3
1(
#266
0(
#267
b1 3
1(
#268
0(
#269
b10 3
1(
#270
0(
#271
b11 3
1(
#272
0(
#273
b100 3
1(
#274
0(
#275
b101 3
1(
#276
0(
#277
b110 3
1(
#278
0(
#279
b111 3
1(
#280
0(
#281
b1000 3
1(
#282
0(
#283
b1001 3
1(
#284
0(
#285
b1010 3
1(
#286
0(
#287
b1011 3
1(
#288
0(
#289
b1100 3
1(
#290
0(
#291
b1101 3
1(
#292
0(
#293
b1110 3
1(
#294
0(
#295
b1111 3
1(
#296
0(
#297
b10000 3
1(
#298
0(
#299
b10001 3
1(
#300
0(
#301
b10010 3
1(
#302
0(
#303
b10011 3
1(
#304
0(
#305
b10100 3
1(
#306
0(
#307
b10101 3
1(
#308
0(
#309
b10110 3
1(
#310
0(
#311
b10111 3
1(
#312
0(
#313
b11000 3
1(
#314
0(
#315
b11001 3
1(
#316
0(
#317
b11010 3
1(
#318
0(
#319
b11011 3
1(
#320
0(
#321
b11100 3
1(
#322
0(
#323
b11101 3
1(
#324
0(
#325
b11110 3
1(
#326
0(
#327
b11111 3
1(
#328
0(
#329
0M
1L
b11 k
1J
b100000 3
1(
#330
0(
#331
b100001 3
1(
#332
0(
#333
b100010 3
1(
#334
0(
#335
b100011 3
1(
#336
0(
#337
b100100 3
1(
#338
0(
#339
b100101 3
1(
#340
0(
#341
b100110 3
1(
#342
0(
#343
b100111 3
1(
#344
0(
#345
b101000 3
1(
#346
0(
#347
b101001 3
1(
#348
0(
#349
b101010 3
1(
#350
0(
#351
b101011 3
1(
#352
0(
#353
b101100 3
1(
#354
0(
#355
b101101 3
1(
#356
0(
#357
b101110 3
1(
#358
0(
#359
b101111 3
1(
#360
0(
#361
b110000 3
1(
#362
0(
#363
b110001 3
1(
#364
0(
#365
b110010 3
1(
#366
0(
#367
b110011 3
1(
#368
0(
#369
b110100 3
1(
#370
0(
#371
b110101 3
1(
#372
0(
#373
b110110 3
1(
#374
0(
#375
b110111 3
1(
#376
0(
#377
b111000 3
1(
#378
0(
#379
b111001 3
1(
#380
0(
#381
b111010 3
1(
#382
0(
#383
b111011 3
1(
#384
0(
#385
b111100 3
1(
#386
0(
#387
b111101 3
1(
#388
0(
#389
b111110 3
1(
#390
0(
#391
b111111 3
1(
#392
0(
#393
0J
b0 3
1(
#394
0(
#395
b1 3
1(
#396
0(
#397
b10 3
1(
#398
0(
#399
b11 3
1(
#400
0(
#401
b100 3
1(
#402
0(
#403
b101 3
1(
#404
0(
#405
b110 3
1(
#406
0(
#407
b111 3
1(
#408
0(
#409
b1000 3
1(
#410
0(
#411
b1001 3
1(
#412
0(
#413
b1010 3
1(
#414
0(
#415
b1011 3
1(
#416
0(
#417
b1100 3
1(
#418
0(
#419
b1101 3
1(
#420
0(
#421
b1110 3
1(
#422
0(
#423
b1111 3
1(
#424
0(
#425
b10000 3
1(
#426
0(
#427
b10001 3
1(
#428
0(
#429
b10010 3
1(
#430
0(
#431
b10011 3
1(
#432
0(
#433
b10100 3
1(
#434
0(
#435
b10101 3
1(
#436
0(
#437
b10110 3
1(
#438
0(
#439
b10111 3
1(
#440
0(
#441
b11000 3
1(
#442
0(
#443
b11001 3
1(
#444
0(
#445
b11010 3
1(
#446
0(
#447
b11011 3
1(
#448
0(
#449
b11100 3
1(
#450
0(
#451
b11101 3
1(
#452
0(
#453
b11110 3
1(
#454
0(
#455
b11111 3
1(
#456
0(
#457
b10 e
b1 f
1O
0L
b0 k
1J
b100000 3
1(
#458
0(
#459
b100001 3
1(
#460
0(
#461
b100010 3
1(
#462
0(
#463
b100011 3
1(
#464
0(
#465
b100100 3
1(
#466
0(
#467
b100101 3
1(
#468
0(
#469
b100110 3
1(
#470
0(
#471
b100111 3
1(
#472
0(
#473
b101000 3
1(
#474
0(
#475
b101001 3
1(
#476
0(
#477
b101010 3
1(
#478
0(
#479
b101011 3
1(
#480
0(
#481
b101100 3
1(
#482
0(
#483
b101101 3
1(
#484
0(
#485
b101110 3
1(
#486
0(
#487
b101111 3
1(
#488
0(
#489
b110000 3
1(
#490
0(
#491
b110001 3
1(
#492
0(
#493
b110010 3
1(
#494
0(
#495
b110011 3
1(
#496
0(
#497
b110100 3
1(
#498
0(
#499
b110101 3
1(
#500
0(
#501
b110110 3
1(
#502
0(
#503
b110111 3
1(
#504
0(
#505
b111000 3
1(
#506
0(
#507
b111001 3
1(
#508
0(
#509
b111010 3
1(
#510
0(
#511
b111011 3
1(
#512
0(
#513
b111100 3
1(
#514
0(
#515
b111101 3
1(
#516
0(
#517
b111110 3
1(
#518
0(
#519
b111111 3
1(
#520
0(
#521
0J
b0 3
1(
#522
0(
#523
b1 3
1(
#524
0(
#525
b10 3
1(
#526
0(
#527
b11 3
1(
#528
0(
#529
b100 3
1(
#530
0(
#531
b101 3
1(
#532
0(
#533
b110 3
1(
#534
0(
#535
b111 3
1(
#536
0(
#537
b1000 3
1(
#538
0(
#539
b1001 3
1(
#540
0(
#541
b1010 3
1(
#542
0(
#543
b1011 3
1(
#544
0(
#545
b1100 3
1(
#546
0(
#547
b1101 3
1(
#548
0(
#549
b1110 3
1(
#550
0(
#551
b1111 3
1(
#552
0(
#553
b10000 3
1(
#554
0(
#555
b10001 3
1(
#556
0(
#557
b10010 3
1(
#558
0(
#559
b10011 3
1(
#560
0(
#561
b10100 3
1(
#562
0(
#563
b10101 3
1(
#564
0(
#565
b10110 3
1(
#566
0(
#567
b10111 3
1(
#568
0(
#569
b11000 3
1(
#570
0(
#571
b11001 3
1(
#572
0(
#573
b11010 3
1(
#574
0(
#575
b11011 3
1(
#576
0(
#577
b11100 3
1(
#578
0(
#579
b11101 3
1(
#580
0(
#581
b11110 3
1(
#582
0(
#583
b11111 3
1(
#584
0(
#585
0!
0j
0O
1N
b1 k
1J
b100000 3
1(
#586
0(
#587
b100001 3
1(
#588
0(
#589
b100010 3
1(
#590
0(
#591
b100011 3
1(
#592
0(
#593
b100100 3
1(
#594
0(
#595
b100101 3
1(
#596
0(
#597
b100110 3
1(
#598
0(
#599
b100111 3
1(
#600
0(
#601
b101000 3
1(
#602
0(
#603
b101001 3
1(
#604
0(
#605
b101010 3
1(
#606
0(
#607
b101011 3
1(
#608
0(
#609
b101100 3
1(
#610
0(
#611
b101101 3
1(
#612
0(
#613
b101110 3
1(
#614
0(
#615
b101111 3
1(
#616
0(
#617
b110000 3
1(
#618
0(
#619
b110001 3
1(
#620
0(
#621
b110010 3
1(
#622
0(
#623
b110011 3
1(
#624
0(
#625
b110100 3
1(
#626
0(
#627
b110101 3
1(
#628
0(
#629
b110110 3
1(
#630
0(
#631
b110111 3
1(
#632
0(
#633
b111000 3
1(
#634
0(
#635
b111001 3
1(
#636
0(
#637
b111010 3
1(
#638
0(
#639
b111011 3
1(
#640
0(
#641
b111100 3
1(
#642
0(
#643
b111101 3
1(
#644
0(
#645
b111110 3
1(
#646
0(
#647
b111111 3
1(
#648
0(
#649
0J
b0 3
1(
#650
0(
#651
b1 3
1(
#652
0(
#653
b10 3
1(
#654
0(
#655
b11 3
1(
#656
0(
#657
b100 3
1(
#658
0(
#659
b101 3
1(
#660
0(
#661
b110 3
1(
#662
0(
#663
b111 3
1(
#664
0(
#665
b1000 3
1(
#666
0(
#667
b1001 3
1(
#668
0(
#669
b1010 3
1(
#670
0(
#671
b1011 3
1(
#672
0(
#673
b1100 3
1(
#674
0(
#675
b1101 3
1(
#676
0(
#677
b1110 3
1(
#678
0(
#679
b1111 3
1(
#680
0(
#681
b10000 3
1(
#682
0(
#683
b10001 3
1(
#684
0(
#685
b10010 3
1(
#686
0(
#687
b10011 3
1(
#688
0(
#689
b10100 3
1(
#690
0(
#691
b10101 3
1(
#692
0(
#693
b10110 3
1(
#694
0(
#695
b10111 3
1(
#696
0(
#697
b11000 3
1(
#698
0(
#699
b11001 3
1(
#700
0(
#701
b11010 3
1(
#702
0(
#703
b11011 3
1(
#704
0(
#705
b11100 3
1(
#706
0(
#707
b11101 3
1(
#708
0(
#709
b11110 3
1(
#710
0(
#711
b11111 3
1(
#712
0(
#713
0j
0N
1M
b10 k
1J
b100000 3
1(
#714
0(
#715
b100001 3
1(
#716
0(
#717
b100010 3
1(
#718
0(
#719
b100011 3
1(
#720
0(
#721
b100100 3
1(
#722
0(
#723
b100101 3
1(
#724
0(
#725
b100110 3
1(
#726
0(
#727
b100111 3
1(
#728
0(
#729
b101000 3
1(
#730
0(
#731
b101001 3
1(
#732
0(
#733
b101010 3
1(
#734
0(
#735
b101011 3
1(
#736
0(
#737
b101100 3
1(
#738
0(
#739
b101101 3
1(
#740
0(
#741
b101110 3
1(
#742
0(
#743
b101111 3
1(
#744
0(
#745
b110000 3
1(
#746
0(
#747
b110001 3
1(
#748
0(
#749
b110010 3
1(
#750
0(
#751
b110011 3
1(
#752
0(
#753
b110100 3
1(
#754
0(
#755
b110101 3
1(
#756
0(
#757
b110110 3
1(
#758
0(
#759
b110111 3
1(
#760
0(
#761
b111000 3
1(
#762
0(
#763
b111001 3
1(
#764
0(
#765
b111010 3
1(
#766
0(
#767
b111011 3
1(
#768
0(
#769
b111100 3
1(
#770
0(
#771
b111101 3
1(
#772
0(
#773
b111110 3
1(
#774
0(
#775
b111111 3
1(
#776
0(
#777
0J
b0 3
1(
#778
0(
#779
b1 3
1(
#780
0(
#781
b10 3
1(
#782
0(
#783
b11 3
1(
#784
0(
#785
b100 3
1(
#786
0(
#787
b101 3
1(
#788
0(
#789
b110 3
1(
#790
0(
#791
b111 3
1(
#792
0(
#793
b1000 3
1(
#794
0(
#795
b1001 3
1(
#796
0(
#797
b1010 3
1(
#798
0(
#799
b1011 3
1(
#800
0(
#801
b1100 3
1(
#802
0(
#803
b1101 3
1(
#804
0(
#805
b1110 3
1(
#806
0(
#807
b1111 3
1(
#808
0(
#809
b10000 3
1(
#810
0(
#811
b10001 3
1(
#812
0(
#813
b10010 3
1(
#814
0(
#815
b10011 3
1(
#816
0(
#817
b10100 3
1(
#818
0(
#819
b10101 3
1(
#820
0(
#821
b10110 3
1(
#822
0(
#823
b10111 3
1(
#824
0(
#825
b11000 3
1(
#826
0(
#827
b11001 3
1(
#828
0(
#829
b11010 3
1(
#830
0(
#831
b11011 3
1(
#832
0(
#833
b11100 3
1(
#834
0(
#835
b11101 3
1(
#836
0(
#837
b11110 3
1(
#838
0(
#839
b11111 3
1(
#840
0(
#841
0"
0i
0j
0M
1L
b11 k
1J
b100000 3
1(
#842
0(
#843
b100001 3
1(
#844
0(
#845
b100010 3
1(
#846
0(
#847
b100011 3
1(
#848
0(
#849
b100100 3
1(
#850
0(
#851
b100101 3
1(
#852
0(
#853
b100110 3
1(
#854
0(
#855
b100111 3
1(
#856
0(
#857
b101000 3
1(
#858
0(
#859
b101001 3
1(
#860
0(
#861
b101010 3
1(
#862
0(
#863
b101011 3
1(
#864
0(
#865
b101100 3
1(
#866
0(
#867
b101101 3
1(
#868
0(
#869
b101110 3
1(
#870
0(
#871
b101111 3
1(
#872
0(
#873
b110000 3
1(
#874
0(
#875
b110001 3
1(
#876
0(
#877
b110010 3
1(
#878
0(
#879
b110011 3
1(
#880
0(
#881
b110100 3
1(
#882
0(
#883
b110101 3
1(
#884
0(
#885
b110110 3
1(
#886
0(
#887
b110111 3
1(
#888
0(
#889
b111000 3
1(
#890
0(
#891
b111001 3
1(
#892
0(
#893
b111010 3
1(
#894
0(
#895
b111011 3
1(
#896
0(
#897
b111100 3
1(
#898
0(
#899
b111101 3
1(
#900
0(
#901
b111110 3
1(
#902
0(
#903
b111111 3
1(
#904
0(
#905
0J
b0 3
1(
#906
0(
#907
b1 3
1(
#908
0(
#909
b10 3
1(
#910
0(
#911
b11 3
1(
#912
0(
#913
b100 3
1(
#914
0(
#915
b101 3
1(
#916
0(
#917
b110 3
1(
#918
0(
#919
b111 3
1(
#920
0(
#921
b1000 3
1(
#922
0(
#923
b1001 3
1(
#924
0(
#925
b1010 3
1(
#926
0(
#927
b1011 3
1(
#928
0(
#929
b1100 3
1(
#930
0(
#931
b1101 3
1(
#932
0(
#933
b1110 3
1(
#934
0(
#935
b1111 3
1(
#936
0(
#937
b10000 3
1(
#938
0(
#939
b10001 3
1(
#940
0(
#941
b10010 3
1(
#942
0(
#943
b10011 3
1(
#944
0(
#945
b10100 3
1(
#946
0(
#947
b10101 3
1(
#948
0(
#949
b10110 3
1(
#950
0(
#951
b10111 3
1(
#952
0(
#953
b11000 3
1(
#954
0(
#955
b11001 3
1(
#956
0(
#957
b11010 3
1(
#958
0(
#959
b11011 3
1(
#960
0(
#961
b11100 3
1(
#962
0(
#963
b11101 3
1(
#964
0(
#965
b11110 3
1(
#966
0(
#967
b11111 3
1(
#968
0(
#969
b10 f
x!
xj
0"
0i
1O
0L
b0 k
1J
b100000 3
1(
#970
0(
#971
b100001 3
1(
#972
0(
#973
b100010 3
1(
#974
0(
#975
b100011 3
1(
#976
0(
#977
b100100 3
1(
#978
0(
#979
b100101 3
1(
#980
0(
#981
b100110 3
1(
#982
0(
#983
b100111 3
1(
#984
0(
#985
b101000 3
1(
#986
0(
#987
b101001 3
1(
#988
0(
#989
b101010 3
1(
#990
0(
#991
b101011 3
1(
#992
0(
#993
b101100 3
1(
#994
0(
#995
b101101 3
1(
#996
0(
#997
b101110 3
1(
#998
0(
#999
b101111 3
1(
#1000
0(
#1001
b110000 3
1(
#1002
0(
#1003
b110001 3
1(
#1004
0(
#1005
b110010 3
1(
#1006
0(
#1007
b110011 3
1(
#1008
0(
#1009
b110100 3
1(
#1010
0(
#1011
b110101 3
1(
#1012
0(
#1013
b110110 3
1(
#1014
0(
#1015
b110111 3
1(
#1016
0(
#1017
b111000 3
1(
#1018
0(
#1019
b111001 3
1(
#1020
0(
#1021
b111010 3
1(
#1022
0(
#1023
b111011 3
1(
#1024
0(
#1025
b111100 3
1(
#1026
0(
#1027
b111101 3
1(
#1028
0(
#1029
b111110 3
1(
#1030
0(
#1031
b111111 3
1(
#1032
0(
#1033
0J
b0 3
1(
#1034
0(
#1035
b1 3
1(
#1036
0(
#1037
b10 3
1(
#1038
0(
#1039
b11 3
1(
#1040
0(
#1041
b100 3
1(
#1042
0(
#1043
b101 3
1(
#1044
0(
#1045
b110 3
1(
#1046
0(
#1047
b111 3
1(
#1048
0(
#1049
b1000 3
1(
#1050
0(
#1051
b1001 3
1(
#1052
0(
#1053
b1010 3
1(
#1054
0(
#1055
b1011 3
1(
#1056
0(
#1057
b1100 3
1(
#1058
0(
#1059
b1101 3
1(
#1060
0(
#1061
b1110 3
1(
#1062
0(
#1063
b1111 3
1(
#1064
0(
#1065
b10000 3
1(
#1066
0(
#1067
b10001 3
1(
#1068
0(
#1069
b10010 3
1(
#1070
0(
#1071
b10011 3
1(
#1072
0(
#1073
b10100 3
1(
#1074
0(
#1075
b10101 3
1(
#1076
0(
#1077
b10110 3
1(
#1078
0(
#1079
b10111 3
1(
#1080
0(
#1081
b11000 3
1(
#1082
0(
#1083
b11001 3
1(
#1084
0(
#1085
b11010 3
1(
#1086
0(
#1087
b11011 3
1(
#1088
0(
#1089
b11100 3
1(
#1090
0(
#1091
b11101 3
1(
#1092
0(
#1093
b11110 3
1(
#1094
0(
#1095
b11111 3
1(
#1096
0(
#1097
0!
0j
0"
0i
0m
0O
1N
b1 k
1J
b100000 3
1(
#1098
0(
#1099
b100001 3
1(
#1100
0(
#1101
b100010 3
1(
#1102
0(
#1103
b100011 3
1(
#1104
0(
#1105
b100100 3
1(
#1106
0(
#1107
b100101 3
1(
#1108
0(
#1109
b100110 3
1(
#1110
0(
#1111
b100111 3
1(
#1112
0(
#1113
b101000 3
1(
#1114
0(
#1115
b101001 3
1(
#1116
0(
#1117
b101010 3
1(
#1118
0(
#1119
b101011 3
1(
#1120
0(
#1121
b101100 3
1(
#1122
0(
#1123
b101101 3
1(
#1124
0(
#1125
b101110 3
1(
#1126
0(
#1127
b101111 3
1(
#1128
0(
#1129
b110000 3
1(
#1130
0(
#1131
b110001 3
1(
#1132
0(
#1133
b110010 3
1(
#1134
0(
#1135
b110011 3
1(
#1136
0(
#1137
b110100 3
1(
#1138
0(
#1139
b110101 3
1(
#1140
0(
#1141
b110110 3
1(
#1142
0(
#1143
b110111 3
1(
#1144
0(
#1145
b111000 3
1(
#1146
0(
#1147
b111001 3
1(
#1148
0(
#1149
b111010 3
1(
#1150
0(
#1151
b111011 3
1(
#1152
0(
#1153
b111100 3
1(
#1154
0(
#1155
b111101 3
1(
#1156
0(
#1157
b111110 3
1(
#1158
0(
#1159
b111111 3
1(
#1160
0(
#1161
0J
b0 3
1(
#1162
0(
#1163
b1 3
1(
#1164
0(
#1165
b10 3
1(
#1166
0(
#1167
b11 3
1(
#1168
0(
#1169
b100 3
1(
#1170
0(
#1171
b101 3
1(
#1172
0(
#1173
b110 3
1(
#1174
0(
#1175
b111 3
1(
#1176
0(
#1177
b1000 3
1(
#1178
0(
#1179
b1001 3
1(
#1180
0(
#1181
b1010 3
1(
#1182
0(
#1183
b1011 3
1(
#1184
0(
#1185
b1100 3
1(
#1186
0(
#1187
b1101 3
1(
#1188
0(
#1189
b1110 3
1(
#1190
0(
#1191
b1111 3
1(
#1192
0(
#1193
b10000 3
1(
#1194
0(
#1195
b10001 3
1(
#1196
0(
#1197
b10010 3
1(
#1198
0(
#1199
b10011 3
1(
#1200
0(
#1201
b10100 3
1(
#1202
0(
#1203
b10101 3
1(
#1204
0(
#1205
b10110 3
1(
#1206
0(
#1207
b10111 3
1(
#1208
0(
#1209
b11000 3
1(
#1210
0(
#1211
b11001 3
1(
#1212
0(
#1213
b11010 3
1(
#1214
0(
#1215
b11011 3
1(
#1216
0(
#1217
b11100 3
1(
#1218
0(
#1219
b11101 3
1(
#1220
0(
#1221
b11110 3
1(
#1222
0(
#1223
b11111 3
1(
#1224
0(
#1225
0j
1"
1i
0N
1M
b10 k
1J
b100000 3
1(
#1226
0(
#1227
b100001 3
1(
#1228
0(
#1229
b100010 3
1(
#1230
0(
#1231
b100011 3
1(
#1232
0(
#1233
b100100 3
1(
#1234
0(
#1235
b100101 3
1(
#1236
0(
#1237
b100110 3
1(
#1238
0(
#1239
b100111 3
1(
#1240
0(
#1241
b101000 3
1(
#1242
0(
#1243
b101001 3
1(
#1244
0(
#1245
b101010 3
1(
#1246
0(
#1247
b101011 3
1(
#1248
0(
#1249
b101100 3
1(
#1250
0(
#1251
b101101 3
1(
#1252
0(
#1253
b101110 3
1(
#1254
0(
#1255
b101111 3
1(
#1256
0(
#1257
b110000 3
1(
#1258
0(
#1259
b110001 3
1(
#1260
0(
#1261
b110010 3
1(
#1262
0(
#1263
b110011 3
1(
#1264
0(
#1265
b110100 3
1(
#1266
0(
#1267
b110101 3
1(
#1268
0(
#1269
b110110 3
1(
#1270
0(
#1271
b110111 3
1(
#1272
0(
#1273
b111000 3
1(
#1274
0(
#1275
b111001 3
1(
#1276
0(
#1277
b111010 3
1(
#1278
0(
#1279
b111011 3
1(
#1280
0(
#1281
b111100 3
1(
#1282
0(
#1283
b111101 3
1(
#1284
0(
#1285
b111110 3
1(
#1286
0(
#1287
b111111 3
1(
#1288
0(
#1289
0J
b0 3
1(
#1290
0(
#1291
b1 3
1(
#1292
0(
#1293
b10 3
1(
#1294
0(
#1295
b11 3
1(
#1296
0(
#1297
b100 3
1(
#1298
0(
#1299
b101 3
1(
#1300
0(
#1301
b110 3
1(
#1302
0(
#1303
b111 3
1(
#1304
0(
#1305
b1000 3
1(
#1306
0(
#1307
b1001 3
1(
#1308
0(
#1309
b1010 3
1(
#1310
0(
#1311
b1011 3
1(
#1312
0(
#1313
b1100 3
1(
#1314
0(
#1315
b1101 3
1(
#1316
0(
#1317
b1110 3
1(
#1318
0(
#1319
b1111 3
1(
#1320
0(
#1321
b10000 3
1(
#1322
0(
#1323
b10001 3
1(
#1324
0(
#1325
b10010 3
1(
#1326
0(
#1327
b10011 3
1(
#1328
0(
#1329
b10100 3
1(
#1330
0(
#1331
b10101 3
1(
#1332
0(
#1333
b10110 3
1(
#1334
0(
#1335
b10111 3
1(
#1336
0(
#1337
b11000 3
1(
#1338
0(
#1339
b11001 3
1(
#1340
0(
#1341
b11010 3
1(
#1342
0(
#1343
b11011 3
1(
#1344
0(
#1345
b11100 3
1(
#1346
0(
